"0",""
"0","library(echarts4r)"
"0",""
"0","data <- data.frame("
"0","  month = paste0(c(1:12), ""月""),# 定义一年十二个月"
"0","  rainfall = c(0,0.4,4.5,18.5,24.5,23.5,25.2,18.6,15.0,12.2,5.1,0.3), "
"0","  snowfall = c(29.4,37.1,39.3,14.9,1.4,0.0,0.0,0.0,0.1,8.6,34.9,46.3), "
"0","  Temperature = c(-11,-8,1,13,19,24,26,25,19,10,0,-8)  #温度"
"0",")"
"0","data |>"
"0","  e_charts(month) |> # 横轴 使用管道来简单链接"
"0","  e_bar(snowfall,y_index = 0,stack = ""group1"",name=""降雪量"") |> # 纵轴"
"0","  e_bar(rainfall,y_index = 0,stack = ""group1"",name=""降雨量"") |> # 纵轴"
"0","  e_line(Temperature,y_index = 1,stack = ""group2"",name=""温度"") |> # 纵轴"
"0","  e_x_axis("
"0","    axisLabel = list(interval = 0, rotate = 30),"
"0","    name = ""月份"", # 坐标轴标题"
"0","    nameLocation = ""center"", # 横坐标轴标题的位置"
"0","    nameGap = 30"
"0","  ) |>"
"0","  e_y_axis("
"0","    y_index = 0,"
"0","    min = 0, # 最小值"
"0","    max = 50, # 最大值"
"0","    interval = 5, # 显示间隔"
"0","    name = ""降雪/雨量"", # 坐标轴名称"
"0","    formatter = ""{value} 毫米"""
"0","  ) |>"
"0","  e_y_axis("
"0","    index = 1,"
"0","    min = 0, # 最小值"
"0","    max = 30, # 最大值"
"0","    interval = 4, # 显示间隔"
"0","    name = ""温度"", # 坐标轴名称"
"0","    formatter = ""{value} ℃"""
"0","  )|>"
"0","    e_labels("
"0","    fontSize = 12, # 标签的字体大小"
"0","    fontWeight = ""bold"", # 字体粗细normal/bold/bolder/lighter"
"0","    fontStyle = ""normal"", # 字体风格normal/italic/oblique"
"0","    fontFamily = ""serif"", # 字体，可选'sans-serif','monospace','Arial','Microsoft YaHei' ..."
"0","    position = ""top"", # 标签位置"
"0","    rotate = 30, # 旋转角度"
"0","    align = ""middle"", # 水平对齐：left/middle/right"
"0","    verticalAlign = ""bottom"", # 垂直对齐：top/middle/bottom"
"0","    color = ""black"""
"0","  ) # 数据标签的颜色"
