<svg version="1.1" xmlns="http://www.w3.org/2000/svg" viewBox="0 0 3874.9603343086856 794.8771355348451" width="3874.9603343086856" height="794.8771355348451">
  <!-- svg-source:excalidraw -->
  
  <defs>
    <style class="style-fonts">
      @font-face {
        font-family: "Virgil";
        src: url("https://excalidraw.com/Virgil.woff2");
      }
      @font-face {
        font-family: "Cascadia";
        src: url("https://excalidraw.com/Cascadia.woff2");
      }
      @font-face {
        font-family: "Assistant";
        src: url("https://excalidraw.com/Assistant-Regular.woff2");
      }
    </style>
    
  </defs>
  <g stroke-opacity="0.9" fill-opacity="0.9" stroke-linecap="round" transform="translate(1044.7420634920632 376.87377797229647) rotate(0 717.9999999999998 105.99999999999994)"><path d="M32 0 C506.01 -3.14, 977.46 -1.92, 1404 0 C1424.56 -1.51, 1433.11 11.68, 1436 32 C1441.27 81.44, 1437.84 126.48, 1436 180 C1432.8 201.4, 1424.13 209.69, 1404 212 C1042.53 211.14, 682.68 210.83, 32 212 C10.17 210.41, 3.23 201.02, 0 180 C5.55 132.16, 5.72 89.69, 0 32 C-0.37 9.57, 14.14 2.62, 32 0" stroke="none" stroke-width="0" fill="#b2f2bb"></path><path d="M32 0 C362.5 -2.91, 694.82 -2.94, 1404 0 M1404 0 C1426.64 1.39, 1437.62 9.64, 1436 32 M1436 32 C1436.96 77.31, 1433.66 119.13, 1436 180 M1436 180 C1437.18 201.33, 1425.74 212.06, 1404 212 M1404 212 C1079.45 207.48, 754.77 207.43, 32 212 M32 212 C9.61 210.25, 1.68 203.25, 0 180 M0 180 C-2.74 123.04, -0.59 67.71, 0 32 M0 32 C-0.17 12.04, 10.41 0.13, 32 0" stroke="#1e1e1e" stroke-width="4.5" fill="none" stroke-dasharray="1.5 10"></path></g><g stroke-linecap="round" transform="translate(10 383.58012717864517) rotate(0 222.5 136)"><path d="M32 0 C150.94 3.55, 276.96 3.66, 413 0 C432.88 2.48, 444.37 11.08, 445 32 C446.63 81.54, 442.81 134.39, 445 240 C445.77 257.44, 431.64 274.95, 413 272 C323.07 271.64, 232.69 267.95, 32 272 C15.32 268.21, 5.52 262.7, 0 240 C-4.02 170.56, -9 92.55, 0 32 C3.65 9.76, 6.39 2.4, 32 0" stroke="none" stroke-width="0" fill="#a5d8ff"></path><path d="M32 0 C142.4 -4.11, 258.3 -4.72, 413 0 M413 0 C432.29 0.96, 445.6 10.2, 445 32 M445 32 C450.96 75.56, 451.83 117.67, 445 240 M445 240 C442.81 258.44, 433.33 274.08, 413 272 M413 272 C268.3 278.03, 120.96 276.35, 32 272 M32 272 C9.92 273.75, -1.19 258.66, 0 240 M0 240 C2.36 199.51, 2.58 153.96, 0 32 M0 32 C0.28 12.4, 7.26 -2.71, 32 0" stroke="#1e1e1e" stroke-width="4.5" fill="none" stroke-dasharray="8 12"></path></g><g stroke-linecap="round" transform="translate(198 429.58012717864517) rotate(0 108.5 43.5)"><path d="M21.75 0 C83.1 1.66, 148.11 1.02, 195.25 0 M21.75 0 C62.72 -0.25, 102.42 -0.03, 195.25 0 M195.25 0 C208.54 -1.11, 215.41 5.32, 217 21.75 M195.25 0 C207.61 0.7, 219.3 8.98, 217 21.75 M217 21.75 C218.06 31.28, 216.64 43.54, 217 65.25 M217 21.75 C216.12 29.52, 216.9 39.24, 217 65.25 M217 65.25 C216.7 80.28, 211.15 85.84, 195.25 87 M217 65.25 C214.97 79.25, 211.86 85.92, 195.25 87 M195.25 87 C157.17 87.86, 123.84 85.23, 21.75 87 M195.25 87 C146.35 86.66, 99.21 85.99, 21.75 87 M21.75 87 C5.27 86.96, -1.74 81.29, 0 65.25 M21.75 87 C4.99 86.49, 1.08 81.27, 0 65.25 M0 65.25 C0.19 57.7, -0.78 49.1, 0 21.75 M0 65.25 C0.94 54.11, -0.02 43.91, 0 21.75 M0 21.75 C-0.28 8.41, 5.83 -0.01, 21.75 0 M0 21.75 C-1.29 5.04, 7.86 -0.75, 21.75 0" stroke="#1e1e1e" stroke-width="4" fill="none"></path></g><g transform="translate(250.25 455.58012717864517) rotate(0 56.25 17.5)"><text x="56.25" y="0" font-family="Virgil, Segoe UI Emoji" font-size="28px" fill="#1e1e1e" text-anchor="middle" style="white-space: pre;" direction="ltr" dominant-baseline="text-before-edge">浮动开卷</text></g><g stroke-linecap="round" transform="translate(203 558.5801271786452) rotate(0 106.5 27.5)"><path d="M13.75 0 C50.1 0.01, 89.43 2.9, 199.25 0 M13.75 0 C63.09 1.94, 112.36 0.65, 199.25 0 M199.25 0 C207.26 1.9, 213.83 4.02, 213 13.75 M199.25 0 C207.01 -0.3, 213.16 4.98, 213 13.75 M213 13.75 C214.06 19.92, 211.87 27.86, 213 41.25 M213 13.75 C212.73 19.84, 212.18 27.2, 213 41.25 M213 41.25 C211.89 50.74, 207.89 53.84, 199.25 55 M213 41.25 C214.6 52.7, 207.63 55.17, 199.25 55 M199.25 55 C144.83 56.11, 89.09 57.11, 13.75 55 M199.25 55 C140.4 54.12, 80.56 53.74, 13.75 55 M13.75 55 C4.22 53.24, -0.43 48.55, 0 41.25 M13.75 55 C6.64 54.6, 2.09 48.55, 0 41.25 M0 41.25 C1.41 34.42, -1.09 26.31, 0 13.75 M0 41.25 C-0.01 34.25, -0.36 27.79, 0 13.75 M0 13.75 C-1.9 5.84, 3.41 1.82, 13.75 0 M0 13.75 C0.28 4.84, 4.97 1.9, 13.75 0" stroke="#1e1e1e" stroke-width="2" fill="none"></path></g><g transform="translate(253.25 568.5801271786452) rotate(0 56.25 17.5)"><text x="56.25" y="0" font-family="Virgil, Segoe UI Emoji" font-size="28px" fill="#1e1e1e" text-anchor="middle" style="white-space: pre;" direction="ltr" dominant-baseline="text-before-edge">上料小车</text></g><g stroke-linecap="round"><g transform="translate(306 555.5801271786452) rotate(0 0.5 -20)"><path d="M0.38 0.35 C0.42 -6.21, 0.44 -33.07, 0.61 -39.7 M-0.09 0.05 C0.09 -6.63, 1.43 -33.8, 1.64 -40.52" stroke="#1e1e1e" stroke-width="2" fill="none"></path></g><g transform="translate(306 555.5801271786452) rotate(0 0.5 -20)"><path d="M7.7 -21.45 C6.2 -29.05, 3.91 -34.58, 1.64 -40.52 M7.7 -21.45 C4.94 -29.27, 2.4 -36.8, 1.64 -40.52" stroke="#1e1e1e" stroke-width="2" fill="none"></path></g><g transform="translate(306 555.5801271786452) rotate(0 0.5 -20)"><path d="M-5.98 -22.02 C-2.52 -29.46, 0.15 -34.78, 1.64 -40.52 M-5.98 -22.02 C-3.27 -29.65, -0.35 -36.95, 1.64 -40.52" stroke="#1e1e1e" stroke-width="2" fill="none"></path></g></g><mask></mask><g stroke-linecap="round" transform="translate(54 425.58012717864517) rotate(0 47 93)"><path d="M23.5 0 C33.54 -0.68, 46.09 1.83, 70.5 0 M70.5 0 C84.82 -1.33, 94.74 6.61, 94 23.5 M94 23.5 C91.88 72.5, 91.95 120.79, 94 162.5 M94 162.5 C93.86 178.34, 87.55 184.84, 70.5 186 M70.5 186 C58.25 183.84, 42.55 186.22, 23.5 186 M23.5 186 C8.43 187.54, 1.97 177.17, 0 162.5 M0 162.5 C1.28 129.9, 0.08 99.19, 0 23.5 M0 23.5 C0.87 9.72, 8.79 -1.61, 23.5 0" stroke="#1e1e1e" stroke-width="1.5" fill="none" stroke-dasharray="8 9"></path></g><g transform="translate(89 445.58012717864517) rotate(0 14.0625 70)"><text x="0" y="0" font-family="Virgil, Segoe UI Emoji" font-size="28px" fill="#1e1e1e" text-anchor="start" style="white-space: pre;" direction="ltr" dominant-baseline="text-before-edge">收</text><text x="0" y="35" font-family="Virgil, Segoe UI Emoji" font-size="28px" fill="#1e1e1e" text-anchor="start" style="white-space: pre;" direction="ltr" dominant-baseline="text-before-edge">纸</text><text x="0" y="70" font-family="Virgil, Segoe UI Emoji" font-size="28px" fill="#1e1e1e" text-anchor="start" style="white-space: pre;" direction="ltr" dominant-baseline="text-before-edge">装</text><text x="0" y="105" font-family="Virgil, Segoe UI Emoji" font-size="28px" fill="#1e1e1e" text-anchor="start" style="white-space: pre;" direction="ltr" dominant-baseline="text-before-edge">置</text></g><g stroke-linecap="round"><g transform="translate(197 469.02579726641096) rotate(0 -23 0.10557489825207256)"><path d="M0.25 -0.48 C-7.37 -0.31, -38.46 0.3, -46.11 0.5" stroke="#1e1e1e" stroke-width="1.5" fill="none" stroke-dasharray="8 9"></path></g><g transform="translate(197 469.02579726641096) rotate(0 -23 0.10557489825207256)"><path d="M-24.68 -7.84 C-30.54 -6.07, -34.1 -3.34, -46.11 0.5" stroke="#1e1e1e" stroke-width="1.5" fill="none"></path></g><g transform="translate(197 469.02579726641096) rotate(0 -23 0.10557489825207256)"><path d="M-24.33 7.88 C-30.2 6.02, -33.84 5.13, -46.11 0.5" stroke="#1e1e1e" stroke-width="1.5" fill="none"></path></g></g><mask></mask><g stroke-linecap="round" transform="translate(503.5 429.08012717864517) rotate(0 108.5 43.5)"><path d="M21.75 0 C71.03 0.62, 119.28 3.14, 195.25 0 M21.75 0 C82.72 -0.52, 143.5 -1.12, 195.25 0 M195.25 0 C208.8 1.98, 218.3 7.73, 217 21.75 M195.25 0 C210.92 0.18, 218.62 8.54, 217 21.75 M217 21.75 C216.55 36.86, 217.37 53.77, 217 65.25 M217 21.75 C217.97 33.12, 217.41 45.39, 217 65.25 M217 65.25 C218.88 80.36, 208.62 87.32, 195.25 87 M217 65.25 C217.53 80.63, 211.12 87.9, 195.25 87 M195.25 87 C144.01 87.77, 89.98 86.21, 21.75 87 M195.25 87 C145.2 84.54, 94.38 85.55, 21.75 87 M21.75 87 C7.03 86.73, -1.64 78.54, 0 65.25 M21.75 87 C9.1 89.17, 1.2 78.53, 0 65.25 M0 65.25 C-1.73 47.74, -1.48 32.04, 0 21.75 M0 65.25 C-0.33 53.65, -1.09 42.62, 0 21.75 M0 21.75 C0.3 5.61, 6.37 0.66, 21.75 0 M0 21.75 C1.74 5.13, 9.07 0.28, 21.75 0" stroke="#1e1e1e" stroke-width="4" fill="none"></path></g><g transform="translate(555.75 455.08012717864517) rotate(0 56.25 17.5)"><text x="56.25" y="0" font-family="Virgil, Segoe UI Emoji" font-size="28px" fill="#1e1e1e" text-anchor="middle" style="white-space: pre;" direction="ltr" dominant-baseline="text-before-edge">导向装置</text></g><g stroke-linecap="round" transform="translate(776.5 428.08012717864517) rotate(0 124 43.5)"><path d="M21.75 0 C71.19 0.12, 122.32 0.34, 226.25 0 M21.75 0 C74.03 0.32, 126.12 -0.63, 226.25 0 M226.25 0 C240.6 1.36, 249.5 6.59, 248 21.75 M226.25 0 C240.46 -1.16, 245.95 6.86, 248 21.75 M248 21.75 C248.27 33.29, 247.72 44.35, 248 65.25 M248 21.75 C247.48 29.97, 247.65 39.34, 248 65.25 M248 65.25 C247.98 80.24, 240.05 87.13, 226.25 87 M248 65.25 C245.89 80.99, 242.77 86.01, 226.25 87 M226.25 87 C179.02 85.84, 136.23 87.03, 21.75 87 M226.25 87 C157.41 86.3, 88.18 85.75, 21.75 87 M21.75 87 C7.15 88.69, 1.34 77.9, 0 65.25 M21.75 87 C6.04 85.33, 1.3 79.19, 0 65.25 M0 65.25 C-0.21 51.27, 0.55 38.45, 0 21.75 M0 65.25 C-1.05 53.13, -0.74 41.04, 0 21.75 M0 21.75 C-1.98 9.24, 5.34 -0.07, 21.75 0 M0 21.75 C-1.7 6.73, 7.91 -1.51, 21.75 0" stroke="#1e1e1e" stroke-width="4" fill="none"></path></g><g transform="translate(788 454.08012717864517) rotate(0 112.5 17.5)"><text x="112.5" y="0" font-family="Virgil, Segoe UI Emoji" font-size="28px" fill="#1e1e1e" text-anchor="middle" style="white-space: pre;" direction="ltr" dominant-baseline="text-before-edge">液压横剪与滚焊机</text></g><g stroke-linecap="round"><g transform="translate(420 476.58012717864517) rotate(0 38.5 0.5)"><path d="M0.16 -0.28 C13.04 0.07, 63.94 1.3, 76.82 1.7 M-1.22 -1.47 C11.54 -1.43, 62.76 -0.36, 75.78 -0.05" stroke="#1e1e1e" stroke-width="4" fill="none"></path></g><g transform="translate(420 476.58012717864517) rotate(0 38.5 0.5)"><path d="M52.11 7.99 C57.76 5.59, 65.48 4.52, 75.78 -0.05 M52.11 7.99 C61.84 4.84, 71.37 0.87, 75.78 -0.05" stroke="#1e1e1e" stroke-width="4" fill="none"></path></g><g transform="translate(420 476.58012717864517) rotate(0 38.5 0.5)"><path d="M52.48 -9.11 C57.98 -7.11, 65.6 -3.78, 75.78 -0.05 M52.48 -9.11 C62.17 -5.53, 71.55 -2.78, 75.78 -0.05" stroke="#1e1e1e" stroke-width="4" fill="none"></path></g></g><mask></mask><g stroke-linecap="round"><g transform="translate(725 470.58012717864517) rotate(0 26 0.5)"><path d="M0.42 1.12 C9.24 1.31, 44 1.83, 52.69 1.84 M-0.81 0.66 C7.92 0.46, 43.29 -0.17, 52.11 0.16" stroke="#1e1e1e" stroke-width="4" fill="none"></path></g><g transform="translate(725 470.58012717864517) rotate(0 26 0.5)"><path d="M28.57 8.58 C37.09 7.26, 43.35 4.66, 52.11 0.16 M28.57 8.58 C36.28 5.33, 43.82 2.63, 52.11 0.16" stroke="#1e1e1e" stroke-width="4" fill="none"></path></g><g transform="translate(725 470.58012717864517) rotate(0 26 0.5)"><path d="M28.67 -8.52 C37.26 -4.97, 43.49 -2.7, 52.11 0.16 M28.67 -8.52 C36.47 -6.33, 43.97 -3.58, 52.11 0.16" stroke="#1e1e1e" stroke-width="4" fill="none"></path></g></g><mask></mask><g stroke-linecap="round" transform="translate(1073 427.08012717864517) rotate(0 124 43.5)"><path d="M21.75 0 C91.37 0.09, 160 0.61, 226.25 0 M21.75 0 C92.71 1.05, 161.92 1.25, 226.25 0 M226.25 0 C242.07 -0.08, 247.31 7.51, 248 21.75 M226.25 0 C242.2 1.93, 246.83 6.51, 248 21.75 M248 21.75 C248.9 34.07, 249.37 43.87, 248 65.25 M248 21.75 C248.37 32.02, 248.52 40.98, 248 65.25 M248 65.25 C246.69 80.8, 240.52 88.3, 226.25 87 M248 65.25 C246.05 77.89, 242.3 87.35, 226.25 87 M226.25 87 C165.78 87.34, 103.53 87.18, 21.75 87 M226.25 87 C182.32 89.01, 137.11 87.79, 21.75 87 M21.75 87 C8.34 88.14, -0.61 78.09, 0 65.25 M21.75 87 C7.51 86.11, -0.6 80.94, 0 65.25 M0 65.25 C-0.07 48.23, 1.35 28.57, 0 21.75 M0 65.25 C-0.57 54.49, 0.09 42.6, 0 21.75 M0 21.75 C0.66 7.94, 6.26 -1.25, 21.75 0 M0 21.75 C-1.83 5.63, 8.66 -1.1, 21.75 0" stroke="#1e1e1e" stroke-width="4" fill="none"></path></g><g transform="translate(1117.8958358764648 453.08012717864517) rotate(0 79.10416412353516 17.5)"><text x="79.10416412353516" y="0" font-family="Virgil, Segoe UI Emoji" font-size="28px" fill="#1e1e1e" text-anchor="middle" style="white-space: pre;" direction="ltr" dominant-baseline="text-before-edge">预冲洗+刷洗</text></g><g stroke-linecap="round" transform="translate(1367 427.08012717864517) rotate(0 124 43.5)"><path d="M21.75 0 C74.9 0.4, 132.29 1.43, 226.25 0 M21.75 0 C62.78 1.46, 104.11 1.89, 226.25 0 M226.25 0 C240.67 -1.04, 248.72 8.86, 248 21.75 M226.25 0 C239.53 -0.06, 247.18 5.22, 248 21.75 M248 21.75 C248.74 37.78, 247.73 53.03, 248 65.25 M248 21.75 C247.39 34.05, 247.32 44.29, 248 65.25 M248 65.25 C249.52 81.39, 242.48 85.57, 226.25 87 M248 65.25 C246.27 78.95, 240.44 88.1, 226.25 87 M226.25 87 C151.92 87.11, 73.9 85.91, 21.75 87 M226.25 87 C151.68 89.04, 75.15 87.76, 21.75 87 M21.75 87 C8.34 88.91, 0.72 78.03, 0 65.25 M21.75 87 C6.8 88.93, -1.71 77.98, 0 65.25 M0 65.25 C1.63 54.73, 2.17 44.06, 0 21.75 M0 65.25 C-0.8 53.48, -0.48 41.44, 0 21.75 M0 21.75 C-0.6 8.89, 6.4 1.48, 21.75 0 M0 21.75 C-1.95 5.9, 7.36 1.85, 21.75 0" stroke="#1e1e1e" stroke-width="4" fill="none"></path></g><g transform="translate(1397.8333358764648 453.08012717864517) rotate(0 93.16666412353516 17.5)"><text x="93.16666412353516" y="0" font-family="Virgil, Segoe UI Emoji" font-size="28px" fill="#1e1e1e" text-anchor="middle" style="white-space: pre;" direction="ltr" dominant-baseline="text-before-edge">碱冲洗+碱刷洗</text></g><g stroke-linecap="round" transform="translate(1652 427.08012717864517) rotate(0 124 43.5)"><path d="M21.75 0 C77.12 0.5, 130.14 -0.39, 226.25 0 M21.75 0 C65.06 2.21, 106.55 1.09, 226.25 0 M226.25 0 C241.2 -1.19, 248.61 5.79, 248 21.75 M226.25 0 C241.17 1.83, 247.38 5.92, 248 21.75 M248 21.75 C246.08 32.57, 246.77 44.27, 248 65.25 M248 21.75 C247.4 38.97, 248.98 56.29, 248 65.25 M248 65.25 C247.39 81.14, 240.5 87.05, 226.25 87 M248 65.25 C247.43 79.02, 240.6 87.91, 226.25 87 M226.25 87 C156.23 85.57, 85.47 87.56, 21.75 87 M226.25 87 C180.23 88.62, 133.45 88.44, 21.75 87 M21.75 87 C8.73 86.37, 1.26 79.29, 0 65.25 M21.75 87 C7.9 87.04, -0.33 81.23, 0 65.25 M0 65.25 C1.7 53.19, 1.87 45.4, 0 21.75 M0 65.25 C0.95 52.98, -0.18 40.72, 0 21.75 M0 21.75 C0.21 8.01, 6.84 -0.39, 21.75 0 M0 21.75 C0.94 8.35, 8.33 0.65, 21.75 0" stroke="#1e1e1e" stroke-width="4" fill="none"></path></g><g transform="translate(1733.8125 453.08012717864517) rotate(0 42.1875 17.5)"><text x="42.1875" y="0" font-family="Virgil, Segoe UI Emoji" font-size="28px" fill="#1e1e1e" text-anchor="middle" style="white-space: pre;" direction="ltr" dominant-baseline="text-before-edge">软水洗</text></g><g stroke-linecap="round" transform="translate(1939 427.08012717864517) rotate(0 124 43.5)"><path d="M21.75 0 C90.14 -1.95, 155.45 -0.82, 226.25 0 M21.75 0 C84.18 0.12, 145 0.67, 226.25 0 M226.25 0 C240.16 -0.19, 248.37 8.5, 248 21.75 M226.25 0 C238.65 -2.09, 246.94 9.31, 248 21.75 M248 21.75 C249.54 29.97, 249.97 41.21, 248 65.25 M248 21.75 C248.74 35.08, 247.41 48.7, 248 65.25 M248 65.25 C248.95 80.94, 239.96 87.68, 226.25 87 M248 65.25 C247.37 80.43, 239.07 86.47, 226.25 87 M226.25 87 C168.81 86.85, 113.49 84.89, 21.75 87 M226.25 87 C164.83 85.84, 102.99 86.23, 21.75 87 M21.75 87 C8.36 85.47, 0.52 78.02, 0 65.25 M21.75 87 C6.96 86.31, -0.13 80.12, 0 65.25 M0 65.25 C-1.19 51.89, 2.25 35.38, 0 21.75 M0 65.25 C-0.69 52.27, 0.92 37.66, 0 21.75 M0 21.75 C0.78 8.97, 5.49 0.6, 21.75 0 M0 21.75 C-0.06 9.33, 8.2 0.05, 21.75 0" stroke="#1e1e1e" stroke-width="4" fill="none"></path></g><g transform="translate(1997.9583358764648 453.08012717864517) rotate(0 65.04166412353516 17.5)"><text x="65.04166412353516" y="0" font-family="Virgil, Segoe UI Emoji" font-size="28px" fill="#1e1e1e" text-anchor="middle" style="white-space: pre;" direction="ltr" dominant-baseline="text-before-edge">挤干+风干</text></g><g stroke-linecap="round" transform="translate(2217 427.08012717864517) rotate(0 124 43.5)"><path d="M21.75 0 C79.86 0.27, 139.27 0.34, 226.25 0 M21.75 0 C79.66 -0.83, 135.45 -0.89, 226.25 0 M226.25 0 C242.56 0.47, 246.18 8.65, 248 21.75 M226.25 0 C238.82 -1.57, 249.9 5.99, 248 21.75 M248 21.75 C246.75 35.43, 249.43 44.97, 248 65.25 M248 21.75 C246.82 35.27, 248.48 48.66, 248 65.25 M248 65.25 C248.4 81.15, 240.02 88.43, 226.25 87 M248 65.25 C249.66 80.35, 241.27 88.61, 226.25 87 M226.25 87 C180.48 87.64, 133.15 86.23, 21.75 87 M226.25 87 C175.93 86.04, 124.62 85.2, 21.75 87 M21.75 87 C7.11 85.4, -0.12 79.48, 0 65.25 M21.75 87 C9.48 87.45, -0.82 79.1, 0 65.25 M0 65.25 C-0.65 53.52, -0.84 44.57, 0 21.75 M0 65.25 C0.38 48.63, 0.35 31.77, 0 21.75 M0 21.75 C1.35 6.77, 8.98 1.36, 21.75 0 M0 21.75 C-0.06 7.71, 5.66 0.49, 21.75 0" stroke="#1e1e1e" stroke-width="4" fill="none"></path></g><g transform="translate(2284.75 453.08012717864517) rotate(0 56.25 17.5)"><text x="56.25" y="0" font-family="Virgil, Segoe UI Emoji" font-size="28px" fill="#1e1e1e" text-anchor="middle" style="white-space: pre;" direction="ltr" dominant-baseline="text-before-edge">烘干装置</text></g><g stroke-linecap="round" transform="translate(2514.166666666667 427.41346051197854) rotate(0 108.5 43.5)"><path d="M21.75 0 C55.06 2.72, 90.97 0.08, 195.25 0 M21.75 0 C72.05 1.96, 122.76 0.89, 195.25 0 M195.25 0 C209.89 -0.1, 215.42 5.55, 217 21.75 M195.25 0 C210.79 -2.25, 217.08 8.71, 217 21.75 M217 21.75 C218.46 30.37, 216.43 40.42, 217 65.25 M217 21.75 C218.01 38.52, 216.86 54.85, 217 65.25 M217 65.25 C216.26 79.15, 211.36 88.74, 195.25 87 M217 65.25 C217.23 78.04, 210.91 85.17, 195.25 87 M195.25 87 C135.11 86.57, 76.56 87.15, 21.75 87 M195.25 87 C132.24 87.79, 66.98 87.91, 21.75 87 M21.75 87 C9.06 86.64, -1.8 81.49, 0 65.25 M21.75 87 C6.34 88.95, 2.2 78.81, 0 65.25 M0 65.25 C-0.21 55.89, 2.01 41.77, 0 21.75 M0 65.25 C-1.27 54.7, 0.36 43.7, 0 21.75 M0 21.75 C-0.45 5.62, 8.15 -1.34, 21.75 0 M0 21.75 C1.67 5.79, 6.1 1.82, 21.75 0" stroke="#1e1e1e" stroke-width="4" fill="none"></path></g><g transform="translate(2566.416666666667 453.41346051197854) rotate(0 56.25 17.5)"><text x="56.25" y="0" font-family="Virgil, Segoe UI Emoji" font-size="28px" fill="#1e1e1e" text-anchor="middle" style="white-space: pre;" direction="ltr" dominant-baseline="text-before-edge">导向装置</text></g><g stroke-linecap="round" transform="translate(2790.666666666667 425.4134605119784) rotate(0 124 43.5)"><path d="M21.75 0 C81.57 0.08, 138.24 -2.36, 226.25 0 M21.75 0 C91.71 -1.77, 163.51 -1.38, 226.25 0 M226.25 0 C240.64 1.58, 247.33 6.65, 248 21.75 M226.25 0 C243.04 1.2, 249.96 8.71, 248 21.75 M248 21.75 C247.54 34.78, 249.82 46.64, 248 65.25 M248 21.75 C248.02 35.83, 248.14 49.11, 248 65.25 M248 65.25 C248.22 81.15, 241.95 85.16, 226.25 87 M248 65.25 C247.46 81.93, 242.22 84.78, 226.25 87 M226.25 87 C157.84 86.95, 89.36 86.99, 21.75 87 M226.25 87 C155.57 84.58, 87.16 85, 21.75 87 M21.75 87 C9.16 87.38, 1.43 80.52, 0 65.25 M21.75 87 C8.02 88.54, -1.95 79.65, 0 65.25 M0 65.25 C-2.28 56.95, 0.56 47.65, 0 21.75 M0 65.25 C-0.52 49.44, -1.03 31.89, 0 21.75 M0 21.75 C-1.04 7.44, 8.5 1.07, 21.75 0 M0 21.75 C-2.27 6.44, 8.27 -1.53, 21.75 0" stroke="#1e1e1e" stroke-width="4" fill="none"></path></g><g transform="translate(2802.166666666667 451.4134605119784) rotate(0 112.5 17.5)"><text x="112.5" y="0" font-family="Virgil, Segoe UI Emoji" font-size="28px" fill="#1e1e1e" text-anchor="middle" style="white-space: pre;" direction="ltr" dominant-baseline="text-before-edge">液压横剪与滚焊机</text></g><g stroke-linecap="round" transform="translate(3419.960334308686 386.1823937895774) rotate(0 222.49999999999977 136)"><path d="M32 0 C135.46 1.58, 237.65 1.98, 413 0 C437.43 2.72, 449.16 7.34, 445 32 C449.07 88.75, 452.83 150.46, 445 240 C442.65 256.91, 430.88 268.17, 413 272 C337.89 274.11, 260.03 272.19, 32 272 C13.63 270.43, -2.2 264.51, 0 240 C-2.29 159.63, -6.56 88.83, 0 32 C0.16 13.88, 14.22 2.34, 32 0" stroke="none" stroke-width="0" fill="#b2f2bb"></path><path d="M32 0 C134.81 -6.48, 240.58 -2.43, 413 0 M413 0 C433.88 1.46, 448.35 6.78, 445 32 M445 32 C447.25 79.04, 447.23 130.14, 445 240 M445 240 C441.11 264.79, 430.38 268.47, 413 272 M413 272 C334.92 273.7, 255.16 276.27, 32 272 M32 272 C7.28 269.56, -3.8 262.95, 0 240 M0 240 C0.43 185.3, 0.92 130.48, 0 32 M0 32 C2.05 9.05, 7.31 -1.15, 32 0" stroke="#1e1e1e" stroke-width="4.5" fill="none" stroke-dasharray="8 12"></path></g><g stroke-linecap="round" transform="translate(3435.738112086464 418.84906045624405) rotate(0 108.5 43.5)"><path d="M21.75 0 C92.33 3.16, 159.59 2.19, 195.25 0 M21.75 0 C88.85 0.19, 155.04 0.12, 195.25 0 M195.25 0 C209.95 -1.3, 215.06 8.98, 217 21.75 M195.25 0 C207.48 -2.03, 214.87 6.72, 217 21.75 M217 21.75 C217.23 38.6, 215.47 50.47, 217 65.25 M217 21.75 C217.13 30.01, 217.24 39.91, 217 65.25 M217 65.25 C217.41 80.98, 210.77 86.19, 195.25 87 M217 65.25 C215.07 79.09, 208.97 87.4, 195.25 87 M195.25 87 C142.18 90.15, 86.64 89.33, 21.75 87 M195.25 87 C131.05 87.49, 65.44 86.4, 21.75 87 M21.75 87 C8.88 88.15, -0.84 78.17, 0 65.25 M21.75 87 C5.83 85.43, -2.22 79.37, 0 65.25 M0 65.25 C0.89 48.89, 0.75 34.93, 0 21.75 M0 65.25 C0.55 54.02, 0.12 41.87, 0 21.75 M0 21.75 C-0.98 8.3, 7.31 1.15, 21.75 0 M0 21.75 C1.46 8.21, 7.81 2.11, 21.75 0" stroke="#1e1e1e" stroke-width="4" fill="none"></path></g><g transform="translate(3487.988112086464 444.84906045624405) rotate(0 56.25 17.5)"><text x="56.25" y="0" font-family="Virgil, Segoe UI Emoji" font-size="28px" fill="#1e1e1e" text-anchor="middle" style="white-space: pre;" direction="ltr" dominant-baseline="text-before-edge">浮动收卷</text></g><g stroke-linecap="round" transform="translate(3447.4047787531304 576.737949345133) rotate(0 106.5 27.5)"><path d="M13.75 0 C86.87 -2.62, 155.47 0.34, 199.25 0 M13.75 0 C54.1 1.01, 93.27 2.53, 199.25 0 M199.25 0 C206.44 -1.77, 211.14 4.12, 213 13.75 M199.25 0 C209.43 0.84, 212.7 4.67, 213 13.75 M213 13.75 C210.87 25.4, 212.14 35.33, 213 41.25 M213 13.75 C213.22 20.82, 213.53 26.25, 213 41.25 M213 41.25 C211.32 49.84, 207.74 55.35, 199.25 55 M213 41.25 C213.37 51.88, 210.21 57.05, 199.25 55 M199.25 55 C128.41 54.71, 54.16 57.36, 13.75 55 M199.25 55 C128.3 55.18, 55.3 53.82, 13.75 55 M13.75 55 C3.35 53.63, -1.93 50.08, 0 41.25 M13.75 55 C5.55 56.63, -0.39 51.79, 0 41.25 M0 41.25 C-0.93 36.18, 1.25 30.44, 0 13.75 M0 41.25 C-0.59 33.22, -0.07 24.71, 0 13.75 M0 13.75 C1.27 5.42, 5.07 1.84, 13.75 0 M0 13.75 C-1.61 5.76, 2.45 2.04, 13.75 0" stroke="#1e1e1e" stroke-width="2" fill="none"></path></g><g transform="translate(3497.6547787531304 586.737949345133) rotate(0 56.25 17.5)"><text x="56.25" y="0" font-family="Virgil, Segoe UI Emoji" font-size="28px" fill="#1e1e1e" text-anchor="middle" style="white-space: pre;" direction="ltr" dominant-baseline="text-before-edge">卸料小车</text></g><g stroke-linecap="round"><g transform="translate(3549.79327670763 505.96017156735513) rotate(0 1.9168621338610592 33.88888888888894)"><path d="M0.61 -1 C1.46 10.24, 3.41 55.37, 3.96 66.7 M-0.53 1.09 C0.28 12.5, 2.45 56.54, 3.08 67.67" stroke="#1e1e1e" stroke-width="2" fill="none"></path></g><g transform="translate(3549.79327670763 505.96017156735513) rotate(0 1.9168621338610592 33.88888888888894)"><path d="M-6.7 44.67 C-6.51 49.5, -4.66 54.16, 3.08 67.67 M-6.7 44.67 C-5.61 49.1, -3.25 55.16, 3.08 67.67" stroke="#1e1e1e" stroke-width="2" fill="none"></path></g><g transform="translate(3549.79327670763 505.96017156735513) rotate(0 1.9168621338610592 33.88888888888894)"><path d="M10.38 43.76 C7.1 48.87, 5.49 53.71, 3.08 67.67 M10.38 43.76 C7.45 48.56, 5.79 54.83, 3.08 67.67" stroke="#1e1e1e" stroke-width="2" fill="none"></path></g></g><mask></mask><g stroke-linecap="round" transform="translate(3725.071445419797 409.2935049006885) rotate(0 47 93)"><path d="M23.5 0 C38.19 0.15, 55.16 -2, 70.5 0 M70.5 0 C87.9 -1.98, 92.23 5.98, 94 23.5 M94 23.5 C94.35 62.04, 96.5 98.75, 94 162.5 M94 162.5 C92.78 176.27, 86.98 185.37, 70.5 186 M70.5 186 C57.29 186.44, 44.01 187.05, 23.5 186 M23.5 186 C7.03 184.32, -0.58 177.49, 0 162.5 M0 162.5 C1.34 120.17, 1.57 75.37, 0 23.5 M0 23.5 C0.97 9.32, 6.64 -0.44, 23.5 0" stroke="#1e1e1e" stroke-width="1.5" fill="none" stroke-dasharray="8 9"></path></g><g transform="translate(3758.008945419797 432.2935049006885) rotate(0 14.0625 70)"><text x="14.0625" y="0" font-family="Virgil, Segoe UI Emoji" font-size="28px" fill="#1e1e1e" text-anchor="middle" style="white-space: pre;" direction="ltr" dominant-baseline="text-before-edge">垫</text><text x="14.0625" y="35" font-family="Virgil, Segoe UI Emoji" font-size="28px" fill="#1e1e1e" text-anchor="middle" style="white-space: pre;" direction="ltr" dominant-baseline="text-before-edge">纸</text><text x="14.0625" y="70" font-family="Virgil, Segoe UI Emoji" font-size="28px" fill="#1e1e1e" text-anchor="middle" style="white-space: pre;" direction="ltr" dominant-baseline="text-before-edge">装</text><text x="14.0625" y="105" font-family="Virgil, Segoe UI Emoji" font-size="28px" fill="#1e1e1e" text-anchor="middle" style="white-space: pre;" direction="ltr" dominant-baseline="text-before-edge">置</text></g><g stroke-linecap="round"><g transform="translate(3720.4650468799236 479.07128267846633) rotate(0 -33.08568961895185 -8.372649685629597)"><path d="M-1.17 1.04 C-12.41 -1.8, -56.34 -14.8, -67.36 -17.81" stroke="#1e1e1e" stroke-width="1.5" fill="none" stroke-dasharray="8 9"></path></g><g transform="translate(3720.4650468799236 479.07128267846633) rotate(0 -33.08568961895185 -8.372649685629597)"><path d="M-42.42 -19.58 C-48.44 -21.25, -59.67 -20.58, -67.36 -17.81" stroke="#1e1e1e" stroke-width="1.5" fill="none"></path></g><g transform="translate(3720.4650468799236 479.07128267846633) rotate(0 -33.08568961895185 -8.372649685629597)"><path d="M-47.11 -3.14 C-51.57 -9.86, -61.34 -14.29, -67.36 -17.81" stroke="#1e1e1e" stroke-width="1.5" fill="none"></path></g></g><mask></mask><g stroke-linecap="round"><g transform="translate(1026.7142857142853 469.7626668611849) rotate(0 22.22222222222217 0)"><path d="M0.06 0.17 C7.57 0.08, 37.23 -0.09, 44.7 -0.15 M-0.57 -0.22 C6.93 -0.26, 36.85 0.39, 44.41 0.47" stroke="#1e1e1e" stroke-width="4" fill="none"></path></g><g transform="translate(1026.7142857142853 469.7626668611849) rotate(0 22.22222222222217 0)"><path d="M23.4 7.73 C28.62 6.48, 32.96 5.1, 44.41 0.47 M23.4 7.73 C28.35 5.99, 34.21 4.31, 44.41 0.47" stroke="#1e1e1e" stroke-width="4" fill="none"></path></g><g transform="translate(1026.7142857142853 469.7626668611849) rotate(0 22.22222222222217 0)"><path d="M23.65 -7.47 C28.86 -5.15, 33.15 -2.96, 44.41 0.47 M23.65 -7.47 C28.54 -5.3, 34.34 -3.08, 44.41 0.47" stroke="#1e1e1e" stroke-width="4" fill="none"></path></g></g><mask></mask><g stroke-linecap="round"><g transform="translate(1321.1587301587297 466.4293335278516) rotate(0 22.77777777777783 0)"><path d="M-0.02 0.39 C7.51 0.4, 37.8 -0.5, 45.48 -0.49 M-0.7 0.12 C6.73 0.22, 37.23 0.04, 45.01 -0.04" stroke="#1e1e1e" stroke-width="4" fill="none"></path></g><g transform="translate(1321.1587301587297 466.4293335278516) rotate(0 22.77777777777783 0)"><path d="M23.66 7.91 C31.95 4.97, 37.9 3.2, 45.01 -0.04 M23.66 7.91 C32.23 5.01, 40.31 1.87, 45.01 -0.04" stroke="#1e1e1e" stroke-width="4" fill="none"></path></g><g transform="translate(1321.1587301587297 466.4293335278516) rotate(0 22.77777777777783 0)"><path d="M23.55 -7.67 C31.81 -5.11, 37.79 -1.37, 45.01 -0.04 M23.55 -7.67 C32.15 -4.58, 40.27 -1.73, 45.01 -0.04" stroke="#1e1e1e" stroke-width="4" fill="none"></path></g></g><mask></mask><g stroke-linecap="round"><g transform="translate(1618.9365079365075 469.7626668611849) rotate(0 19.44444444444457 1.1111111111111143)"><path d="M-0.53 -0.31 C5.91 0.02, 32.5 2.11, 39.05 2.52 M0.2 0.72 C6.55 1.13, 32.34 1.38, 38.7 1.7" stroke="#1e1e1e" stroke-width="4" fill="none"></path></g><g transform="translate(1618.9365079365075 469.7626668611849) rotate(0 19.44444444444457 1.1111111111111143)"><path d="M20.22 7.85 C26.52 5.93, 34.49 3.13, 38.7 1.7 M20.22 7.85 C25.22 6.19, 30.99 4.07, 38.7 1.7" stroke="#1e1e1e" stroke-width="4" fill="none"></path></g><g transform="translate(1618.9365079365075 469.7626668611849) rotate(0 19.44444444444457 1.1111111111111143)"><path d="M20.59 -5.47 C26.82 -2.43, 34.64 -0.27, 38.7 1.7 M20.59 -5.47 C25.53 -3.38, 31.19 -1.76, 38.7 1.7" stroke="#1e1e1e" stroke-width="4" fill="none"></path></g></g><mask></mask><g stroke-linecap="round"><g transform="translate(1905.194269106264 468.5880636865825) rotate(0 14.832280505772133 1.9345238095237391)"><path d="M0.07 -0.53 C4.93 0.13, 24.36 2.75, 29.29 3.56 M-0.57 0.39 C4.46 1.15, 25.35 3.58, 30.34 4.1" stroke="#1e1e1e" stroke-width="4" fill="none"></path></g><g transform="translate(1905.194269106264 468.5880636865825) rotate(0 14.832280505772133 1.9345238095237391)"><path d="M15.8 7.62 C19.77 5.98, 24.75 5.36, 30.34 4.1 M15.8 7.62 C21.59 5.91, 27.14 5.05, 30.34 4.1" stroke="#1e1e1e" stroke-width="4" fill="none"></path></g><g transform="translate(1905.194269106264 468.5880636865825) rotate(0 14.832280505772133 1.9345238095237391)"><path d="M16.94 -2.55 C20.51 -0.92, 25.12 1.74, 30.34 4.1 M16.94 -2.55 C22.25 -0.33, 27.36 2.73, 30.34 4.1" stroke="#1e1e1e" stroke-width="4" fill="none"></path></g></g><mask></mask><g stroke-linecap="round"><g transform="translate(2184.936507936507 467.4824974145314) rotate(0 15.535353535353579 1.2826718937149906)"><path d="M0.06 -0.24 C5.28 0.22, 26 2.24, 31.24 2.77 M-0.57 0.83 C4.59 1.12, 25.57 1.71, 30.9 1.91" stroke="#1e1e1e" stroke-width="4" fill="none"></path></g><g transform="translate(2184.936507936507 467.4824974145314) rotate(0 15.535353535353579 1.2826718937149906)"><path d="M16.09 6.76 C20.12 5.57, 25.13 4.56, 30.9 1.91 M16.09 6.76 C21.25 5.2, 26.91 3.43, 30.9 1.91" stroke="#1e1e1e" stroke-width="4" fill="none"></path></g><g transform="translate(2184.936507936507 467.4824974145314) rotate(0 15.535353535353579 1.2826718937149906)"><path d="M16.44 -3.9 C20.36 -1.94, 25.27 0.19, 30.9 1.91 M16.44 -3.9 C21.42 -1.56, 26.96 0.56, 30.9 1.91" stroke="#1e1e1e" stroke-width="4" fill="none"></path></g></g><mask></mask><g stroke-linecap="round"><g transform="translate(2465.603174603174 465.3182224167406) rotate(0 24.444444444444343 0.5555555555555429)"><path d="M-0.14 0.53 C7.89 0.62, 40.17 0.96, 48.38 1 M0.8 0.33 C8.96 0.74, 41.33 1.5, 49.36 1.64" stroke="#1e1e1e" stroke-width="4" fill="none"></path></g><g transform="translate(2465.603174603174 465.3182224167406) rotate(0 24.444444444444343 0.5555555555555429)"><path d="M26.21 9.51 C35.13 5.9, 41.94 4.59, 49.36 1.64 M26.21 9.51 C31.7 7.93, 37.45 5.41, 49.36 1.64" stroke="#1e1e1e" stroke-width="4" fill="none"></path></g><g transform="translate(2465.603174603174 465.3182224167406) rotate(0 24.444444444444343 0.5555555555555429)"><path d="M26.56 -7.21 C35.43 -5.05, 42.12 -0.59, 49.36 1.64 M26.56 -7.21 C31.9 -4.91, 37.56 -3.55, 49.36 1.64" stroke="#1e1e1e" stroke-width="4" fill="none"></path></g></g><mask></mask><g stroke-linecap="round"><g transform="translate(2732.269841269841 470.87377797229624) rotate(0 26.111111111111086 0)"><path d="M1.07 1.07 C9.99 1.08, 44.18 1.03, 52.56 0.82 M0.17 0.58 C9.04 0.2, 42.85 -0.95, 51.79 -0.88" stroke="#1e1e1e" stroke-width="4" fill="none"></path></g><g transform="translate(2732.269841269841 470.87377797229624) rotate(0 26.111111111111086 0)"><path d="M28.44 8.04 C35.32 6.43, 40.05 2.5, 51.79 -0.88 M28.44 8.04 C35.26 5.03, 41 2.23, 51.79 -0.88" stroke="#1e1e1e" stroke-width="4" fill="none"></path></g><g transform="translate(2732.269841269841 470.87377797229624) rotate(0 26.111111111111086 0)"><path d="M28.17 -9.06 C35.21 -6.89, 40.01 -7.06, 51.79 -0.88 M28.17 -9.06 C35.06 -7.2, 40.88 -5.13, 51.79 -0.88" stroke="#1e1e1e" stroke-width="4" fill="none"></path></g></g><mask></mask><g stroke-linecap="round"><g transform="translate(3040.047619047619 467.54044463896287) rotate(0 34.44444444444457 3.333333333333343)"><path d="M-1.01 0.53 C10.47 1.7, 58.09 5.2, 69.86 6.25 M0.66 -0.23 C11.98 1.18, 57.99 6.15, 69.42 7.57" stroke="#1e1e1e" stroke-width="4" fill="none"></path></g><g transform="translate(3040.047619047619 467.54044463896287) rotate(0 34.44444444444457 3.333333333333343)"><path d="M45.1 13.38 C55.34 12.97, 63.07 10.33, 69.42 7.57 M45.1 13.38 C52.91 12.37, 60.13 9.51, 69.42 7.57" stroke="#1e1e1e" stroke-width="4" fill="none"></path></g><g transform="translate(3040.047619047619 467.54044463896287) rotate(0 34.44444444444457 3.333333333333343)"><path d="M47.06 -3.61 C56.44 2.47, 63.42 6.34, 69.42 7.57 M47.06 -3.61 C54.23 0.75, 60.84 3.25, 69.42 7.57" stroke="#1e1e1e" stroke-width="4" fill="none"></path></g></g><mask></mask><g stroke-linecap="round" transform="translate(3105.5690947365833 345.2860943309809) rotate(0 93.65533361200596 127.37125371232764)"><path d="M117.5 32 C129.78 55.18, 146.63 80.37, 163.81 96 C187.16 129.76, 184.22 124.42, 163.81 160 C145.48 182.51, 126.41 204.2, 117.5 222.74 C94.27 258.19, 94.24 257.02, 70.5 222.74 C61.85 211.75, 53.61 192.4, 23.5 160 C0.83 126.07, 3.25 130.48, 23.5 96 C42.47 71.72, 60.81 47.19, 70.5 32 C97.59 -1.32, 91.73 -1.13, 117.5 32" stroke="none" stroke-width="0" fill="#ffc9c9"></path><path d="M117.5 32 C128.85 47.33, 138.02 61.34, 163.81 96 M117.5 32 C129.97 50.93, 145.58 70.14, 163.81 96 M163.81 96 C187.89 127.35, 186.48 129.85, 163.81 160 M163.81 96 C189.54 126.35, 187.35 130.05, 163.81 160 M163.81 160 C146.56 185.44, 126.64 210.15, 117.5 222.74 M163.81 160 C150.22 178.5, 137.13 197.31, 117.5 222.74 M117.5 222.74 C94.46 254.11, 95.29 254.4, 70.5 222.74 M117.5 222.74 C95.24 254.12, 95.79 253.04, 70.5 222.74 M70.5 222.74 C59 209.22, 48.59 194.04, 23.5 160 M70.5 222.74 C55.63 203.52, 40.69 185.39, 23.5 160 M23.5 160 C-1.23 129.03, -0.42 129.5, 23.5 96 M23.5 160 C-1.38 126.57, -1.83 128.46, 23.5 96 M23.5 96 C34.11 79.13, 47.46 62.83, 70.5 32 M23.5 96 C37.1 78.23, 50.08 59.43, 70.5 32 M70.5 32 C95.04 -0.2, 94.6 -0.67, 117.5 32 M70.5 32 C94.71 1.19, 95.05 0.83, 117.5 32" stroke="#1e1e1e" stroke-width="4" fill="none"></path></g><g transform="translate(3184.2395749706684 438.94142794298665) rotate(0 14.0625 35)"><text x="0" y="0" font-family="Virgil, Segoe UI Emoji" font-size="28px" fill="#1e1e1e" text-anchor="start" style="white-space: pre;" direction="ltr" dominant-baseline="text-before-edge">检</text><text x="0" y="35" font-family="Virgil, Segoe UI Emoji" font-size="28px" fill="#1e1e1e" text-anchor="start" style="white-space: pre;" direction="ltr" dominant-baseline="text-before-edge">测</text></g><g stroke-linecap="round"><g transform="translate(3287.260441943875 467.0380280265884) rotate(0 74.9242668896045 -5.684341886080802e-14)"><path d="M0.71 0.65 C25.49 0.71, 123.79 0.43, 148.73 0.24 M-0.38 -0.06 C24.76 -0.37, 125.82 -1.86, 150.85 -1.76" stroke="#1e1e1e" stroke-width="4" fill="none"></path></g><g transform="translate(3287.260441943875 467.0380280265884) rotate(0 74.9242668896045 -5.684341886080802e-14)"><path d="M127.42 6.95 C135.59 2.32, 141.98 2.34, 150.85 -1.76 M127.42 6.95 C132.66 4.67, 138.97 1.79, 150.85 -1.76" stroke="#1e1e1e" stroke-width="4" fill="none"></path></g><g transform="translate(3287.260441943875 467.0380280265884) rotate(0 74.9242668896045 -5.684341886080802e-14)"><path d="M127.3 -10.15 C135.49 -9.62, 141.92 -4.44, 150.85 -1.76 M127.3 -10.15 C132.63 -7.99, 138.97 -6.42, 150.85 -1.76" stroke="#1e1e1e" stroke-width="4" fill="none"></path></g></g><mask></mask><g stroke-linecap="round" transform="translate(1114.4567021453443 159.84853377920922) rotate(0 84.28980025080511 82.41669357856495)"><path d="M67.09 2.82 C77.41 -0.58, 89.96 -0.32, 100.86 1.68 C111.77 3.68, 123.12 8.21, 132.52 14.8 C141.92 21.38, 151.25 31.28, 157.25 41.18 C163.25 51.08, 167.39 63.06, 168.51 74.18 C169.63 85.3, 167.53 97.29, 164 107.9 C160.47 118.52, 154.79 129.56, 147.32 137.87 C139.85 146.18, 129.7 153.42, 119.18 157.76 C108.67 162.11, 95.51 163.94, 84.22 163.94 C72.92 163.95, 61.71 162.19, 51.4 157.8 C41.1 153.42, 30.33 145.91, 22.4 137.63 C14.46 129.35, 7.6 118.81, 3.8 108.11 C0 97.4, -1.76 84.43, -0.39 73.4 C0.98 62.38, 6.19 51.67, 12.03 41.97 C17.87 32.26, 23.07 22.14, 34.65 15.2 C46.22 8.26, 70.99 2.27, 81.47 0.31 C91.95 -1.65, 97.48 2.05, 97.52 3.43" stroke="none" stroke-width="0" fill="#ffc9c9"></path><path d="M108.82 4.32 C119.65 6.13, 130.11 11.92, 138.59 19.07 C147.07 26.21, 154.65 36.88, 159.69 47.19 C164.74 57.51, 168.49 69.81, 168.88 80.96 C169.27 92.1, 166.5 103.9, 162.05 114.07 C157.6 124.25, 150.38 134.3, 142.18 142.01 C133.99 149.72, 123.67 156.53, 112.88 160.34 C102.08 164.14, 88.96 165.67, 77.39 164.85 C65.83 164.03, 53.37 160.66, 43.48 155.44 C33.59 150.22, 24.98 142.59, 18.02 133.54 C11.06 124.49, 4.39 112.16, 1.72 101.15 C-0.96 90.14, -0.11 78.45, 1.95 67.49 C4.01 56.52, 7.56 44.7, 14.06 35.36 C20.57 26.03, 31.1 17.24, 40.97 11.49 C50.85 5.73, 61.39 1.95, 73.29 0.81 C85.19 -0.33, 105.01 3.34, 112.38 4.65 C119.76 5.96, 117.89 7.33, 117.54 8.66" stroke="#1e1e1e" stroke-width="4.5" fill="none" stroke-dasharray="1.5 10"></path></g><g transform="translate(1156.4571130539455 224.9878244453971) rotate(0 42.1875 17.5)"><text x="42.1875" y="0" font-family="Virgil, Segoe UI Emoji" font-size="28px" fill="#1e1e1e" text-anchor="middle" style="white-space: pre;" direction="ltr" dominant-baseline="text-before-edge">水循环</text></g><g stroke-linecap="round"><g transform="translate(1195.0002890516691 328.42813428081934) rotate(0 -3.746213344480225 52.44698682272315)"><path d="M0 0 C-1.25 17.48, -6.24 87.41, -7.49 104.89 M0 0 C-1.25 17.48, -6.24 87.41, -7.49 104.89" stroke="#1e1e1e" stroke-width="4" fill="none"></path></g><g transform="translate(1195.0002890516691 328.42813428081934) rotate(0 -3.746213344480225 52.44698682272315)"><path d="M-14.35 80.85 C-12.61 86.94, -10.87 93.03, -7.49 104.89 M-14.35 80.85 C-11.72 90.08, -9.09 99.3, -7.49 104.89" stroke="#1e1e1e" stroke-width="4" fill="none"></path></g><g transform="translate(1195.0002890516691 328.42813428081934) rotate(0 -3.746213344480225 52.44698682272315)"><path d="M2.71 82.07 C0.13 87.85, -2.46 93.64, -7.49 104.89 M2.71 82.07 C-1.2 90.83, -5.12 99.58, -7.49 104.89" stroke="#1e1e1e" stroke-width="4" fill="none"></path></g></g><mask></mask><g stroke-linecap="round"><g transform="translate(1221.2237824630306 420.2103612205849) rotate(0 -0.9365533361200278 -48.70077347824298)"><path d="M0 0 C-0.31 -16.23, -1.56 -81.17, -1.87 -97.4 M0 0 C-0.31 -16.23, -1.56 -81.17, -1.87 -97.4" stroke="#1e1e1e" stroke-width="4" fill="none"></path></g><g transform="translate(1221.2237824630306 420.2103612205849) rotate(0 -0.9365533361200278 -48.70077347824298)"><path d="M7.13 -74.08 C3.96 -82.27, 0.8 -90.47, -1.87 -97.4 M7.13 -74.08 C3.99 -82.2, 0.86 -90.33, -1.87 -97.4" stroke="#1e1e1e" stroke-width="4" fill="none"></path></g><g transform="translate(1221.2237824630306 420.2103612205849) rotate(0 -0.9365533361200278 -48.70077347824298)"><path d="M-9.97 -73.75 C-7.12 -82.06, -4.28 -90.37, -1.87 -97.4 M-9.97 -73.75 C-7.15 -81.99, -4.33 -90.23, -1.87 -97.4" stroke="#1e1e1e" stroke-width="4" fill="none"></path></g></g><mask></mask><g stroke-linecap="round"><g transform="translate(1166.9036889680676 68.06630683944354) rotate(0 597.5210284445958 -4.682766680600281)"><path d="M-1.24 1.24 C197.92 -0.55, 993.42 -9.59, 1193.24 -11 M3.28 -0.55 C203.5 -1.99, 999.67 -6.41, 1198.66 -8.25" stroke="#1e1e1e" stroke-width="1" fill="none"></path></g><g transform="translate(1166.9036889680676 68.06630683944354) rotate(0 597.5210284445958 -4.682766680600281)"><path d="M1176.12 -0.82 C1179.64 0.36, 1187.91 -2.9, 1197.93 -6.6 M1175.26 0.47 C1181.42 -3.06, 1190.07 -4.26, 1198.4 -8.21" stroke="#1e1e1e" stroke-width="1" fill="none"></path></g><g transform="translate(1166.9036889680676 68.06630683944354) rotate(0 597.5210284445958 -4.682766680600281)"><path d="M1176 -17.92 C1179.53 -12.68, 1187.83 -11.88, 1197.93 -6.6 M1175.14 -16.63 C1181.37 -14.99, 1190.05 -11.03, 1198.4 -8.21" stroke="#1e1e1e" stroke-width="1" fill="none"></path></g></g><mask></mask><g transform="translate(1539.65191674385 10) rotate(0 28.125 17.5)"><text x="0" y="0" font-family="Virgil, Segoe UI Emoji" font-size="28px" fill="#1e1e1e" text-anchor="start" style="white-space: pre;" direction="ltr" dominant-baseline="text-before-edge">污水</text></g><g stroke-linecap="round"><g transform="translate(1202.4927157406296 154.2292137624887) rotate(0 0 -41.20834678928247)"><path d="M0 0 C0 -13.74, 0 -68.68, 0 -82.42 M0 0 C0 -13.74, 0 -68.68, 0 -82.42" stroke="#1e1e1e" stroke-width="2" fill="none"></path></g><g transform="translate(1202.4927157406296 154.2292137624887) rotate(0 0 -41.20834678928247)"><path d="M8.55 -58.92 C5.18 -68.18, 1.81 -77.44, 0 -82.42 M8.55 -58.92 C5.95 -66.06, 3.36 -73.19, 0 -82.42" stroke="#1e1e1e" stroke-width="2" fill="none"></path></g><g transform="translate(1202.4927157406296 154.2292137624887) rotate(0 0 -41.20834678928247)"><path d="M-8.55 -58.92 C-5.18 -68.18, -1.81 -77.44, 0 -82.42 M-8.55 -58.92 C-5.95 -66.06, -3.36 -73.19, 0 -82.42" stroke="#1e1e1e" stroke-width="2" fill="none"></path></g></g><mask></mask><g stroke-linecap="round" transform="translate(1389.803382964641 155.16576709860885) rotate(0 84.28980025080511 82.41669357856495)"><path d="M106.22 3.51 C117 5.23, 128.76 12.3, 137.52 19.34 C146.27 26.39, 153.54 36.03, 158.76 45.78 C163.97 55.53, 168.21 66.77, 168.8 77.85 C169.4 88.94, 166.5 101.96, 162.33 112.29 C158.16 122.62, 151.69 131.95, 143.79 139.84 C135.89 147.73, 125.57 155.38, 114.93 159.61 C104.28 163.84, 91.38 165.7, 79.92 165.2 C68.46 164.7, 56.33 161.86, 46.17 156.61 C36.01 151.36, 26.29 142.59, 18.94 133.69 C11.59 124.78, 5.09 113.89, 2.06 103.18 C-0.97 92.47, -1.04 80.51, 0.79 69.43 C2.61 58.35, 6.66 46.03, 13.01 36.73 C19.36 27.43, 29.24 19.53, 38.89 13.63 C48.54 7.73, 58.4 2.83, 70.93 1.33 C83.46 -0.18, 105.73 3.12, 114.09 4.61 C122.45 6.09, 121.81 8.82, 121.11 10.23" stroke="none" stroke-width="0" fill="#ffc9c9"></path><path d="M121.17 8.43 C131.64 11.79, 141.32 19.67, 148.53 27.89 C155.75 36.11, 161.32 46.99, 164.45 57.73 C167.58 68.48, 168.52 81.1, 167.31 92.37 C166.1 103.63, 162.86 115.72, 157.17 125.3 C151.49 134.89, 142.62 143.45, 133.19 149.89 C123.75 156.33, 111.9 161.9, 100.56 163.94 C89.22 165.99, 76.27 164.78, 65.14 162.18 C54.01 159.57, 42.87 154.89, 33.77 148.31 C24.67 141.74, 15.97 132.49, 10.54 122.72 C5.11 112.95, 1.99 101.09, 1.18 89.69 C0.36 78.29, 1.98 65.06, 5.65 54.31 C9.32 43.57, 15.52 33.07, 23.2 25.24 C30.89 17.4, 41.32 11.44, 51.76 7.28 C62.2 3.13, 72.94 -0.6, 85.82 0.3 C98.7 1.2, 120.7 9.57, 129.02 12.69 C137.34 15.81, 136.54 17.92, 135.74 19.03" stroke="#1e1e1e" stroke-width="4.5" fill="none" stroke-dasharray="1.5 10"></path></g><g transform="translate(1431.8037938732423 220.30505776479674) rotate(0 42.1875 17.5)"><text x="42.1875" y="0" font-family="Virgil, Segoe UI Emoji" font-size="28px" fill="#1e1e1e" text-anchor="middle" style="white-space: pre;" direction="ltr" dominant-baseline="text-before-edge">碱循环</text></g><g stroke-linecap="round"><g transform="translate(1470.346969870966 323.74536760021897) rotate(0 -3.746213344480225 52.44698682272315)"><path d="M0 0 C-1.25 17.48, -6.24 87.41, -7.49 104.89 M0 0 C-1.25 17.48, -6.24 87.41, -7.49 104.89" stroke="#1e1e1e" stroke-width="4" fill="none"></path></g><g transform="translate(1470.346969870966 323.74536760021897) rotate(0 -3.746213344480225 52.44698682272315)"><path d="M-14.35 80.85 C-11.69 90.18, -9.03 99.51, -7.49 104.89 M-14.35 80.85 C-12.66 86.77, -10.97 92.69, -7.49 104.89" stroke="#1e1e1e" stroke-width="4" fill="none"></path></g><g transform="translate(1470.346969870966 323.74536760021897) rotate(0 -3.746213344480225 52.44698682272315)"><path d="M2.71 82.07 C-1.25 90.93, -5.21 99.78, -7.49 104.89 M2.71 82.07 C0.2 87.69, -2.31 93.31, -7.49 104.89" stroke="#1e1e1e" stroke-width="4" fill="none"></path></g></g><mask></mask><g stroke-linecap="round"><g transform="translate(1509.682209988008 424.89312790118504) rotate(0 -7.49242668896045 -53.38354015884323)"><path d="M0 0 C-2.5 -17.79, -12.49 -88.97, -14.98 -106.77 M0 0 C-2.5 -17.79, -12.49 -88.97, -14.98 -106.77" stroke="#1e1e1e" stroke-width="4" fill="none"></path></g><g transform="translate(1509.682209988008 424.89312790118504) rotate(0 -7.49242668896045 -53.38354015884323)"><path d="M-3.25 -84.69 C-6.11 -90.07, -8.97 -95.44, -14.98 -106.77 M-3.25 -84.69 C-6.07 -89.99, -8.88 -95.28, -14.98 -106.77" stroke="#1e1e1e" stroke-width="4" fill="none"></path></g><g transform="translate(1509.682209988008 424.89312790118504) rotate(0 -7.49242668896045 -53.38354015884323)"><path d="M-20.19 -82.31 C-18.92 -88.27, -17.65 -94.23, -14.98 -106.77 M-20.19 -82.31 C-18.94 -88.18, -17.69 -94.04, -14.98 -106.77" stroke="#1e1e1e" stroke-width="4" fill="none"></path></g></g><mask></mask><g stroke-linecap="round"><g transform="translate(1477.8393965599262 149.54644708188835) rotate(0 0 -41.20834678928247)"><path d="M0 0 C0 -13.74, 0 -68.68, 0 -82.42 M0 0 C0 -13.74, 0 -68.68, 0 -82.42" stroke="#1e1e1e" stroke-width="2" fill="none"></path></g><g transform="translate(1477.8393965599262 149.54644708188835) rotate(0 0 -41.20834678928247)"><path d="M8.55 -58.92 C5.5 -67.31, 2.44 -75.7, 0 -82.42 M8.55 -58.92 C5.3 -67.85, 2.06 -76.77, 0 -82.42" stroke="#1e1e1e" stroke-width="2" fill="none"></path></g><g transform="translate(1477.8393965599262 149.54644708188835) rotate(0 0 -41.20834678928247)"><path d="M-8.55 -58.92 C-5.5 -67.31, -2.44 -75.7, 0 -82.42 M-8.55 -58.92 C-5.3 -67.85, -2.06 -76.77, 0 -82.42" stroke="#1e1e1e" stroke-width="2" fill="none"></path></g></g><mask></mask><g stroke-linecap="round" transform="translate(1682.008023834098 149.54644708188846) rotate(0 84.289800250805 82.41669357856495)"><path d="M124.89 9.62 C135.24 13.6, 144.75 23.23, 151.79 32.21 C158.83 41.2, 164.54 52.76, 167.12 63.54 C169.7 74.32, 169.61 85.91, 167.24 96.89 C164.88 107.88, 159.29 120.16, 152.92 129.45 C146.55 138.73, 138.54 146.8, 129.02 152.6 C119.5 158.39, 107.33 162.87, 95.81 164.21 C84.29 165.56, 71.05 163.95, 59.89 160.66 C48.74 157.37, 37.53 151.65, 28.9 144.45 C20.27 137.26, 13.06 127.59, 8.13 117.5 C3.2 107.41, -0.28 95.08, -0.69 83.91 C-1.1 72.75, 1.33 60.64, 5.67 50.51 C10.01 40.38, 17.08 30.73, 25.36 23.14 C33.64 15.55, 44.29 8.66, 55.33 4.97 C66.37 1.28, 79.46 -0.38, 91.62 0.99 C103.79 2.36, 121.69 10.74, 128.31 13.21 C134.92 15.68, 131.99 14.64, 131.32 15.82" stroke="none" stroke-width="0" fill="#ffc9c9"></path><path d="M65.37 2.73 C75.48 -1.07, 87.71 -0.93, 98.78 0.91 C109.85 2.76, 122.08 7.36, 131.78 13.79 C141.48 20.22, 151.05 29.74, 156.96 39.5 C162.87 49.26, 165.74 61.39, 167.23 72.34 C168.71 83.29, 169.04 94.56, 165.85 105.21 C162.67 115.87, 155.67 127.54, 148.12 136.27 C140.57 145.01, 130.96 153.02, 120.57 157.63 C110.19 162.23, 97.07 163.75, 85.8 163.93 C74.54 164.11, 63.26 162.98, 52.97 158.7 C42.67 154.41, 32.18 146.49, 24.04 138.23 C15.9 129.97, 8.15 119.6, 4.13 109.11 C0.11 98.63, -1.13 86.34, -0.09 75.33 C0.95 64.33, 5.03 52.73, 10.39 43.07 C15.75 33.42, 20.83 24.43, 32.08 17.4 C43.33 10.38, 68.2 3.59, 77.9 0.94 C87.61 -1.72, 90.1 0.29, 90.31 1.5" stroke="#1e1e1e" stroke-width="4.5" fill="none" stroke-dasharray="1.5 10"></path></g><g transform="translate(1738.0709347426991 197.18573774807635) rotate(0 28.125 35)"><text x="28.125" y="0" font-family="Virgil, Segoe UI Emoji" font-size="28px" fill="#1e1e1e" text-anchor="middle" style="white-space: pre;" direction="ltr" dominant-baseline="text-before-edge">软水</text><text x="28.125" y="35" font-family="Virgil, Segoe UI Emoji" font-size="28px" fill="#1e1e1e" text-anchor="middle" style="white-space: pre;" direction="ltr" dominant-baseline="text-before-edge">循环</text></g><g stroke-linecap="round"><g transform="translate(1762.5516107404228 318.1260475834986) rotate(0 -3.746213344480111 52.44698682272315)"><path d="M0 0 C-1.25 17.48, -6.24 87.41, -7.49 104.89 M0 0 C-1.25 17.48, -6.24 87.41, -7.49 104.89" stroke="#1e1e1e" stroke-width="4" fill="none"></path></g><g transform="translate(1762.5516107404228 318.1260475834986) rotate(0 -3.746213344480111 52.44698682272315)"><path d="M-14.35 80.85 C-12.61 86.93, -10.88 93.01, -7.49 104.89 M-14.35 80.85 C-12.45 87.51, -10.55 94.17, -7.49 104.89" stroke="#1e1e1e" stroke-width="4" fill="none"></path></g><g transform="translate(1762.5516107404228 318.1260475834986) rotate(0 -3.746213344480111 52.44698682272315)"><path d="M2.71 82.07 C0.13 87.84, -2.45 93.61, -7.49 104.89 M2.71 82.07 C-0.12 88.39, -2.94 94.72, -7.49 104.89" stroke="#1e1e1e" stroke-width="4" fill="none"></path></g></g><mask></mask><g stroke-linecap="round"><g transform="translate(1794.3944241685044 421.1469145567048) rotate(0 -3.7462133444798837 -54.32009349496332)"><path d="M0 0 C-1.25 -18.11, -6.24 -90.53, -7.49 -108.64 M0 0 C-1.25 -18.11, -6.24 -90.53, -7.49 -108.64" stroke="#1e1e1e" stroke-width="4" fill="none"></path></g><g transform="translate(1794.3944241685044 421.1469145567048) rotate(0 -3.7462133444798837 -54.32009349496332)"><path d="M2.65 -85.79 C-0.52 -92.94, -3.7 -100.09, -7.49 -108.64 M2.65 -85.79 C-1.22 -94.51, -5.09 -103.22, -7.49 -108.64" stroke="#1e1e1e" stroke-width="4" fill="none"></path></g><g transform="translate(1794.3944241685044 421.1469145567048) rotate(0 -3.7462133444798837 -54.32009349496332)"><path d="M-14.41 -84.62 C-12.24 -92.13, -10.08 -99.65, -7.49 -108.64 M-14.41 -84.62 C-11.77 -93.78, -9.13 -102.94, -7.49 -108.64" stroke="#1e1e1e" stroke-width="4" fill="none"></path></g></g><mask></mask><g stroke-linecap="round"><g transform="translate(1770.0440374293835 143.92712706516795) rotate(0 0 -41.20834678928247)"><path d="M0 0 C0 -13.74, 0 -68.68, 0 -82.42 M0 0 C0 -13.74, 0 -68.68, 0 -82.42" stroke="#1e1e1e" stroke-width="2" fill="none"></path></g><g transform="translate(1770.0440374293835 143.92712706516795) rotate(0 0 -41.20834678928247)"><path d="M8.55 -58.92 C5.61 -67.01, 2.66 -75.1, 0 -82.42 M8.55 -58.92 C6.52 -64.5, 4.49 -70.07, 0 -82.42" stroke="#1e1e1e" stroke-width="2" fill="none"></path></g><g transform="translate(1770.0440374293835 143.92712706516795) rotate(0 0 -41.20834678928247)"><path d="M-8.55 -58.92 C-5.61 -67.01, -2.66 -75.1, 0 -82.42 M-8.55 -58.92 C-6.52 -64.5, -4.49 -70.07, 0 -82.42" stroke="#1e1e1e" stroke-width="2" fill="none"></path></g></g><mask></mask><g stroke-linecap="round"><g stroke-opacity="0.9" fill-opacity="0.9" transform="translate(2436.870012746864 708.6687887455626) rotate(0 -656.5238886201596 5.619320016720394)"><path d="M-2.08 -0.41 C-220.86 1.35, -1092.48 9.06, -1310.76 11.46 M1.99 -3.11 C-217.14 -0.92, -1092.61 13.03, -1311.76 15.21" stroke="#e03131" stroke-width="4" fill="none"></path></g><g stroke-opacity="0.9" fill-opacity="0.9" transform="translate(2436.870012746864 708.6687887455626) rotate(0 -656.5238886201596 5.619320016720394)"><path d="M-1288.68 7.98 C-1296.85 10.35, -1303.66 12.24, -1312.79 16.25 M-1287.7 6.78 C-1297.09 9.48, -1306.17 11.83, -1312.52 14.76" stroke="#e03131" stroke-width="4" fill="none"></path></g><g stroke-opacity="0.9" fill-opacity="0.9" transform="translate(2436.870012746864 708.6687887455626) rotate(0 -656.5238886201596 5.619320016720394)"><path d="M-1288.45 25.08 C-1296.76 21.13, -1303.66 16.69, -1312.79 16.25 M-1287.48 23.88 C-1297.01 20.31, -1306.18 16.38, -1312.52 14.76" stroke="#e03131" stroke-width="4" fill="none"></path></g></g><mask></mask><g stroke-opacity="0.9" fill-opacity="0.9" transform="translate(1655.7845304227367 749.8771355348451) rotate(0 56.25 17.5)"><text x="0" y="0" font-family="Virgil, Segoe UI Emoji" font-size="28px" fill="#1e1e1e" text-anchor="start" style="white-space: pre;" direction="ltr" dominant-baseline="text-before-edge">余热管道</text></g><g stroke-linecap="round"><g stroke-opacity="0.9" fill-opacity="0.9" transform="translate(2337.595359118138 703.0494687288424) rotate(0 1.873106672240283 -90.84567360364548)"><path d="M-0.25 -1.44 C0.55 -31.8, 1.57 -153.84, 2.09 -183.87" stroke="#e03131" stroke-width="4.5" fill="none" stroke-dasharray="8 12"></path></g><g stroke-opacity="0.9" fill-opacity="0.9" transform="translate(2337.595359118138 703.0494687288424) rotate(0 1.873106672240283 -90.84567360364548)"><path d="M9.32 -161.46 C7.24 -165.77, 7.14 -171.34, 3.92 -182.53" stroke="#e03131" stroke-width="4.5" fill="none"></path></g><g stroke-opacity="0.9" fill-opacity="0.9" transform="translate(2337.595359118138 703.0494687288424) rotate(0 1.873106672240283 -90.84567360364548)"><path d="M-7.78 -161.67 C-6.36 -165.92, -2.96 -171.45, 3.92 -182.53" stroke="#e03131" stroke-width="4.5" fill="none"></path></g></g><mask></mask><g stroke-linecap="round"><g stroke-opacity="0.9" fill-opacity="0.9" transform="translate(1498.4435699545675 712.4150020900429) rotate(0 -2.809660008360197 -100.21120696484604)"><path d="M1.53 2.39 C0.88 -31.07, -2.42 -165.56, -3.88 -199.53" stroke="#e03131" stroke-width="4.5" fill="none" stroke-dasharray="8 12"></path></g><g stroke-opacity="0.9" fill-opacity="0.9" transform="translate(1498.4435699545675 712.4150020900429) rotate(0 -2.809660008360197 -100.21120696484604)"><path d="M7.13 -175.08 C3.16 -184.43, -0.97 -191.63, -2.17 -200.46" stroke="#e03131" stroke-width="4.5" fill="none"></path></g><g stroke-opacity="0.9" fill-opacity="0.9" transform="translate(1498.4435699545675 712.4150020900429) rotate(0 -2.809660008360197 -100.21120696484604)"><path d="M-9.96 -174.53 C-8.8 -184.13, -7.8 -191.5, -2.17 -200.46" stroke="#e03131" stroke-width="4.5" fill="none"></path></g></g><mask></mask><g stroke-linecap="round"><g stroke-opacity="0.9" fill-opacity="0.9" transform="translate(1198.7465023961493 718.0343221067633) rotate(0 4.682766680600253 -96.46499362036582)"><path d="M-2.46 2.63 C-0.8 -29.63, 6.91 -162.87, 9.3 -195.43" stroke="#e03131" stroke-width="4.5" fill="none" stroke-dasharray="8 12"></path></g><g stroke-opacity="0.9" fill-opacity="0.9" transform="translate(1198.7465023961493 718.0343221067633) rotate(0 4.682766680600253 -96.46499362036582)"><path d="M18.21 -171.48 C12.76 -176.3, 12.75 -186.61, 9.07 -195.73" stroke="#e03131" stroke-width="4.5" fill="none"></path></g><g stroke-opacity="0.9" fill-opacity="0.9" transform="translate(1198.7465023961493 718.0343221067633) rotate(0 4.682766680600253 -96.46499362036582)"><path d="M1.14 -172.58 C0.4 -176.94, 5.09 -186.95, 9.07 -195.73" stroke="#e03131" stroke-width="4.5" fill="none"></path></g></g><mask></mask><g stroke-linecap="round"><g stroke-opacity="0.9" fill-opacity="0.9" transform="translate(1762.5516107404237 712.4150020900429) rotate(0 0 -93.65533361200562)"><path d="M-1.16 2.01 C-1.49 -29.02, -3.03 -153.94, -2.59 -185.26" stroke="#e03131" stroke-width="4.5" fill="none" stroke-dasharray="8 12"></path></g><g stroke-opacity="0.9" fill-opacity="0.9" transform="translate(1762.5516107404237 712.4150020900429) rotate(0 0 -93.65533361200562)"><path d="M7.42 -163.63 C4.99 -167.31, 2.13 -173.96, -0.66 -187.23" stroke="#e03131" stroke-width="4.5" fill="none"></path></g><g stroke-opacity="0.9" fill-opacity="0.9" transform="translate(1762.5516107404237 712.4150020900429) rotate(0 0 -93.65533361200562)"><path d="M-9.68 -163.61 C-7.36 -167.22, -5.46 -173.88, -0.66 -187.23" stroke="#e03131" stroke-width="4.5" fill="none"></path></g></g><mask></mask></svg>