<?xml version="1.0" encoding="UTF-8"?>
<svg id="_图层_1" data-name="图层 1" xmlns="http://www.w3.org/2000/svg" xmlns:xlink="http://www.w3.org/1999/xlink" viewBox="0 0 1366 768">
  <defs>
    <style>
      .cls-1 {
        fill: url(#_金);
      }

      .cls-2 {
        fill: url(#_钢);
      }

      .cls-3 {
        fill: url(#_未命名的渐变_4);
      }

      .cls-4 {
        fill: url(#_未命名的渐变_3);
      }
    </style>
    <linearGradient id="_金" data-name="金" x1="529.93" y1="491.44" x2="2157.76" y2="-651.17" gradientUnits="userSpaceOnUse">
      <stop offset="0" stop-color="#fbcf00"/>
      <stop offset=".25" stop-color="#fffcd1"/>
      <stop offset=".3" stop-color="#faf3bf"/>
      <stop offset=".38" stop-color="#eedd92"/>
      <stop offset=".5" stop-color="#dbba4b"/>
      <stop offset=".6" stop-color="#cb9b0c"/>
      <stop offset=".8" stop-color="#e7cd67"/>
      <stop offset=".87" stop-color="#f3e18b"/>
      <stop offset="1" stop-color="#fffcd1"/>
    </linearGradient>
    <linearGradient id="_未命名的渐变_4" data-name="未命名的渐变 4" x1="478.57" y1="479.47" x2="610.05" y2="283.42" gradientUnits="userSpaceOnUse">
      <stop offset="0" stop-color="#f0eeeb"/>
      <stop offset="0" stop-color="#eae7e3"/>
      <stop offset=".05" stop-color="#dbd9d5"/>
      <stop offset=".13" stop-color="#b4b4b2"/>
      <stop offset=".25" stop-color="#757a7a"/>
      <stop offset=".33" stop-color="#4c5355"/>
      <stop offset=".33" stop-color="#51585a"/>
      <stop offset=".42" stop-color="#939798"/>
      <stop offset=".49" stop-color="#c3c5c5"/>
      <stop offset=".54" stop-color="#e0e1e1"/>
      <stop offset=".57" stop-color="#ececec"/>
      <stop offset=".63" stop-color="#e2e2e3"/>
      <stop offset=".74" stop-color="#c8cacc"/>
      <stop offset=".87" stop-color="#9da2a7"/>
      <stop offset=".88" stop-color="#9ba0a5"/>
      <stop offset="1" stop-color="#dcdddd"/>
      <stop offset="1" stop-color="#b5b5b6"/>
    </linearGradient>
    <linearGradient id="_未命名的渐变_3" data-name="未命名的渐变 3" x1="648.5" y1="457.77" x2="779.97" y2="261.73" gradientUnits="userSpaceOnUse">
      <stop offset="0" stop-color="#f0eeeb"/>
      <stop offset="0" stop-color="#eae7e3"/>
      <stop offset=".04" stop-color="#dbd9d5"/>
      <stop offset=".11" stop-color="#b4b4b2"/>
      <stop offset=".2" stop-color="#757a7a"/>
      <stop offset=".26" stop-color="#4c5355"/>
      <stop offset=".27" stop-color="#51585a"/>
      <stop offset=".38" stop-color="#939798"/>
      <stop offset=".47" stop-color="#c3c5c5"/>
      <stop offset=".53" stop-color="#e0e1e1"/>
      <stop offset=".57" stop-color="#ececec"/>
      <stop offset=".68" stop-color="#eaeaea"/>
      <stop offset=".72" stop-color="#e3e3e4"/>
      <stop offset=".75" stop-color="#d7d8da"/>
      <stop offset=".78" stop-color="#c6c8cb"/>
      <stop offset=".79" stop-color="#b0b4b8"/>
      <stop offset=".81" stop-color="#9ba0a5"/>
      <stop offset="1" stop-color="#dcdddd"/>
      <stop offset="1" stop-color="#b5b5b6"/>
    </linearGradient>
    <linearGradient id="_钢" data-name="钢" x1="781.82" y1="533.92" x2="913.3" y2="337.88" gradientUnits="userSpaceOnUse">
      <stop offset="0" stop-color="#f0eeeb"/>
      <stop offset="0" stop-color="#eae7e3"/>
      <stop offset=".04" stop-color="#dbd9d5"/>
      <stop offset=".11" stop-color="#b4b4b2"/>
      <stop offset=".2" stop-color="#757a7a"/>
      <stop offset=".26" stop-color="#4c5355"/>
      <stop offset=".27" stop-color="#51585a"/>
      <stop offset=".38" stop-color="#939798"/>
      <stop offset=".47" stop-color="#c3c5c5"/>
      <stop offset=".53" stop-color="#e0e1e1"/>
      <stop offset=".57" stop-color="#ececec"/>
      <stop offset=".63" stop-color="#e2e2e3"/>
      <stop offset=".74" stop-color="#c8cacc"/>
      <stop offset=".87" stop-color="#9da2a7"/>
      <stop offset=".88" stop-color="#9ba0a5"/>
      <stop offset="1" stop-color="#dcdddd"/>
      <stop offset="1" stop-color="#b5b5b6"/>
    </linearGradient>
  </defs>
  <rect class="cls-1" width="1366" height="768"/>
  <g>
    <path class="cls-3" d="M567.82,477.04c-3.05,1.76-3.27,1.7-3.69,1.6-.26-.07-.51-.25-.64-.48-.7-1.21-.83-1.43,21.02-16.39,1.04-.71,2.1-1.44,3.15-2.16-3.05,1.84-6.24,3.78-9.21,5.58-23.09,14.02-25.87,15.48-26.9,15.22-.26-.07-.52-.26-.66-.5-.72-1.25-.8-1.38,22.55-16.78,5.34-3.52,11.31-7.46,16.17-10.75-5.36,3.19-11.94,7.21-17.82,10.81-24.58,15.03-29.81,18.01-31.1,17.68-.26-.07-.54-.28-.68-.51-.89-1.54,.09-2.59,33.52-23.46,8.79-5.48,18.91-11.8,25.56-16.21-8,4.6-20.52,12.26-31.31,18.87-30.6,18.74-37.53,22.71-39.03,22.33-.26-.07-.56-.29-.69-.52q-.45-.78,4.59-7.02c.29-.36,.59-.73,.89-1.11-1.96,1.16-4.35,2.62-6.36,3.84-8.83,5.38-8.9,5.36-9.52,5.21-.26-.07-.5-.24-.63-.48q-.43-.75,3.91-6.23c.11-.14,.22-.28,.33-.42-.83,.5-1.68,1.02-2.44,1.48-6.35,3.87-6.39,3.86-6.96,3.71-.26-.07-.49-.24-.63-.48-.07-.13-.09-.15-1.01-2.85-.17-.5-.34-.99-.48-1.4-.21,.14-.43,.28-.61,.4-1.46,.97-1.86,1.24-2.41,1.11-.27-.06-.52-.25-.66-.49q-.32-.56,1.75-4.69c.16-.31,.33-.65,.5-.99-.75,.46-1.54,.96-2.2,1.37-4.17,2.6-4.31,2.66-4.86,2.52-.26-.07-.5-.24-.64-.48q-.37-.65,2.65-5.46c.21-.33,.43-.68,.65-1.04-.38,.24-.74,.48-1.07,.69-3.69,2.38-4.14,2.62-4.75,2.47-.27-.06-.52-.25-.66-.49q-.51-.88,6.48-7.87c.73-.73,1.55-1.55,2.34-2.34-1.91,1.15-4.09,2.47-5.95,3.61-9.56,5.84-9.65,5.82-10.28,5.66-.26-.07-.5-.25-.63-.48-.56-.97-.58-1.01,9.62-10.1,.52-.46,1.05-.94,1.59-1.42-.62,.38-1.23,.75-1.82,1.11-10.58,6.5-11.16,6.7-11.86,6.52-.26-.07-.51-.25-.65-.49q-.56-.98,9.17-9.36c1.1-.95,2.33-2,3.52-3.04-.77,.48-1.54,.96-2.28,1.41-9.46,5.87-9.98,6.05-10.69,5.88-.26-.07-.52-.26-.65-.49q-.52-.9,7.92-8.47c1.2-1.07,2.54-2.28,3.82-3.43-1.75,1.07-3.65,2.25-5.4,3.34-10.79,6.7-11.89,7.25-12.7,7.05-.26-.07-.52-.26-.66-.5q-.6-1.05,12.09-11.06c1.77-1.4,3.76-2.97,5.64-4.47-1.98,1.2-4.05,2.46-5.9,3.59-12.7,7.75-12.85,7.71-13.53,7.54-.26-.07-.51-.25-.64-.48q-.6-1.04,12-11.03c1.66-1.32,3.46-2.74,5.15-4.09-1.52,.93-3.07,1.89-4.46,2.76-11.41,7.07-12.02,7.3-12.77,7.11-.26-.07-.52-.26-.65-.49q-.59-1.03,11.11-10.16c2.09-1.63,4.48-3.5,6.66-5.23-1.66,1.01-3.37,2.06-4.9,3-10.45,6.42-10.56,6.39-11.22,6.22-.26-.07-.5-.25-.64-.48q-.51-.89,7.42-8.04c1.21-1.09,2.57-2.32,3.87-3.5-.74,.45-1.47,.9-2.18,1.33-10.63,6.5-11.2,6.71-11.89,6.53-.26-.07-.51-.25-.64-.49q-.44-.76,4.43-6.35c.26-.29,.52-.6,.8-.92-.83,.52-1,.49-1.34,.4-.26-.07-.49-.24-.63-.47-.28-.48-.11-1.09,.37-1.37,.09-.05,.18-.09,.27-.11,.35-.18,1.42-.85,2.22-1.34,3.04-1.88,3.18-1.95,3.7-1.82,.26,.07,.5,.24,.63,.48q.44,.77-4.51,6.45c-.38,.43-.79,.9-1.2,1.37,2.08-1.24,4.62-2.79,6.75-4.09,8.9-5.45,8.99-5.43,9.6-5.27,.26,.07,.5,.24,.63,.48,.56,.96,.59,1.02-9.54,10.15-.42,.38-.85,.76-1.28,1.16,1.12-.68,2.26-1.38,3.33-2.04,12.4-7.62,13.17-7.9,13.93-7.71,.26,.07,.52,.26,.65,.49,.63,1.09,.69,1.2-14.06,12.73-.59,.46-1.2,.94-1.8,1.41,.62-.39,1.24-.77,1.84-1.14,11.69-7.25,12.97-7.89,13.81-7.68,.26,.07,.53,.26,.66,.5,.61,1.05,.63,1.09-12.86,11.78-1.11,.88-2.28,1.81-3.44,2.73,1.12-.68,2.25-1.37,3.33-2.03,13.7-8.36,14.46-8.66,15.22-8.47,.26,.07,.51,.25,.65,.49,.62,1.07,.64,1.11-13.33,12.13-1.14,.9-2.35,1.85-3.53,2.79,.86-.53,1.71-1.06,2.5-1.55,10.66-6.62,11.74-7.16,12.54-6.96,.26,.07,.52,.26,.66,.49q.55,.96-9.23,9.75c-.62,.56-1.27,1.14-1.92,1.72,1.01-.62,2.02-1.25,2.95-1.82,9.21-5.72,9.68-5.88,10.37-5.71,.26,.07,.52,.25,.65,.49,.57,.98,.59,1.02-9.9,10.05-.91,.79-1.88,1.62-2.83,2.44,1.3-.79,2.62-1.6,3.82-2.34,9.22-5.66,9.31-5.63,9.94-5.47,.26,.07,.5,.25,.64,.48q.52,.91-7.98,8.49c-1.18,1.05-2.5,2.23-3.76,3.37,.9-.55,1.82-1.11,2.68-1.64,11.12-6.8,11.3-6.75,11.97-6.58,.26,.07,.51,.25,.64,.48q.51,.88-6.54,7.95c-.46,.46-.95,.95-1.45,1.45,2.01-1.26,2.43-1.39,2.93-1.27,.27,.06,.53,.26,.66,.49q.37,.64-2.52,5.23c-.24,.37-.49,.78-.75,1.19,.29-.18,.58-.36,.85-.53,4.84-3.03,5.08-3.09,5.66-2.95,.26,.07,.51,.25,.64,.48q.32,.56-1.75,4.68c-.11,.23-.23,.46-.36,.71,.59-.35,.89-.44,1.26-.35,.27,.06,.52,.25,.66,.49,.07,.13,.08,.14,.95,2.67,.18,.51,.38,1.12,.56,1.62,1.18-.67,3.31-1.97,5.11-3.06,6.73-4.09,6.79-4.08,7.36-3.93,.26,.07,.49,.24,.63,.48q.4,.7-3.27,5.34c-.36,.45-.75,.94-1.14,1.44,1.49-.89,3.21-1.94,4.76-2.89,10.38-6.32,10.53-6.28,11.17-6.12,.26,.07,.5,.25,.64,.48q.41,.72-3.74,5.87c-.8,.99-1.74,2.15-2.54,3.17,6.3-3.28,22.01-12.91,35.08-20.92,29.96-18.35,38.92-23.62,40.61-23.19,.26,.07,.57,.29,.7,.52,.89,1.54-.09,2.59-33.45,23.41-7.49,4.67-15.95,9.96-22.42,14.15,5.61-3.33,12.46-7.52,18.57-11.26,24.82-15.18,28.42-17.13,29.57-16.84,.26,.07,.54,.27,.67,.5,.75,1.3,.93,1.61-26.46,19.66-2.44,1.61-4.96,3.27-7.39,4.88,3.39-2.04,6.94-4.2,10.25-6.21,21.68-13.17,23.93-14.35,24.88-14.11,.26,.07,.52,.26,.65,.49,.68,1.18,.71,1.22-17.3,13.56-2.08,1.43-4.36,2.99-6.62,4.54,12.99-7.91,13.76-8.19,14.5-8,.26,.07,.51,.25,.65,.49,.28,.48,.11,1.09-.37,1.37-.17,.1-.35,.14-.52,.13-1.42,.53-9.11,5.22-14.76,8.67-5.4,3.29-8.67,5.26-10.69,6.43Zm24.62-15.58h0s0,0,0,0Zm0,0h0s0,0,0,0Zm0,0h0s0,0,0,0Zm0,0h0s0,0,0,0Zm0,0h0s0,0,0,0Zm0,0h0s0,0,0,0Zm-114.61-34.06h0s0,0,0,0Zm82.96-51.6c-2.93,1.69-3.62,1.88-4.11,1.75-.26-.07-.53-.26-.67-.5-.28-.48-.11-1.09,.37-1.37,.19-.11,.4-.15,.6-.13,1.47-.53,8.9-5.14,14.9-8.87,15.41-9.58,17.73-10.79,18.76-10.53,.26,.07,.55,.28,.68,.51,.28,.48,.11,1.09-.37,1.37-.22,.12-.46,.16-.69,.12-1.73,.54-10.72,6.13-17.34,10.24-6.12,3.8-9.83,6.08-12.14,7.41Zm28.8-18.13h0s0,0,0,0Zm-31.85,18.39h0s0,0,0,0Zm0,0h0Zm0,0h0s0,0,0,0Zm0,0h0s0,0,0,0Zm-.04-.07s.03,.04,.04,.07c-.01-.02-.03-.05-.04-.07Zm8.05,75.51c-3.68,2.13-4.49,2.37-4.99,2.24-.26-.07-.52-.26-.66-.49-.69-1.2-.75-1.3,20.92-15.94,2.67-1.81,5.53-3.73,8.28-5.61-1.01,.62-2.01,1.23-3,1.84-20.77,12.75-24.03,14.48-25.18,14.19-.26-.07-.55-.28-.68-.51-.72-1.26-.84-1.45,21.62-16.6,3.41-2.3,7.14-4.82,10.49-7.12-3.32,2.01-6.9,4.22-10.05,6.15-15.56,9.59-17.09,10.38-17.95,10.16-.26-.07-.52-.26-.65-.49q-.65-1.13,16.59-13.61c2.14-1.55,4.44-3.21,6.64-4.81-1.68,1.02-3.38,2.07-4.99,3.06-15,9.21-16.6,10.03-17.47,9.81-.26-.07-.52-.26-.66-.49-.67-1.16-.69-1.2,16.54-13.4,2.7-1.92,5.77-4.08,8.62-6.13-1.64,1.01-3.31,2.03-4.89,3-15.12,9.31-16.87,10.2-17.77,9.97-.26-.07-.53-.26-.66-.5-.67-1.17-.76-1.32,16.97-14.16,.91-.66,1.85-1.34,2.8-2.03-.28,.17-.56,.35-.83,.52-14.44,8.95-16.26,9.86-17.21,9.62-.26-.07-.54-.27-.68-.51-.6-1.05-.65-1.13,11.82-11.03,1.28-1.02,2.65-2.11,3.98-3.16-2.21,1.34-4.61,2.8-6.82,4.15-14.14,8.65-14.86,8.93-15.63,8.74-.26-.07-.51-.25-.65-.49q-.63-1.09,14.4-12c1.08-.79,2.21-1.61,3.35-2.43-.54,.33-1.08,.66-1.61,.98-13.8,8.45-14.51,8.72-15.28,8.53-.26-.07-.51-.25-.65-.49q-.63-1.09,13.58-11.73c1-.75,2.05-1.54,3.1-2.32-.63,.38-1.25,.76-1.85,1.14-12.68,7.77-13.33,8.02-14.07,7.83-.26-.07-.51-.25-.65-.49q-.58-1,9.62-9.34c1.39-1.13,2.94-2.4,4.42-3.62-2.01,1.21-4.16,2.53-6.05,3.69-11.64,7.14-11.81,7.1-12.47,6.93-.26-.07-.51-.25-.64-.48q-.59-1.02,11.07-10.71c.9-.75,1.84-1.53,2.78-2.31-.64,.39-1.26,.78-1.86,1.14-9.98,6.13-10.13,6.09-10.78,5.93-.26-.07-.51-.25-.64-.48q-.53-.91,7.23-8.22c.53-.5,1.08-1.02,1.64-1.54-.96,.59-1.92,1.18-2.8,1.72-8.74,5.39-8.87,5.36-9.51,5.2-.26-.07-.51-.25-.64-.48q-.39-.68,3.53-5.94c.19-.26,.39-.53,.6-.8-3.09,2.01-3.71,2.3-4.33,2.15-.27-.06-.54-.26-.68-.5q-.4-.69,3.54-6.07c.25-.34,.52-.7,.78-1.06-1.24,.74-2.64,1.6-3.91,2.37-8.61,5.25-8.72,5.22-9.33,5.07-.26-.07-.5-.25-.63-.48-.74-1.28-.86-1.48,27.87-20.29,5.88-3.85,12.47-8.16,17.77-11.72-5.52,3.3-12.28,7.48-18.31,11.21-24.36,15.05-29.93,18.23-31.36,17.87-.26-.07-.57-.29-.7-.52-.77-1.34-.91-1.58,30.68-21.79,5.88-3.76,12.45-7.96,17.86-11.5-6.11,3.66-13.62,8.3-20.31,12.45-25.58,15.83-33.27,20.37-34.95,19.95-.31-.08-.56-.27-.72-.53-.91-1.57,.28-2.81,36.97-25.56,6.4-3.97,13.17-8.17,18.84-11.76-7.38,4.38-16.67,10.03-25.37,15.33-33.91,20.65-41.57,25.02-43.13,24.62-.26-.07-.56-.28-.69-.52q-.3-.52,1.39-4.6c.19-.46,.4-.97,.61-1.47-.51,.32-1.05,.66-1.49,.94-3.27,2.08-3.49,2.19-4.05,2.05-.26-.07-.51-.25-.64-.48q-.21-.36,.16-4.07c.08-.8,.17-1.74,.22-2.31-.26-.5-.03-1.14,.46-1.37,.22-.13,.51-.2,.74-.16,.29,.05,.54,.23,.69,.49q.19,.34-.12,3.56c-.05,.51-.11,1.1-.16,1.64,.53-.33,1.12-.7,1.63-1.03,3.77-2.39,4.06-2.52,4.65-2.37,.27,.06,.51,.25,.65,.49q.3,.53-1.49,4.87c-.23,.56-.5,1.21-.74,1.8,5.73-2.74,24.69-14.29,40.28-23.78,32.38-19.71,39.22-23.63,40.66-23.26,.26,.07,.55,.28,.68,.51,.81,1.4,.98,1.69-32.71,22.59-10.23,6.34-22.1,13.71-29.4,18.56,6.86-3.97,17.12-10.32,26-15.81,26.19-16.21,32.16-19.62,33.66-19.25,.3,.08,.56,.26,.71,.53,.77,1.33,.89,1.53-29.79,21.16-6.21,3.97-13.14,8.41-18.79,12.11,5.52-3.31,12.13-7.39,18.05-11.05,24.03-14.85,29.18-17.78,30.57-17.43,.26,.07,.56,.29,.7,.52,.76,1.31,.88,1.52-28.58,20.8-3.81,2.49-7.92,5.19-11.77,7.73,.05,0,.1,.02,.15,.03,.26,.07,.5,.24,.63,.48q.39,.67-3.27,5.67c-.34,.46-.7,.96-1.06,1.45,.2-.13,.4-.26,.58-.38,3.2-2.1,3.55-2.28,4.14-2.14,.27,.06,.52,.25,.66,.49q.39,.68-3.45,5.82c-.33,.44-.68,.91-1.04,1.39,1.54-.93,3.37-2.05,5-3.07,8.75-5.4,9.15-5.54,9.82-5.37,.26,.07,.51,.25,.65,.49q.52,.91-6.88,7.85c-.67,.63-1.4,1.32-2.13,2,1.29-.78,2.65-1.62,3.91-2.39,10.23-6.28,10.39-6.24,11.05-6.08,.26,.07,.51,.25,.64,.49q.57,.99-10.29,10c-1.21,1.01-2.56,2.12-3.87,3.21,1.2-.73,2.43-1.49,3.59-2.2,12.9-7.91,13.63-8.18,14.39-7.99,.26,.07,.52,.26,.65,.49,.59,1.03,.63,1.09-11.1,10.69-.69,.57-1.41,1.16-2.14,1.75,1.63-.99,3.34-2.04,4.93-3.01,12.65-7.75,13.31-8,14.04-7.81,.26,.07,.51,.25,.65,.49q.63,1.09-13.69,11.82c-1.05,.78-2.14,1.6-3.23,2.42,1.13-.69,2.26-1.38,3.34-2.04,13.73-8.4,14.43-8.67,15.19-8.48,.26,.07,.51,.25,.65,.49q.64,1.11-15.36,12.76c-.64,.46-1.29,.94-1.95,1.42,.55-.33,1.09-.66,1.61-.99,14.34-8.77,15.14-9.08,15.9-8.89,.26,.07,.51,.26,.65,.49,.6,1.04,.64,1.11-11.43,10.68-1.71,1.36-3.57,2.83-5.28,4.2,2.89-1.74,6.21-3.8,9.05-5.56,13.08-8.1,13.76-8.36,14.54-8.17,.26,.07,.52,.26,.66,.49,.65,1.12,.69,1.19-14.94,12.51-2.44,1.77-5.22,3.78-7.79,5.67,2.31-1.4,4.76-2.91,7.03-4.31,14.68-9.04,16.25-9.84,17.13-9.62,.26,.07,.52,.26,.66,.49,.68,1.18,.78,1.36-19.32,15.59-1.28,.9-2.61,1.85-3.94,2.79,1.13-.69,2.25-1.38,3.33-2.04,15.06-9.24,16.66-10.06,17.53-9.84,.26,.07,.52,.26,.66,.49,.65,1.13,.69,1.2-17.62,14.42-1.47,1.06-3.01,2.17-4.53,3.28,1.44-.88,2.9-1.79,4.33-2.66,18.46-11.37,21.38-12.91,22.46-12.64,.26,.07,.55,.28,.68,.51,.72,1.24,.83,1.44-21.42,16.45-3.8,2.57-8,5.4-11.64,7.9,4.35-2.6,9.4-5.7,13.72-8.35,17.06-10.47,18.72-11.34,19.59-11.12,.26,.07,.52,.26,.65,.49,.71,1.23,.82,1.42-23.36,17.76-1.4,.94-2.82,1.91-4.23,2.86,.94-.58,1.88-1.15,2.8-1.72,20.33-12.48,24.69-14.94,25.92-14.63,.26,.07,.55,.28,.68,.51,.28,.48,.11,1.09-.37,1.37-.22,.13-.47,.16-.7,.11-2.13,.62-15.02,8.53-24.49,14.34-8.14,5-13.02,7.96-16.01,9.68Zm39.83-24.5h0s0,0,0,0Zm0,0h0s0,0,0,0Zm-92.36-51.62h0s0,0,0,0Zm45.09-15.07c-4.61,2.66-5.69,3.02-6.3,2.87-.26-.07-.54-.27-.67-.5-.74-1.28-.83-1.44,23.99-17.57,3.37-2.19,6.99-4.54,10.42-6.79-1.67,1.02-3.35,2.04-4.95,3.01-18.7,11.4-19.69,11.81-20.54,11.6-.26-.07-.52-.26-.65-.49-.7-1.22-.83-1.44,20.41-16.09,1.76-1.22,3.63-2.5,5.46-3.77-1.26,.77-2.51,1.55-3.71,2.29-16.52,10.22-18.57,11.27-19.57,11.02-.26-.07-.54-.27-.68-.51-.7-1.21-.81-1.4,19.3-15.08,1.02-.69,2.07-1.41,3.13-2.13-1.3,.8-2.58,1.59-3.79,2.33-14.74,9.07-16.19,9.82-17.05,9.6-.26-.07-.52-.26-.65-.49q-.65-1.13,15.64-12.95c2.9-2.1,6.08-4.4,8.91-6.48-3.35,2.01-7.1,4.31-10.34,6.3-14.33,8.8-14.99,9.06-15.74,8.87-.26-.07-.51-.25-.64-.49-.68-1.17-.78-1.35,18.36-14.75,.9-.63,1.83-1.28,2.76-1.93-.69,.42-1.37,.83-2.03,1.24-14.55,8.88-15.29,9.17-16.04,8.98-.26-.07-.51-.25-.64-.49q-.6-1.04,11.82-10.68c1.49-1.16,3.15-2.44,4.76-3.7-1.66,1.01-3.38,2.06-4.99,3.04-15.19,9.27-16.03,9.6-16.82,9.4-.26-.07-.52-.26-.65-.49-.64-1.1-.69-1.19,14.33-12.37,.72-.54,1.47-1.09,2.22-1.65-.38,.24-.75,.47-1.12,.7-10.33,6.45-11.39,6.97-12.17,6.78-.26-.07-.53-.26-.66-.49-.63-1.09-.68-1.18,13.2-11.69,.67-.51,1.36-1.03,2.06-1.56-1.42,.86-2.83,1.73-4.14,2.52-12.45,7.6-12.6,7.57-13.28,7.4-.26-.07-.5-.25-.64-.48q-.59-1.02,10.62-10.05c.29-.23,.58-.46,.87-.7-7.41,4.64-8.25,5.01-8.97,4.83-.26-.07-.53-.26-.66-.5q-.56-.97,8.59-8.91c.53-.46,1.09-.94,1.64-1.43-1.04,.63-2.1,1.28-3.11,1.89-12.09,7.37-12.72,7.61-13.43,7.43-.26-.07-.51-.25-.64-.49q-.52-.9,7.67-8.38c.4-.37,.82-.75,1.24-1.13-7.01,4.36-7.5,4.5-8.15,4.34-.26-.07-.52-.26-.66-.49q-.39-.68,3.47-6.22c.29-.42,.6-.86,.9-1.29-.51,.32-1.02,.64-1.48,.93-5.4,3.41-5.85,3.61-6.49,3.45-.26-.07-.52-.25-.65-.49q-.31-.53,1.6-4.61c.14-.3,.29-.62,.44-.94-.63,.4-1.28,.82-1.83,1.18-3.69,2.39-4.13,2.62-4.75,2.47-.27-.06-.52-.25-.66-.49q-.15-.27-.37-3.28c-.03-.41-.06-.88-.09-1.31-.81,.49-1.91,1.19-2.81,1.76-4.37,2.78-4.74,2.94-5.35,2.79-.27-.06-.52-.25-.65-.49-.11-.18-.11-.19-.76-2.96-.1-.41-.2-.87-.3-1.27-.76,.46-1.86,1.16-2.75,1.73-4.28,2.74-4.7,2.92-5.31,2.77-.27-.06-.52-.25-.66-.49-.28-.48-.11-1.09,.37-1.37,.15-.09,.32-.13,.49-.13,.64-.29,2.67-1.58,4.04-2.46,3.77-2.41,4.12-2.59,4.72-2.45,.27,.06,.51,.25,.65,.49q.1,.18,.7,2.74c.11,.48,.24,1.04,.36,1.53,.91-.53,2.33-1.43,3.38-2.1,4.15-2.64,4.39-2.72,4.96-2.58,.26,.07,.51,.25,.65,.48q.15,.26,.36,3.2c.03,.44,.07,.95,.1,1.42,.75-.46,1.76-1.12,2.59-1.65,3.94-2.56,4.52-2.86,5.18-2.7,.27,.06,.53,.26,.67,.5q.31,.53-1.55,4.49c-.16,.34-.34,.72-.51,1.1,1.03-.63,2.23-1.38,3.18-1.98,4.99-3.14,5.26-3.25,5.85-3.1,.26,.07,.51,.25,.65,.48q.38,.66-3.21,5.81c-.44,.63-.93,1.34-1.4,2.02,1.58-.95,3.49-2.14,4.99-3.08,6.47-4.04,6.57-4.02,7.16-3.87,.26,.07,.51,.25,.64,.48q.52,.9-7.58,8.29c-.72,.66-1.49,1.36-2.24,2.05,2.05-1.23,4.3-2.6,6.26-3.8,10.71-6.53,10.82-6.5,11.46-6.34,.26,.07,.5,.25,.64,.48q.55,.95-8.28,8.61c-.69,.6-1.43,1.24-2.18,1.89,.67-.42,1.33-.83,1.94-1.22,8.09-5.07,8.87-5.45,9.6-5.27,.26,.07,.52,.26,.66,.49q.58,1-9.91,9.42c-.78,.63-1.62,1.3-2.47,1.99,1.17-.71,2.35-1.43,3.47-2.12,13.78-8.42,14.55-8.71,15.32-8.52,.26,.07,.51,.26,.65,.49q.61,1.06-11.64,10.37c-1.11,.84-2.31,1.75-3.51,2.66,.3-.18,.59-.37,.88-.55,11.18-6.98,12.52-7.64,13.37-7.43,.26,.07,.54,.27,.67,.5q.63,1.09-12.89,11.18c-1.6,1.19-3.38,2.52-5.11,3.81,2.03-1.23,4.13-2.51,6.01-3.66,13.79-8.41,14.43-8.67,15.17-8.48,.26,.07,.51,.25,.64,.48,.62,1.08,.65,1.12-13.31,11.95-.92,.71-1.88,1.46-2.84,2.21,1.81-1.1,3.68-2.24,5.44-3.31,15.4-9.39,16.24-9.73,17.03-9.53,.26,.07,.51,.26,.65,.49,.67,1.16,.71,1.23-16.22,13.08-1.66,1.16-3.47,2.43-5.27,3.7,.37-.23,.74-.45,1.11-.68,17.1-10.5,19.64-11.83,20.65-11.58,.26,.07,.54,.27,.67,.5,.66,1.14,.73,1.26-17.68,14.57-1.22,.89-2.5,1.81-3.78,2.74,1.22-.75,2.45-1.5,3.62-2.23,16.59-10.21,18.64-11.26,19.62-11.02,.26,.07,.54,.27,.67,.5,.69,1.19,.74,1.29-17.46,13.67-2.25,1.53-4.65,3.16-6.96,4.75,1.92-1.18,3.88-2.39,5.73-3.54,15.65-9.68,17.45-10.61,18.39-10.37,.26,.07,.53,.27,.67,.5,.69,1.2,.77,1.33-18.62,14.7-2.97,2.05-6.18,4.27-9.15,6.34,2.56-1.55,5.25-3.19,7.75-4.71,19.15-11.67,21.31-12.79,22.27-12.55,.26,.07,.52,.26,.66,.49,.75,1.3,.9,1.57-26.26,19.22-2.08,1.35-4.27,2.78-6.44,4.19,2.16-1.32,4.34-2.66,6.41-3.93,21.76-13.36,24.94-15.07,26.07-14.78,.26,.07,.54,.27,.68,.51,.28,.48,.11,1.09-.37,1.37-.21,.12-.45,.16-.67,.12-2.07,.63-14.57,8.3-24.66,14.5-9.6,5.89-15.47,9.45-19.12,11.56Zm43.1-26.53h0s0,0,0,0Zm0,0h0s0,0,0,0Zm0,0h0s0,0,0,0Zm-76.53-40.5h0s0,0,0,0Zm0,0h0s0,0,0,0Zm-.04-.07s.03,.04,.04,.07c-.01-.02-.03-.05-.04-.07Zm0,0h0s0,0,0,0Zm-24.06,45.02c-1.75,1.01-1.91,.97-2.28,.87-.26-.07-.5-.24-.63-.48-.53-.92-.55-.95,7.9-8.98,.75-.72,1.56-1.48,2.34-2.22-1.59,.97-3.31,2.05-4.81,2.98-8.9,5.55-9.35,5.7-10.03,5.53-.26-.07-.52-.25-.65-.49-.61-1.05-.63-1.09,10.95-10.14,1.02-.8,2.1-1.64,3.17-2.48-2.41,1.46-5.01,3.06-7.29,4.47-13.9,8.56-14.68,8.86-15.46,8.67-.26-.07-.52-.26-.65-.49-.62-1.08-.65-1.12,14.28-12.57,1.18-.91,2.43-1.86,3.66-2.81-.39,.24-.77,.48-1.14,.71-12.51,7.8-14.1,8.58-15.01,8.36-.26-.07-.54-.27-.68-.51-.65-1.12-.69-1.19,15.38-12.87,.58-.42,1.17-.85,1.77-1.29-.79,.49-1.57,.97-2.31,1.43-12.35,7.65-13.01,7.89-13.77,7.7-.26-.07-.52-.26-.65-.49-.68-1.18-.77-1.34,19.47-15.99,1.34-.97,2.71-1.96,4.06-2.94-1.83,1.11-3.69,2.26-5.45,3.33-16.17,9.92-18.03,10.87-18.93,10.64-.26-.07-.52-.26-.66-.5-.7-1.22-.83-1.44,20.58-16.15,1.07-.74,2.18-1.5,3.3-2.27-13.09,8.19-15.6,9.59-16.64,9.33-.26-.07-.55-.28-.68-.51-.56-.97-.58-1,8.56-8.93,.45-.39,.91-.79,1.38-1.19-3.98,2.42-4.12,2.38-4.61,2.26-.26-.07-.5-.25-.63-.48-.28-.48-.11-1.09,.37-1.37,.13-.07,.26-.11,.4-.13,.74-.33,3.69-2.14,5.88-3.48,5.69-3.49,5.73-3.48,6.3-3.33,.26,.07,.5,.24,.63,.48q.56,.97-8.39,8.76c-1.05,.91-2.23,1.93-3.36,2.92,3.07-1.84,6.85-4.21,10.03-6.2,13.77-8.61,15.39-9.43,16.34-9.19,.26,.07,.54,.27,.68,.51,.68,1.18,.76,1.31-18.4,14.47-2.95,2.03-6.16,4.23-9.12,6.29,1.99-1.21,4.03-2.46,5.95-3.64,15.87-9.74,17.56-10.61,18.45-10.38,.26,.07,.52,.26,.66,.49q.65,1.13-15.5,12.82c-2.77,2-5.91,4.28-8.83,6.42,.53-.33,1.05-.65,1.55-.96,13.2-8.17,14.75-8.95,15.64-8.72,.26,.07,.53,.27,.67,.5q.63,1.09-13.54,11.4c-1.5,1.09-3.15,2.29-4.78,3.48,.98-.61,1.94-1.21,2.85-1.77,11.32-7.06,11.93-7.28,12.68-7.09,.26,.07,.52,.26,.66,.49q.62,1.07-13.59,11.98c-1.76,1.35-3.66,2.8-5.46,4.2,1.68-1.03,3.41-2.09,5.03-3.09,14.15-8.72,15.79-9.55,16.68-9.33,.26,.07,.53,.26,.66,.5,.61,1.05,.63,1.09-10.94,10.12-.46,.36-.94,.73-1.42,1.1,8.45-5.25,9.46-5.72,10.21-5.54,.26,.07,.53,.26,.66,.5q.52,.9-7.1,8.14c-.87,.82-1.83,1.74-2.77,2.63,.08-.05,.17-.1,.25-.15,6.2-3.8,6.26-3.78,6.83-3.64,.26,.07,.5,.24,.63,.48,.28,.48,.11,1.09-.37,1.37-.12,.07-.24,.11-.37,.13-.7,.32-3.57,2.08-5.68,3.37-2.37,1.45-3.89,2.37-4.89,2.95Zm9.58-6.81h0Zm0,0h0Zm0,0h0s0,0,0,0Zm0,0h0Zm-14.02-32.66h0s0,0,0,0Zm0,0h0Zm0,0h0Z"/>
    <path class="cls-4" d="M718.76,458.54c-3.96,2.28-4.9,2.58-5.45,2.44-.26-.07-.53-.27-.67-.5-.72-1.25-.78-1.35,22.67-16.85,3.03-2,6.29-4.15,9.39-6.22-1.89,1.16-3.8,2.33-5.61,3.44-17.91,11.01-19.96,12.07-20.91,11.82-.26-.07-.53-.26-.66-.5-.72-1.24-.85-1.46,21.57-16.45,1.2-.8,2.45-1.64,3.71-2.48-.87,.53-1.72,1.06-2.56,1.57-17.41,10.68-19.4,11.71-20.35,11.47-.26-.07-.53-.26-.66-.5-.69-1.2-.73-1.27,21.38-16.54,2.99-2.07,6.23-4.3,9.24-6.4-3.19,1.92-6.61,4-9.77,5.92-18.55,11.3-19.53,11.71-20.34,11.5-.26-.07-.51-.25-.65-.49-.71-1.23-.78-1.35,20.68-15.71,1.58-1.06,3.23-2.16,4.89-3.27-15.91,9.77-17.76,10.72-18.69,10.48-.26-.07-.53-.27-.66-.5-.7-1.22-.81-1.4,19.84-15.92,2.57-1.81,5.36-3.77,7.94-5.6-3.05,1.85-6.33,3.87-9.22,5.65-14.71,9.07-15.46,9.37-16.24,9.17-.26-.07-.52-.25-.65-.49-.68-1.18-.74-1.28,18.26-14.17,3.38-2.29,7.26-4.93,10.74-7.33-3.54,2.13-7.45,4.53-10.84,6.61-16,9.82-16.79,10.15-17.58,9.95-.26-.07-.51-.25-.65-.49-.67-1.17-.72-1.24,18.31-14.22,2.44-1.67,5.06-3.45,7.57-5.18-2.4,1.45-4.87,2.95-7.19,4.36-19.43,11.8-20.53,12.27-21.37,12.05-.26-.07-.51-.26-.65-.49-.69-1.19-.73-1.26,19.49-15.08,3.39-2.32,7.11-4.86,10.45-7.18-3.74,2.24-7.84,4.74-11.42,6.92-17.27,10.53-18.04,10.86-18.83,10.65-.26-.07-.51-.25-.64-.48-.7-1.21-.77-1.33,18.68-14.79,2.61-1.8,5.41-3.75,8.06-5.6-1.33,.82-2.67,1.64-3.94,2.42-14.52,8.92-15.32,9.23-16.11,9.03-.26-.07-.52-.26-.65-.49-.66-1.14-.68-1.19,16.91-13.95,2.93-2.13,6.15-4.46,9.02-6.57-3.06,1.85-6.45,3.93-9.54,5.84-15.89,9.77-17.58,10.65-18.48,10.42-.26-.07-.52-.26-.66-.49-.68-1.18-.79-1.36,19.46-15.47,.03-.02,.05-.03,.08-.05-.31,.19-.62,.38-.92,.56-16.28,9.95-18.01,10.84-18.9,10.61-.26-.07-.52-.26-.65-.49-.69-1.19-.78-1.35,18.74-14.73,1.74-1.19,3.58-2.45,5.38-3.7-1.91,1.17-3.83,2.35-5.58,3.43-14.71,9.06-16.16,9.81-17.02,9.59-.26-.07-.52-.26-.66-.49-.69-1.19-.76-1.32,19.98-15.9,2.54-1.78,5.28-3.71,7.84-5.53-2.86,1.73-5.87,3.58-8.54,5.22-15.88,9.76-17.44,10.56-18.32,10.34-.26-.07-.52-.26-.66-.49-.67-1.16-.71-1.23,18.1-14.83,1.76-1.27,3.63-2.62,5.44-3.94-1.89,1.16-3.83,2.36-5.65,3.49-15.33,9.5-17.11,10.41-18.06,10.17-.26-.07-.54-.27-.67-.5-.69-1.19-.79-1.38,20.4-16.05,.16-.11,.32-.22,.48-.33-15.76,9.66-17.57,10.59-18.47,10.36-.26-.07-.52-.26-.66-.5-.67-1.16-.71-1.23,17.2-13.83,1.51-1.07,3.11-2.19,4.68-3.3-1.55,.95-3.11,1.9-4.59,2.82-15.55,9.54-17.2,10.39-18.08,10.17-.26-.07-.52-.26-.66-.49-.66-1.15-.7-1.22,16.23-13.1,1.78-1.25,3.66-2.57,5.51-3.87-.9,.55-1.8,1.1-2.67,1.63-13.81,8.43-14.45,8.69-15.2,8.5-.26-.07-.51-.25-.64-.49-.63-1.1-.7-1.21,13.99-12.36,1.08-.82,2.21-1.68,3.33-2.53-.93,.58-1.86,1.15-2.75,1.71-12.35,7.67-13.81,8.39-14.67,8.18-.26-.07-.53-.27-.67-.5-.63-1.1-.7-1.21,13.95-11.97,.59-.43,1.2-.88,1.82-1.33-.89,.55-1.76,1.08-2.58,1.59-11.72,7.23-12.29,7.45-13.02,7.26-.26-.07-.51-.25-.65-.49q-.59-1.03,11.36-10.48c1.77-1.4,3.78-2.99,5.66-4.49-2.41,1.45-5.02,3.06-7.31,4.47-11.51,7.08-11.65,7.04-12.31,6.87-.26-.07-.51-.25-.64-.48-.63-1.09-.7-1.21,14.07-12.26,.61-.46,1.24-.93,1.87-1.4-.37,.22-.73,.45-1.09,.66-11.68,7.14-11.83,7.09-12.5,6.92-.26-.07-.5-.25-.64-.48q-.54-.93,8.46-8.74c1-.87,2.11-1.83,3.19-2.78-1.33,.81-2.71,1.65-4,2.44-12.01,7.33-12.63,7.57-13.34,7.38-.26-.07-.51-.25-.64-.49-.6-1.04-.62-1.08,11.1-10.5,.47-.38,.96-.77,1.45-1.17-.03,.02-.06,.04-.09,.06-8.24,5.17-8.67,5.32-9.36,5.15-.26-.07-.52-.26-.66-.49-.58-1.01-.62-1.07,10.43-10.08,.47-.38,.96-.78,1.45-1.18-1.06,.64-2.11,1.28-3.08,1.88-10.1,6.17-10.21,6.14-10.85,5.98-.26-.07-.5-.25-.64-.48q-.55-.96,8.39-8.75c.2-.17,.4-.35,.6-.53-4.88,3.07-5.46,3.29-6.08,3.14-.26-.07-.52-.26-.66-.49q-.52-.9,6.86-7.9c.41-.39,.84-.8,1.28-1.21-.84,.51-1.68,1.02-2.49,1.51-10.44,6.37-10.59,6.33-11.24,6.16-.26-.07-.5-.25-.64-.48q-.49-.85,6.42-7.65c.32-.31,.65-.64,.98-.97-4.41,2.75-4.95,2.95-5.54,2.81-.26-.07-.52-.26-.66-.49q-.36-.62,2.65-5.7c.22-.37,.45-.77,.69-1.17-.16,.1-.31,.2-.46,.3-3.9,2.49-4.24,2.63-4.83,2.49-.27-.06-.52-.25-.65-.49q-.27-.47,1.02-4.2c.09-.27,.2-.57,.3-.86-.22,.14-.43,.29-.62,.41-2.35,1.57-2.77,1.81-3.35,1.67-.27-.06-.53-.25-.67-.49-.13-.22-.13-.23-.58-3.07-.06-.41-.14-.88-.21-1.31-.48,.3-1.06,.68-1.55,.99-2.92,1.89-3.28,2.07-3.86,1.93-.27-.06-.52-.25-.65-.49-.1-.17-.1-.18-.83-2.88-.11-.41-.23-.87-.34-1.27-.61,.37-1.41,.89-2.07,1.32-3.43,2.22-3.89,2.45-4.5,2.3-.27-.06-.52-.25-.66-.49-.28-.48-.11-1.09,.37-1.37,.15-.09,.31-.13,.48-.13,.56-.26,2.15-1.29,3.23-1.99,3.14-2.03,3.43-2.18,4.01-2.04,.27,.06,.51,.25,.65,.49,.09,.16,.1,.17,.77,2.66,.13,.47,.28,1.03,.41,1.5,.58-.36,1.34-.85,1.93-1.22,2.66-1.72,3.02-1.93,3.6-1.8,.27,.06,.51,.25,.65,.48q.13,.22,.57,2.99c.07,.44,.15,.94,.22,1.39,.42-.27,.91-.6,1.29-.85,2.47-1.65,3.01-1.96,3.63-1.82,.27,.06,.54,.26,.67,.5q.27,.46-.98,4.09c-.11,.33-.24,.68-.36,1.04,.63-.39,1.3-.82,1.86-1.18,3.47-2.22,3.79-2.38,4.37-2.24,.27,.06,.51,.25,.65,.48q.35,.6-2.45,5.33c-.33,.56-.71,1.2-1.07,1.81,1.11-.67,2.37-1.47,3.39-2.11,4.99-3.14,5.06-3.12,5.62-2.98,.26,.07,.5,.25,.64,.48q.49,.85-6.33,7.56c-.56,.55-1.16,1.14-1.76,1.74,1.58-.95,3.29-1.99,4.78-2.9,8.91-5.44,9-5.42,9.61-5.26,.26,.07,.5,.24,.63,.48q.51,.88-6.62,7.64c-.49,.47-1.02,.97-1.56,1.48,.21-.13,.41-.26,.6-.38,6.17-3.9,6.67-4.13,7.34-3.96,.27,.06,.52,.25,.66,.49q.53,.92-7.83,8.21c-.59,.51-1.21,1.05-1.84,1.61,.87-.53,1.74-1.06,2.57-1.57,11.64-7.11,11.82-7.06,12.5-6.89,.26,.07,.51,.25,.64,.49q.57,.99-9.2,8.96c-.78,.64-1.61,1.32-2.46,2.01,8.33-5.23,9.22-5.65,9.99-5.46,.26,.07,.53,.26,.67,.5q.58,1.01-9.98,9.5c-1.11,.89-2.33,1.87-3.53,2.85,1.41-.85,2.83-1.73,4.13-2.52,11.25-6.87,11.39-6.84,12.04-6.67,.26,.07,.5,.25,.64,.48q.57,.99-9.52,9.74c-.62,.53-1.26,1.09-1.9,1.65,1.4-.85,2.86-1.74,4.22-2.57,11.97-7.31,12.54-7.53,13.26-7.35,.26,.07,.51,.25,.64,.49q.63,1.09-12.44,10.9c-1.17,.88-2.43,1.82-3.7,2.77,.11-.07,.22-.14,.34-.21,13.64-8.39,15.23-9.18,16.11-8.96,.26,.07,.53,.26,.66,.5,.61,1.06,.64,1.11-12.83,11.76-.82,.65-1.68,1.33-2.54,2.01,.87-.53,1.73-1.07,2.56-1.58,12.72-7.85,14.1-8.54,14.96-8.33,.26,.07,.53,.26,.66,.5,.63,1.09,.65,1.13-12.63,10.89-1.23,.91-2.57,1.89-3.91,2.88,1.05-.65,2.09-1.29,3.06-1.9,11.79-7.32,12.97-7.91,13.79-7.7,.26,.07,.52,.26,.66,.49,.62,1.07,.66,1.14-12.77,11.32-1.67,1.27-3.52,2.67-5.31,4.05,1.64-1,3.33-2.03,4.92-2.99,14.85-9.07,15.67-9.39,16.46-9.19,.26,.07,.51,.26,.65,.49,.68,1.18,.75,1.31-17.76,14.29-1.01,.71-2.05,1.44-3.1,2.17,1.16-.71,2.31-1.41,3.42-2.09,15.82-9.71,17.63-10.64,18.54-10.42,.26,.07,.52,.26,.66,.5,.67,1.15,.71,1.22-17.09,13.74-1.6,1.12-3.28,2.31-4.94,3.48,1.59-.97,3.2-1.96,4.72-2.89,15.78-9.68,16.65-10.02,17.47-9.82,.26,.07,.52,.26,.65,.49q.66,1.15-16.46,13.03c-2.68,1.86-5.7,3.95-8.55,5.95,1.58-.98,3.18-1.97,4.7-2.91,15.43-9.56,17.22-10.47,18.19-10.23,.26,.07,.54,.27,.67,.5q.65,1.12-16.43,13.5c-2.39,1.73-4.97,3.6-7.4,5.37,2.02-1.23,4.11-2.51,6.06-3.71,17.77-10.92,19.96-12.04,20.96-11.79,.26,.07,.54,.27,.67,.5,.68,1.18,.72,1.25-18.73,14.94-2.49,1.75-5.16,3.63-7.7,5.43,1.08-.67,2.16-1.33,3.2-1.97,16.71-10.3,18.79-11.36,19.78-11.11,.26,.07,.54,.27,.67,.5,.68,1.18,.75,1.31-18.07,14.22-1.81,1.24-3.72,2.55-5.6,3.85,1.43-.87,2.87-1.75,4.24-2.59,16.16-9.88,17.04-10.23,17.84-10.03,.26,.07,.51,.26,.65,.49q.66,1.15-15.46,12.38c-2.4,1.67-5.07,3.53-7.64,5.34,1.72-1.05,3.47-2.13,5.12-3.14,17.12-10.54,19.24-11.62,20.22-11.37,.26,.07,.53,.27,.67,.5,.67,1.16,.72,1.25-18.15,14.93-1.79,1.3-3.69,2.67-5.54,4.02,1.07-.66,2.14-1.31,3.16-1.94,14.76-9.06,16.34-9.87,17.23-9.65,.26,.07,.52,.26,.66,.49,.7,1.22,.81,1.4-19.82,15.68-1.66,1.15-3.41,2.36-5.14,3.56,1.26-.76,2.52-1.54,3.76-2.29,20-12.19,22.93-13.76,23.97-13.49,.26,.07,.53,.27,.67,.5,.7,1.21,.79,1.37-21.5,16.6-1.59,1.09-3.25,2.22-4.91,3.36,1.78-1.08,3.57-2.16,5.27-3.2,19.74-11.99,20.86-12.46,21.71-12.24,.26,.07,.51,.26,.65,.49,.69,1.2,.78,1.36-20.58,15.93-.11,.08-.23,.15-.34,.23,17.12-10.49,19.74-11.85,20.79-11.59,.26,.07,.54,.27,.68,.51,.7,1.21,.83,1.44-20.36,15.83,13.29-8.15,15.49-9.24,16.45-9,.26,.07,.54,.27,.68,.51,.67,1.17,.74,1.29-17.93,14.41-3.27,2.3-6.86,4.82-10.05,7.1,2.56-1.55,5.28-3.23,7.81-4.78,15.4-9.46,17.04-10.31,17.91-10.08,.26,.07,.52,.26,.66,.49,.71,1.22,.82,1.41-21.74,16.5-1.11,.74-2.25,1.5-3.4,2.28,.52-.32,1.04-.64,1.56-.95,19.98-12.16,22.4-13.42,23.38-13.17,.26,.07,.52,.26,.66,.5,.69,1.2,.73,1.27-21.34,16.51-2.66,1.83-5.51,3.8-8.22,5.69,1.91-1.16,3.84-2.35,5.67-3.47,17.32-10.63,19.3-11.65,20.24-11.41,.26,.07,.53,.26,.66,.5,.7,1.21,.79,1.36-19.89,15.2-2.49,1.67-5.16,3.45-7.72,5.18,1.88-1.15,3.77-2.31,5.57-3.42,18.84-11.58,21.16-12.78,22.18-12.52,.26,.07,.54,.27,.67,.5,.72,1.25,.83,1.44-24.48,18.17-1.28,.85-2.61,1.72-3.94,2.61,.15-.09,.3-.18,.44-.27,16.94-10.42,18.87-11.42,19.82-11.18,.26,.07,.53,.26,.66,.5,.28,.48,.11,1.09-.37,1.37-.19,.11-.4,.15-.61,.13-1.68,.58-10.96,6.28-18.46,10.89-7.53,4.63-12.22,7.48-15.2,9.2Zm32.93-20.54h0s0,0,0,0Zm0,0h0s0,0,0,0Zm0,0h0s0,0,0,0Zm0,0h0s0,0,0,0Zm-.01-.02s0,.01,.01,.02c0,0,0-.01-.01-.02Zm0,0h0s0,0,0,0Zm0,0h0s0,0,0,0Zm0,0h0s0,0,0,0Zm0,0h0s0,0,0,0Zm0,0h0s0,0,0,0Zm0,0h0s0,0,0,0Zm-54.45-144.79h0s0,0,0,0Zm-.08-.12s.06,.08,.08,.12c-.03-.04-.05-.08-.08-.12Zm21.77,183.56c-3.16,1.83-3.62,1.88-4.09,1.76-.26-.07-.52-.26-.65-.49-.68-1.18-.79-1.37,19.58-15.69,1.56-1.1,3.17-2.23,4.73-3.33-4.88,2.92-10.65,6.46-15.55,9.47-20.14,12.37-22.42,13.57-23.41,13.31-.26-.07-.53-.26-.66-.5-.74-1.27-.85-1.47,25.64-18.78,4.87-3.18,10.27-6.71,14.84-9.76-5.8,3.46-12.94,7.86-19.31,11.78-25.33,15.6-31.11,18.89-32.52,18.53-.26-.07-.56-.29-.7-.52q-.29-.51,1.29-4c.15-.33,.32-.7,.49-1.07-1.44,.98-1.92,1.24-2.48,1.11-.27-.06-.54-.26-.68-.5q-.23-.39,.38-4.05c.08-.5,.18-1.08,.27-1.61-1.16,.68-2.77,1.67-4.08,2.47-5.41,3.32-5.45,3.31-6.01,3.17-.26-.07-.5-.24-.63-.48q-.38-.66,3.21-5.47c.23-.31,.49-.65,.74-.99-.82,.5-1.66,1.02-2.38,1.47-5.29,3.28-5.34,3.26-5.91,3.12-.26-.07-.5-.24-.63-.48q-.38-.65,3-5.94c.2-.31,.41-.64,.62-.97-1.02,.62-2.14,1.31-3.11,1.92-6.73,4.17-6.84,4.14-7.44,3.99-.26-.07-.51-.25-.64-.48q-.51-.88,7.35-8.52c.47-.46,.97-.94,1.46-1.42-.59,.37-1.19,.73-1.75,1.08-8.31,5.13-8.7,5.26-9.36,5.09-.26-.07-.51-.25-.64-.49q-.55-.96,8.32-8.75c.23-.2,.46-.41,.7-.61-.15,.1-.31,.19-.46,.28-8.15,5.09-8.58,5.23-9.27,5.06-.26-.07-.52-.26-.65-.49q-.49-.85,6.04-7.23c.82-.8,1.72-1.68,2.6-2.55-1.58,.96-3.29,2.01-4.78,2.93-9.53,5.86-9.67,5.83-10.31,5.67-.26-.07-.51-.25-.64-.48q-.54-.93,8.4-8.75c.96-.84,2.01-1.76,3.05-2.67-1.19,.73-2.4,1.48-3.5,2.17-8.35,5.19-8.46,5.16-9.1,5-.26-.07-.51-.25-.64-.48-.6-1.05-.63-1.09,12.49-11.7,1.12-.9,2.3-1.86,3.46-2.81-1.21,.74-2.44,1.49-3.6,2.19-12.43,7.59-12.61,7.55-13.29,7.37-.26-.07-.51-.25-.64-.48-.6-1.05-.64-1.11,11.88-11.2,.64-.51,1.3-1.05,1.97-1.58-1.62,.99-3.27,2.01-4.77,2.93-12.08,7.45-12.72,7.69-13.47,7.5-.26-.07-.52-.26-.65-.49-.62-1.08-.65-1.12,12.42-11.28,1.77-1.38,3.76-2.92,5.64-4.41-1.34,.82-2.71,1.67-4.01,2.47-12.3,7.6-13.64,8.27-14.48,8.06-.26-.07-.52-.26-.66-.49q-.62-1.07,13.54-12.04c1.91-1.47,3.97-3.07,5.89-4.57-2.45,1.48-5.08,3.08-7.4,4.5-13.66,8.34-13.82,8.3-14.52,8.12-.26-.07-.51-.25-.64-.48q-.64-1.11,14.42-12.08c1.17-.85,2.39-1.74,3.61-2.63-1.37,.84-2.75,1.68-4.06,2.49-14.27,8.78-15.07,9.09-15.86,8.89-.26-.07-.52-.26-.65-.49-.64-1.12-.71-1.23,15.73-13.55,1.21-.9,2.48-1.85,3.73-2.8-.97,.61-1.93,1.21-2.83,1.77-10.49,6.59-11.56,7.12-12.38,6.92-.26-.07-.53-.26-.67-.5q-.62-1.07,12.27-11.05c1.08-.84,2.23-1.72,3.36-2.6-.91,.56-1.81,1.13-2.68,1.67-12.4,7.71-13.86,8.44-14.75,8.22-.26-.07-.54-.27-.67-.5q-.62-1.07,12.7-11.29c1.97-1.51,4.19-3.21,6.29-4.83-1.72,1.05-3.52,2.16-5.26,3.23-16.05,9.86-18.04,10.87-18.99,10.63-.26-.07-.53-.27-.67-.5-.68-1.17-.73-1.26,17.8-14.01,1.19-.82,2.42-1.66,3.66-2.52-.68,.42-1.34,.83-2,1.23-15.56,9.61-17.36,10.54-18.31,10.3-.26-.07-.53-.27-.67-.5-.67-1.16-.74-1.28,17.58-14.64,2.07-1.51,4.3-3.13,6.39-4.68-2.55,1.55-5.26,3.23-7.65,4.71-13.21,8.17-13.9,8.44-14.66,8.25-.26-.07-.52-.26-.65-.49-.69-1.19-.77-1.34,19.03-15.32,2.19-1.55,4.55-3.21,6.79-4.81-2.67,1.61-5.5,3.32-8.12,4.91-17.93,10.88-18.8,11.24-19.6,11.04-.26-.07-.51-.25-.64-.49-.66-1.15-.73-1.27,17.24-14.09,2.17-1.55,4.5-3.21,6.72-4.81-1.76,1.07-3.56,2.17-5.25,3.21-17.18,10.52-19.15,11.52-20.09,11.28-.26-.07-.53-.26-.66-.5q-.67-1.15,17.22-13.63c3.51-2.44,7.54-5.25,11.15-7.81-1.96,1.2-3.98,2.45-5.87,3.63-14.64,9.07-16.34,9.94-17.25,9.71-.26-.07-.53-.27-.67-.5-.68-1.17-.78-1.35,18.11-14.7,.65-.46,1.32-.93,1.99-1.41-.79,.48-1.57,.96-2.32,1.42-15.21,9.31-16.83,10.14-17.69,9.92-.26-.07-.52-.26-.65-.49-.67-1.16-.71-1.23,17.09-13.48,2.54-1.75,5.38-3.7,8.09-5.59-1.61,.98-3.23,1.98-4.76,2.93-16.45,10.12-18.35,11.09-19.3,10.85-.26-.07-.53-.27-.66-.5-.68-1.19-.77-1.34,18.85-14.82,2.6-1.78,5.4-3.71,8.02-5.53-3.12,1.89-6.48,3.96-9.58,5.87-17.27,10.62-19.25,11.65-20.18,11.41-.26-.07-.53-.26-.66-.5-.72-1.24-.87-1.5,23.47-18.06,1.05-.72,2.12-1.44,3.19-2.17-1.39,.84-2.77,1.68-4.1,2.49-19.41,11.79-21.6,12.93-22.52,12.7-.26-.07-.52-.26-.65-.49-.68-1.18-.71-1.23,19.08-14.94,3.2-2.22,6.66-4.62,9.87-6.87-1.4,.86-2.8,1.72-4.14,2.54-17.07,10.49-19.17,11.57-20.14,11.32-.26-.07-.53-.27-.67-.5-.72-1.25-.85-1.47,22.08-17.48,1.73-1.21,3.5-2.45,5.23-3.66-2.13,1.3-4.32,2.64-6.37,3.89-18.45,11.3-20.71,12.47-21.68,12.22-.26-.07-.53-.26-.66-.5-.72-1.24-.85-1.47,21.94-17.14,2.56-1.76,5.31-3.66,7.91-5.46-2.21,1.36-4.46,2.75-6.5,4.01-14.92,9.23-16.51,10.05-17.41,9.83-.26-.07-.53-.26-.66-.5-.7-1.22-.79-1.38,19.19-14.9,2.18-1.47,4.51-3.05,6.75-4.58-2.68,1.63-5.48,3.36-8.08,4.96-17.41,10.72-19.4,11.76-20.36,11.51-.26-.07-.53-.27-.67-.5-.68-1.17-.75-1.3,20.28-16.04,1.56-1.09,3.2-2.24,4.83-3.39-14.56,9.04-16.79,10.19-17.79,9.94-.26-.07-.55-.28-.68-.51-.7-1.21-.77-1.33,20.22-15.68,.81-.55,1.64-1.12,2.48-1.7-.86,.53-1.69,1.04-2.5,1.54-14.65,9.04-16.1,9.79-16.98,9.57-.26-.07-.52-.26-.66-.49-.79-1.38-1.01-1.75,33.4-24.08,3.37-2.19,6.88-4.46,10.18-6.62-3.81,2.31-7.84,4.78-11.57,7.07-23.83,14.61-28.91,17.5-30.2,17.17-.26-.07-.55-.28-.68-.51-.73-1.27-.88-1.53,23.28-17.72,1.06-.71,2.14-1.44,3.24-2.17-13.63,8.5-15.77,9.6-16.76,9.35-.26-.07-.55-.28-.69-.51-.59-1.02-.62-1.08,10.4-10,.5-.41,1.02-.82,1.54-1.25-3.2,1.92-3.36,1.88-3.81,1.77-.26-.07-.5-.25-.64-.48-.28-.48-.11-1.09,.37-1.37,.13-.07,.27-.12,.41-.13,.78-.34,3.95-2.29,6.29-3.72,6.05-3.71,6.09-3.69,6.66-3.55,.26,.07,.5,.24,.63,.48,.59,1.03,.62,1.07-10.19,9.8-1.33,1.08-2.83,2.29-4.25,3.45,3.17-1.91,7.02-4.32,10.45-6.46,14.77-9.23,16.62-10.17,17.6-9.93,.26,.07,.55,.27,.68,.51,.71,1.22,.8,1.38-20.81,15.86-4.73,3.17-10.02,6.71-14.3,9.67,5.71-3.37,13.17-7.94,19.74-11.98,23.48-14.4,28.16-17.06,29.41-16.74,.26,.07,.54,.27,.68,.51,.73,1.27,.81,1.4-26.57,19.17-5.13,3.33-10.99,7.13-16.32,10.65,14.86-9.15,16.78-10.11,17.73-9.87,.26,.07,.54,.27,.67,.5,.67,1.16,.7,1.21-17.79,13.85-2.3,1.57-4.76,3.25-7.13,4.88,1.29-.8,2.55-1.58,3.74-2.32,13.28-8.25,14.61-8.93,15.47-8.71,.26,.07,.52,.26,.66,.5,.68,1.18,.72,1.25-19.29,15.27-2.88,2.02-5.99,4.2-8.88,6.25,2.46-1.5,5.03-3.09,7.43-4.56,18.23-11.24,20.93-12.67,21.98-12.4,.26,.07,.54,.27,.68,.51,.7,1.22,.79,1.37-19.15,14.87-1,.67-2.02,1.37-3.06,2.07,16.12-9.97,18.53-11.24,19.56-10.98,.26,.07,.54,.27,.68,.51,.7,1.21,.77,1.33-19.69,15.41-3.86,2.66-8.12,5.59-11.82,8.18,3.23-1.95,6.79-4.13,10.05-6.12,17.77-10.88,19.65-11.85,20.58-11.62,.26,.07,.52,.26,.66,.49,.67,1.16,.71,1.23-17.9,14.23-4.08,2.85-8.88,6.2-12.9,9.09,3.09-1.87,6.49-3.95,9.44-5.77,15.61-9.59,17.14-10.38,18.03-10.16,.26,.07,.52,.26,.66,.49,.71,1.23,.8,1.38-22.22,17.34-2.03,1.41-4.12,2.86-6.14,4.26,2.67-1.61,5.46-3.3,8.05-4.88,19.45-11.81,20.47-12.24,21.31-12.03,.26,.07,.51,.25,.65,.49,.68,1.18,.72,1.25-18.88,14.58-3.73,2.54-8.01,5.45-11.86,8.12,2.34-1.43,4.78-2.93,7.06-4.33,18.43-11.33,21.15-12.78,22.19-12.51,.26,.07,.54,.27,.67,.5,.69,1.2,.78,1.35-19.13,15.03-1.97,1.35-4.06,2.79-6.1,4.2,1.7-1.04,3.41-2.09,5.03-3.09,15.82-9.73,17.51-10.6,18.42-10.37,.26,.07,.52,.26,.66,.5,.71,1.22,.82,1.41-20.23,15.89-.59,.41-1.19,.82-1.79,1.23,.29-.18,.58-.36,.87-.53,15.48-9.48,16.33-9.82,17.13-9.61,.26,.07,.52,.26,.65,.49,.66,1.14,.68,1.18-15.25,12.44-2.33,1.65-4.94,3.49-7.42,5.27,1.69-1.04,3.4-2.1,5.02-3.1,15.2-9.41,17.09-10.38,18.05-10.14,.26,.07,.54,.27,.67,.5,.71,1.23,.82,1.41-21.8,17.16-1.23,.86-2.49,1.73-3.74,2.6,1.72-1.05,3.44-2.1,5.08-3.11,16.13-9.87,17.01-10.23,17.8-10.03,.26,.07,.51,.26,.65,.49,.68,1.17,.75,1.29-17.71,14.47-2.03,1.45-4.21,3-6.29,4.5,2.35-1.42,4.81-2.91,7.1-4.3,18.87-11.45,19.95-11.9,20.78-11.69,.26,.07,.51,.26,.65,.49,.68,1.18,.74,1.28-17.91,14.44-2.04,1.44-4.2,2.97-6.31,4.46,.13-.08,.26-.16,.38-.24,15.27-9.44,17.56-10.64,18.56-10.39,.26,.07,.54,.27,.68,.51,.66,1.14,.68,1.18-15.75,13.17-2.81,2.05-5.89,4.3-8.65,6.34,2.55-1.55,5.3-3.25,7.83-4.81,15.26-9.43,17.03-10.34,17.96-10.11,.26,.07,.53,.27,.67,.5,.68,1.18,.74,1.28-18.1,14.24-1.42,.98-2.91,2-4.39,3.02,1.4-.86,2.77-1.7,4.06-2.49,13.95-8.57,14.6-8.83,15.36-8.64,.26,.07,.51,.25,.65,.49,.63,1.1,.7,1.21-14.77,13.05-1.24,.95-2.55,1.95-3.83,2.94,1.46-.9,2.94-1.82,4.28-2.66,11.42-7.1,12.57-7.68,13.38-7.48,.26,.07,.52,.26,.66,.49,.61,1.06,.63,1.1-12.44,11.19-.9,.69-1.84,1.42-2.78,2.15,.43-.27,.85-.54,1.27-.79,11.77-7.39,13.28-8.14,14.2-7.91,.26,.07,.55,.28,.68,.51q.63,1.09-13.53,11.72c-2.14,1.6-4.56,3.41-6.82,5.13,1.78-1.09,3.63-2.22,5.36-3.28,14.32-8.81,15.86-9.59,16.74-9.37,.26,.07,.52,.26,.66,.49,.64,1.1,.66,1.14-14.73,12.33-.61,.44-1.24,.9-1.88,1.36,.13-.08,.27-.16,.4-.24,15.38-9.39,16.3-9.75,17.1-9.55,.26,.07,.52,.26,.65,.49,.62,1.07,.64,1.11-13.99,12.42-1.57,1.21-3.24,2.51-4.86,3.76,1.43-.88,2.86-1.76,4.17-2.57,12.18-7.52,12.82-7.76,13.58-7.57,.26,.07,.52,.26,.65,.49,.62,1.08,.69,1.19-13.59,12.3-1.24,.97-2.56,1.99-3.85,3,1.1-.68,2.21-1.36,3.27-2.02,12.75-7.87,13.49-8.14,14.27-7.94,.26,.07,.52,.26,.66,.49q.57,.99-9.82,9.36c-1.41,1.14-2.99,2.41-4.51,3.64,1.42-.86,2.89-1.76,4.27-2.6,12.28-7.5,12.44-7.45,13.12-7.28,.26,.07,.51,.25,.64,.48q.59,1.02-11.33,10.67c-1.31,1.06-2.75,2.23-4.16,3.38,9.01-5.59,9.6-5.77,10.31-5.59,.26,.07,.52,.26,.66,.49q.56,.96-9.04,9.36c-.59,.52-1.2,1.05-1.82,1.59,.68-.42,1.36-.84,2.01-1.24,9.85-6.06,10.35-6.24,11.04-6.07,.26,.07,.51,.25,.65,.49q.52,.9-7.06,8.34c-.39,.38-.79,.77-1.2,1.17,.9-.56,1.8-1.12,2.62-1.64,7.88-4.92,8.29-5.06,8.96-4.89,.26,.07,.52,.25,.65,.49q.52,.91-7.47,7.93c-.62,.54-1.28,1.12-1.95,1.71,.43-.27,.86-.53,1.26-.78,7.97-4.91,8.08-4.89,8.7-4.73,.26,.07,.5,.25,.64,.48q.48,.84-6.6,7.73c-.72,.7-1.52,1.47-2.3,2.24,.2-.12,.4-.25,.59-.36,6.47-4,6.55-3.98,7.15-3.83,.26,.07,.5,.25,.64,.48q.36,.62-2.55,5.18c-.34,.53-.71,1.11-1.07,1.68,.62-.38,1.27-.78,1.87-1.16,6.1-3.78,6.38-3.86,6.99-3.71,.26,.07,.51,.25,.64,.48q.39,.67-3.33,5.65c-.16,.21-.32,.43-.49,.66,.44-.27,.87-.53,1.27-.78,5.94-3.65,6.02-3.64,6.6-3.49,.26,.07,.5,.25,.63,.48q.23,.4-.4,4.18c-.07,.44-.16,.93-.23,1.4,.15-.1,.3-.21,.43-.3,1.79-1.23,2.28-1.54,2.88-1.41,.27,.06,.54,.26,.68,.5q.32,.55-1.62,4.82c-.15,.34-.32,.71-.48,1.06,4.85-2.4,18.36-10.72,29.54-17.6,25.17-15.5,30.54-18.56,31.93-18.21,.26,.07,.56,.28,.69,.52,.75,1.29,.86,1.49-26.01,19.05-2.47,1.61-5.08,3.32-7.64,5,1.32-.81,2.64-1.62,3.93-2.41,21.57-13.25,26.19-15.86,27.46-15.54,.26,.07,.55,.28,.69,.51q.65,1.13-15.13,12.23c-2.48,1.74-5.25,3.69-7.9,5.57,.57-.35,1.13-.69,1.66-1.02,12.37-7.59,12.96-7.82,13.69-7.63,.26,.07,.51,.25,.65,.49,.28,.48,.11,1.09-.37,1.37-.16,.09-.33,.13-.5,.13-1.24,.48-7.42,4.28-12.42,7.35-5.35,3.29-8.68,5.3-10.8,6.52Zm22.4-14.31h0s0,0,0,0Zm-.03-.05s.02,.04,.03,.05c-.01-.02-.02-.03-.03-.05Zm0,0h0s0,0,0,0Zm0,0h0s0,0,0,0Zm0,0h0s0,0,0,0Zm0,0h0s0,0,0,0Zm0,0h0s0,0,0,0Zm-79.33-164.33h0s0,0,0,0Zm0,0h0s0,0,0,0Zm0,0h0s0,0,0,0Z"/>
    <path class="cls-2" d="M921.32,437.51c-.85,.49-1.03,.5-1.38,.41-.26-.07-.49-.24-.63-.47q-.27-.46,.95-4.3c.16-.49,.33-1.04,.5-1.56-1.33,.79-3.15,1.93-4.54,2.79-5.67,3.55-5.76,3.53-6.34,3.39-.26-.07-.51-.25-.64-.48q-.55-.96,8.97-9.64c.62-.57,1.28-1.16,1.93-1.76-1.77,1.07-3.68,2.23-5.44,3.3-13.59,8.28-14.28,8.54-15.04,8.35-.26-.07-.51-.25-.65-.49-.28-.48-.11-1.09,.37-1.37,.16-.09,.34-.14,.51-.13,1.35-.52,8.5-4.87,13.76-8.08,12.17-7.41,12.31-7.38,12.96-7.21,.26,.07,.5,.25,.64,.48q.52,.9-7.71,8.37c-.9,.81-1.88,1.71-2.85,2.59,4.9-3.05,5.25-3.12,5.83-2.98,.26,.07,.52,.25,.65,.49q.27,.48-1.02,4.52c-.11,.35-.23,.73-.35,1.1,.12-.08,.24-.15,.36-.22,2.53-1.56,2.64-1.63,3.14-1.5,.26,.07,.49,.24,.63,.47,.28,.48,.11,1.09-.37,1.37-.09,.05-.17,.08-.27,.11-.34,.18-1.34,.79-2.09,1.26-.88,.54-1.48,.91-1.91,1.16Zm-20.56-1.44h0s0,0,0,0Zm0,0h0Zm0,0h0Zm0,0h0Zm0,0h0Zm0,0h0Zm0,0h0Zm0,0h0Zm0,0h0Zm0,0h0Zm0,0h0s0,0,0,0Zm0,0h0s0,0,0,0Zm0,0h0Zm-31.87-32.21c-3.78,2.18-4.63,2.45-5.16,2.31-.26-.07-.53-.26-.66-.5-.68-1.17-.73-1.27,18.54-14.61,1.71-1.18,3.52-2.44,5.3-3.67-1.73,1.06-3.47,2.13-5.13,3.14-16.48,10.12-18.37,11.09-19.28,10.86-.26-.07-.52-.26-.66-.5-.68-1.18-.74-1.27,18.07-14.15,2.14-1.46,4.41-3.02,6.62-4.54-1.22,.74-2.44,1.49-3.61,2.2-15.35,9.36-16.12,9.67-16.89,9.48-.26-.07-.51-.25-.65-.49-.67-1.16-.76-1.31,16.76-13.97,1.38-1,2.84-2.05,4.28-3.1-1.2,.74-2.4,1.48-3.55,2.2-14.53,9-16.22,9.86-17.16,9.62-.26-.07-.54-.27-.67-.5-.68-1.18-.77-1.33,17.41-13.98,.88-.61,1.79-1.25,2.71-1.89-1.26,.77-2.49,1.53-3.65,2.25-14.26,8.79-15.05,9.1-15.83,8.9-.26-.07-.52-.26-.65-.49q-.65-1.12,15.27-12.74c2.82-2.05,5.9-4.3,8.65-6.33-3.32,2-7.06,4.29-10.28,6.27-14.19,8.71-14.84,8.98-15.59,8.79-.26-.07-.51-.25-.64-.49-.69-1.2-.8-1.39,19.38-15.34,.99-.69,2.02-1.39,3.05-2.11-.8,.49-1.6,.98-2.37,1.45-15.4,9.39-16.17,9.7-16.94,9.5-.26-.07-.51-.25-.65-.49q-.64-1.11,14.09-11.99c1.87-1.38,3.95-2.92,5.96-4.41-1.9,1.15-3.86,2.35-5.7,3.47-16.45,10.04-18.2,10.93-19.09,10.71-.26-.07-.52-.26-.65-.49-.68-1.17-.77-1.33,18.39-14.73,1.09-.76,2.22-1.56,3.36-2.35-.76,.47-1.51,.94-2.22,1.38-13.08,8.13-14.5,8.85-15.37,8.64-.26-.07-.53-.26-.67-.5-.68-1.19-.79-1.37,18.86-14.97,1.16-.8,2.37-1.64,3.58-2.48-1.96,1.19-3.91,2.38-5.71,3.48-15.97,9.75-16.76,10.07-17.53,9.87-.26-.07-.51-.25-.65-.49-.68-1.17-.73-1.27,17.68-14.14,.45-.32,.91-.64,1.38-.96-12.3,7.63-13.82,8.37-14.7,8.15-.26-.07-.54-.27-.67-.5-.67-1.15-.73-1.27,17.2-13.9,1.13-.8,2.31-1.63,3.49-2.46-1.13,.69-2.26,1.38-3.37,2.05-17.99,10.98-20.19,12.11-21.13,11.87-.26-.07-.52-.26-.66-.5-.67-1.16-.71-1.23,17.86-14.29,.8-.57,1.63-1.15,2.46-1.73-13.24,8.15-15.34,9.21-16.28,8.97-.26-.07-.54-.27-.67-.51-.65-1.13-.69-1.2,16.12-13.64,1.29-.95,2.65-1.96,3.99-2.96-.82,.5-1.63,1-2.42,1.49-14.14,8.72-15.79,9.55-16.68,9.33-.26-.07-.53-.26-.66-.5-.65-1.12-.67-1.16,15.33-12.74,1.17-.85,2.4-1.73,3.62-2.62-1.19,.74-2.36,1.47-3.45,2.15-12.51,7.8-13.88,8.5-14.75,8.28-.26-.07-.53-.26-.67-.5-.66-1.13-.71-1.23,15.19-12.92,1.46-1.07,3-2.2,4.51-3.32-1.26,.78-2.53,1.56-3.75,2.31-14.36,8.87-16.03,9.71-16.94,9.49-.26-.07-.53-.27-.67-.5-.66-1.15-.73-1.27,16.41-13.71,1.08-.78,2.2-1.6,3.33-2.41-.4,.25-.8,.5-1.2,.74-14.01,8.67-15.77,9.55-16.68,9.32-.26-.07-.53-.27-.67-.5-.28-.48-.11-1.09,.37-1.37,.2-.11,.42-.15,.63-.13,1.56-.52,9.47-5.42,15.3-9.03,13.06-8.08,13.81-8.37,14.58-8.17,.26,.07,.52,.26,.65,.49,.65,1.13,.69,1.2-15.13,12.68-2.21,1.6-4.6,3.34-6.84,4.98,1.97-1.21,3.99-2.45,5.82-3.58,13.42-8.29,14.75-8.97,15.6-8.75,.26,.07,.52,.26,.66,.49,.64,1.11,.69,1.2-14.78,12.58-1.62,1.19-3.34,2.46-5.02,3.7,1.01-.63,2.03-1.26,3-1.87,13.57-8.47,15.29-9.33,16.25-9.09,.26,.07,.55,.27,.68,.51q.65,1.12-14.87,12.37c-1.38,1-2.84,2.06-4.28,3.1,1.4-.86,2.79-1.72,4.08-2.51,13.43-8.28,14.13-8.55,14.91-8.35,.26,.07,.52,.26,.65,.49q.64,1.11-14.89,12.64c-2.47,1.83-5.17,3.83-7.61,5.66,2.79-1.69,5.84-3.57,8.5-5.21,13.06-8.06,13.68-8.3,14.42-8.11,.26,.07,.51,.25,.65,.49,.66,1.15,.7,1.22-17.63,14.11-2.08,1.47-4.31,3.03-6.45,4.55,2.75-1.66,5.63-3.42,8.19-4.98,16.39-10,17.2-10.34,17.98-10.14,.26,.07,.51,.25,.65,.49,.66,1.14,.71,1.24-16.56,13.4-1.6,1.12-3.28,2.31-4.94,3.48,.77-.48,1.53-.95,2.25-1.4,13-8.08,14.41-8.79,15.28-8.57,.26,.07,.53,.26,.67,.5,.67,1.16,.69,1.2-16.48,13.21-1.37,.96-2.8,1.96-4.23,2.96,.86-.53,1.72-1.05,2.55-1.56,17.36-10.6,19.34-11.62,20.27-11.38,.26,.07,.52,.26,.66,.5,.67,1.17,.71,1.24-16.62,13.24-1.64,1.14-3.42,2.37-5.2,3.61,.06-.04,.12-.08,.18-.11,14.18-8.82,15.96-9.72,16.92-9.48,.26,.07,.54,.27,.68,.51,.67,1.15,.7,1.22-16.53,13.28-2.28,1.6-4.73,3.31-7.07,4.96,2.08-1.26,4.22-2.56,6.23-3.79,15.66-9.55,16.43-9.87,17.21-9.67,.26,.07,.51,.25,.64,.49,.64,1.11,.69,1.2-15.88,13.44-1.06,.78-2.17,1.6-3.27,2.42,1.53-.93,3.08-1.87,4.55-2.77,16.24-9.9,17.19-10.28,17.99-10.08,.26,.07,.52,.26,.65,.49,.67,1.16,.73,1.26-17.13,13.6-1.68,1.16-3.51,2.42-5.33,3.69h0c16.93-10.4,19.45-11.72,20.46-11.47,.26,.07,.54,.27,.67,.5,.67,1.15,.72,1.25-17.27,14.34-1.1,.8-2.25,1.64-3.4,2.48,.81-.5,1.61-.99,2.39-1.47,15.38-9.48,17.29-10.45,18.23-10.21,.26,.07,.53,.27,.67,.5,.66,1.14,.71,1.23-15.76,12.69-1.69,1.18-3.54,2.47-5.38,3.75,1.24-.77,2.46-1.52,3.61-2.23,13.75-8.52,15.24-9.28,16.12-9.05,.26,.07,.53,.26,.66,.5,.65,1.13,.71,1.22-15.29,12.78-2.09,1.51-4.43,3.21-6.67,4.84,1.75-1.06,3.55-2.16,5.24-3.19,16.5-10.07,17.47-10.45,18.28-10.25,.26,.07,.52,.26,.65,.49,.7,1.21,.79,1.37-19.77,15.45-1.11,.76-2.27,1.56-3.43,2.35,1.06-.65,2.11-1.29,3.13-1.92,16.89-10.37,18.83-11.37,19.76-11.13,.26,.07,.53,.26,.66,.5,.67,1.17,.73,1.26-18.42,14.51-1.74,1.21-3.58,2.48-5.39,3.74,1.55-.95,3.1-1.9,4.58-2.8,15.63-9.58,17.3-10.44,18.17-10.22,.26,.07,.52,.26,.65,.49,.28,.48,.11,1.09-.37,1.37-.18,.1-.37,.14-.56,.13-1.55,.55-10.01,5.75-16.85,9.94-6.96,4.27-11.32,6.9-14.09,8.51Zm30.14-18.93h0Zm0,0h0s0,0,0,0Zm0,0h0s0,0,0,0Zm0,0h0s0,0,0,0Zm-33.22-70.99h0s0,0,0,0Zm0,0h0s0,0,0,0Zm0,0h0s0,0,0,0Zm0,0h0s0,0,0,0Zm0,0h0Zm0,0h0Zm0,0h0Zm27.22,166.76c-.98,.57-1.15,.56-1.49,.47-.26-.07-.5-.24-.63-.48q-.33-.58,2.01-4.97c.22-.42,.47-.88,.71-1.34-1.65,.98-3.85,2.34-5.66,3.46-8.28,5.12-8.66,5.25-9.32,5.08-.26-.07-.51-.25-.65-.49q-.52-.89,7.19-7.58c.83-.72,1.74-1.51,2.65-2.3-.73,.46-1.44,.91-2.11,1.33-8.88,5.59-9.89,6.08-10.68,5.88-.26-.07-.53-.26-.67-.5-.59-1.03-.63-1.09,11.37-10.8,1.76-1.43,3.68-2.98,5.43-4.41-3.43,2.04-7.64,4.6-11.38,6.89-15.89,9.7-16.68,10.02-17.47,9.82-.26-.07-.51-.25-.65-.49q-.66-1.14,17.14-13.6c1.57-1.1,3.23-2.26,4.87-3.41-1.73,1.06-3.45,2.11-5.04,3.09-14.7,9.02-15.44,9.32-16.21,9.13-.26-.07-.51-.25-.65-.49-.65-1.13-.72-1.25,17.26-14.34,1.05-.77,2.13-1.55,3.2-2.33-1.43,.87-2.86,1.75-4.23,2.59-15.52,9.52-17.17,10.37-18.07,10.14-.26-.07-.52-.26-.66-.49-.68-1.18-.74-1.28,19.73-15.71,1.38-.97,2.82-1.99,4.26-3.01-.89,.55-1.78,1.09-2.63,1.62-16.25,9.98-18.12,10.94-19.05,10.7-.26-.07-.53-.26-.66-.5-.82-1.41-1.01-1.75,34.2-23.76,2.61-1.63,5.28-3.3,7.9-4.94-2.33,1.43-4.65,2.87-6.88,4.25-25.02,15.46-30.73,18.72-32.2,18.35-.3-.08-.56-.26-.71-.53-.77-1.33-.88-1.53,27.7-19.71,7.92-5.04,16.96-10.79,23.37-15.06-6.44,3.78-15.18,9.13-22.85,13.82-24.84,15.21-29.77,18.02-31.04,17.7-.26-.07-.54-.27-.68-.51-.75-1.31-.87-1.51,29.25-20.78,7.19-4.6,15.33-9.81,21.45-13.86-6.46,3.8-14.84,8.95-21.8,13.22-23.1,14.18-25.69,15.56-26.75,15.29-.26-.07-.53-.27-.67-.5-.76-1.32-.9-1.55,28.31-20.87,3.76-2.49,7.69-5.08,11.29-7.49-3.47,2.09-7.14,4.33-10.55,6.41-22.94,13.98-25.7,15.44-26.76,15.17-.26-.07-.53-.27-.66-.5-.7-1.22-.83-1.44,21.65-16.88,1.78-1.22,3.62-2.49,5.4-3.72-3.26,1.98-6.76,4.13-9.98,6.12-19.2,11.82-21.55,13.04-22.56,12.79-.26-.07-.53-.27-.67-.5-.7-1.21-.77-1.33,18.99-15.07,3.84-2.67,8.09-5.63,11.71-8.2-4.17,2.5-9.13,5.55-13.57,8.29-20.51,12.62-24.62,14.95-25.84,14.64-.26-.07-.55-.28-.68-.51-.72-1.26-.8-1.39,24.73-18.5,5.32-3.56,11.28-7.56,16.05-10.84-6.55,3.84-15.34,9.2-23.07,13.91-24.96,15.22-27.74,16.71-28.8,16.44-.26-.07-.53-.26-.66-.5-.77-1.33-.88-1.53,30.15-21.17,6.17-3.9,13.06-8.26,18.7-11.92-6.88,4.08-15.6,9.43-23.33,14.17-27.59,16.94-33.46,20.29-34.87,19.93-.26-.07-.56-.28-.69-.52-.83-1.44-1.08-1.87,37.14-25.96,8.38-5.28,17.43-10.99,23.63-15.06-7.89,4.52-20.03,12.04-30.5,18.52-27.44,16.99-33.29,20.34-34.79,19.97-.26-.07-.57-.29-.7-.53-.64-1.1-.66-1.14,14.01-12.06,1.62-1.21,3.35-2.49,5.02-3.74-2.69,1.64-5.6,3.44-8.28,5.1-17.37,10.74-19.96,12.11-21.02,11.84-.26-.07-.55-.27-.68-.51q-.63-1.09,13.37-11.68c2.33-1.76,4.99-3.76,7.42-5.62-3.22,1.94-6.94,4.22-10.46,6.38-20.65,12.67-23.9,14.4-25.03,14.11-.26-.07-.54-.28-.68-.51-.69-1.2-.75-1.29,18.78-14.58,2-1.36,4.13-2.81,6.2-4.23-2.83,1.73-5.8,3.56-8.56,5.27-19.41,11.99-22.28,13.52-23.38,13.24-.26-.07-.55-.27-.68-.51-.66-1.15-.73-1.27,17.2-14.42,2.09-1.54,4.36-3.2,6.47-4.76-2.92,1.77-6.11,3.74-8.89,5.46-13.82,8.54-14.52,8.81-15.29,8.62-.26-.07-.52-.26-.65-.49-.63-1.1-.68-1.19,14.26-12.56,1.41-1.08,2.92-2.22,4.38-3.34-1.68,1.01-3.4,2.06-5.02,3.04-13.99,8.49-14.15,8.45-14.83,8.27-.26-.07-.5-.25-.64-.48q-.52-.9,7.01-8.17c.68-.66,1.43-1.38,2.17-2.09-.38,.23-.76,.47-1.13,.69-8.2,5.05-8.33,5.01-8.95,4.85-.26-.07-.51-.25-.64-.48q-.52-.9,7.98-8.32c1.08-.94,2.27-1.98,3.43-3-4.09,2.56-4.36,2.61-4.91,2.47-.26-.07-.52-.25-.65-.49-.56-.97-.59-1.03,9.35-9.61,.11-.09,.22-.19,.33-.28-2.49,1.51-2.76,1.54-3.22,1.43-.26-.07-.51-.25-.64-.48q-.57-.99,9.51-9.12c.86-.69,1.78-1.44,2.72-2.19-4.13,2.53-4.42,2.58-4.96,2.44-.26-.07-.51-.25-.65-.49-.59-1.02-.61-1.06,10.51-9.99,.81-.65,1.66-1.33,2.51-2.01-.15,.09-.3,.18-.44,.27-8.64,5.31-8.75,5.28-9.37,5.12-.26-.07-.5-.25-.64-.48-.63-1.08-.69-1.2,14.14-12.64,.35-.27,.71-.54,1.06-.82-8.24,4.98-8.36,4.95-8.95,4.8-.26-.07-.5-.25-.63-.48q-.58-1.01,11.24-10.43c1.27-1.01,2.65-2.11,4.03-3.22-3.54,2.15-3.86,2.19-4.36,2.07-.26-.07-.51-.25-.65-.49-.61-1.06-.66-1.14,12.55-11.94,.61-.5,1.24-1.02,1.88-1.54-8.28,5.07-8.42,5.03-9.03,4.88-.26-.07-.5-.25-.64-.48-.61-1.06-.66-1.15,12.52-11.68,.7-.56,1.42-1.14,2.15-1.72-2.31,1.4-2.6,1.44-3.05,1.33-.26-.07-.51-.25-.65-.49-.58-1-.6-1.04,9.56-9.33,.52-.43,1.07-.87,1.61-1.31-.04,.03-.09,.05-.13,.08-8.3,5.12-8.41,5.09-9.04,4.93-.26-.07-.51-.25-.64-.48q-.57-.99,10.25-10.23c.76-.65,1.55-1.33,2.35-2-.22,.05-.4,.05-.57,0-.27-.06-.54-.26-.67-.5-.74-1.28-.85-1.48,25.37-18.66,.97-.63,1.95-1.28,2.93-1.92-.6,.37-1.19,.73-1.76,1.09-17.12,10.54-18.93,11.49-19.87,11.25-.26-.07-.53-.26-.66-.5-.7-1.21-.81-1.4,21.57-17.2,1.26-.89,2.54-1.79,3.81-2.69-.9,.55-1.78,1.09-2.65,1.62-15.44,9.47-17.1,10.32-17.98,10.09-.26-.07-.52-.26-.66-.49-.59-1.02-.62-1.08,10.54-10.32,.34-.28,.69-.57,1.04-.86-.55,.26-.83,.27-1.11,.21-.27-.06-.53-.26-.67-.5q-.3-.51,1.24-4.46c.18-.47,.39-1,.58-1.49-.21-.08-.39-.24-.51-.43-.31-.53-.03-1.24,.53-1.44,.1-.06,.3-.18,.48-.29,.71-.44,.93-.58,1.37-.47,.26,.07,.49,.24,.63,.47q.29,.51-1.21,4.39c-.15,.39-.32,.82-.48,1.24,.86-.54,1.86-1.18,2.65-1.7,4.28-2.78,4.85-3.08,5.52-2.92,.27,.06,.53,.26,.67,.5q.57,.99-9.44,9.31c-1.4,1.16-2.98,2.46-4.46,3.71,3.12-1.86,6.88-4.17,10.24-6.23,15.07-9.24,16.68-10.07,17.54-9.85,.26,.07,.52,.26,.66,.49q.66,1.15-17.16,13.77c-3.66,2.59-7.91,5.58-11.62,8.26,2.73-1.66,5.68-3.47,8.39-5.14,18.77-11.56,21.55-13.04,22.63-12.76,.26,.07,.54,.27,.68,.51,.71,1.22,.76,1.32-22.33,16.46-5.57,3.65-11.85,7.77-16.69,11.04,.06,.06,.12,.13,.16,.21q.56,.97-9.75,9.76c-1.03,.88-2.12,1.81-3.19,2.72,.09-.06,.18-.11,.27-.16,8.66-5.34,9.06-5.48,9.73-5.31,.26,.07,.51,.25,.64,.49,.58,1,.6,1.04-9.54,9.31-.24,.2-.49,.4-.74,.61,2.41-1.45,2.83-1.55,3.31-1.43,.26,.07,.52,.26,.66,.49q.6,1.05-11.25,10.55c-1.44,1.15-3.03,2.42-4.58,3.67,.04-.03,.09-.05,.13-.08,8.55-5.24,8.65-5.21,9.28-5.06,.26,.07,.5,.25,.64,.48q.58,1-10.19,9.8c-1.58,1.29-3.35,2.74-5.04,4.13,5.22-3.23,5.33-3.2,5.89-3.06,.26,.07,.5,.25,.64,.48,.62,1.07,.64,1.11-13.08,12.03-.76,.6-1.55,1.23-2.34,1.86,.06-.04,.12-.07,.17-.11,9.48-5.74,9.56-5.72,10.17-5.57,.26,.07,.5,.24,.63,.48q.6,1.04-11.39,10.28c-1.53,1.18-3.23,2.49-4.88,3.77,7.95-4.87,8.12-4.83,8.73-4.67,.26,.07,.51,.25,.64,.48,.59,1.03,.62,1.07-10.66,10.13-.55,.44-1.12,.9-1.69,1.36,4.01-2.46,4.17-2.42,4.68-2.29,.26,.07,.51,.25,.64,.48,.6,1.04,.64,1.1-11.25,10.68-.08,.07-.17,.13-.25,.2,1.02-.56,1.25-.55,1.57-.47,.26,.07,.51,.25,.64,.48q.54,.93-7.89,8.2c-.73,.63-1.52,1.31-2.32,2,3.57-2.22,3.99-2.35,4.54-2.22,.26,.07,.52,.25,.65,.49,.57,.99,.59,1.02-10.1,10.34-.36,.31-.72,.63-1.09,.95,.11-.07,.23-.14,.34-.21,7.29-4.49,7.37-4.47,7.98-4.32,.26,.07,.5,.25,.64,.48q.53,.91-7.21,8.38c-.76,.74-1.58,1.52-2.37,2.29,2.55-1.52,5.64-3.39,8.4-5.07,14.79-8.97,14.98-8.92,15.69-8.74,.26,.07,.51,.25,.64,.48,.63,1.09,.66,1.14-13.44,11.86-1.72,1.31-3.56,2.71-5.32,4.06,1.56-.96,3.18-1.96,4.74-2.93,15.96-9.86,18.35-11.12,19.38-10.86,.26,.07,.54,.27,.68,.51,.65,1.13,.68,1.17-15.41,12.96-3.13,2.29-6.59,4.83-9.55,7.05,4.23-2.53,9.5-5.78,14.18-8.67,19.05-11.77,21.87-13.27,22.94-13,.26,.07,.54,.27,.68,.51,.68,1.19,.76,1.31-19.08,14.81-2.3,1.56-4.76,3.24-7.11,4.85,3.89-2.34,8.15-4.96,11.87-7.24,17.59-10.79,19.29-11.68,20.19-11.46,.26,.07,.52,.26,.65,.49,.65,1.12,.71,1.24-15.55,13.5-1.73,1.3-3.59,2.71-5.35,4.05,3.62-2.18,7.83-4.78,11.42-7,16.23-10.04,18.1-11,19.04-10.76,.26,.07,.53,.27,.67,.5,.63,1.09,.67,1.16-14.2,12.22-2.4,1.78-5.04,3.75-7.35,5.5,6.67-3.86,17.04-10.28,26.59-16.19,28.42-17.6,38.21-23.37,40.13-22.89,.32,.08,.58,.28,.74,.55,.78,1.35,.92,1.6-31.89,22.27-9.55,6.02-20.53,12.94-27.93,17.85,6.77-3.98,16.08-9.69,24.24-14.7,28.8-17.67,35.35-21.41,36.87-21.02,.26,.07,.57,.29,.7,.52,.77,1.33,.9,1.56-30.83,21.64-1.75,1.11-3.56,2.25-5.38,3.41,.87-.53,1.73-1.05,2.58-1.58,26.64-16.25,32.68-19.68,34.05-19.33,.26,.07,.55,.28,.68,.51,.73,1.26,.82,1.43-25.56,19.12-4.14,2.78-8.69,5.83-12.72,8.56,3.95-2.39,8.34-5.09,12.35-7.56,20.6-12.68,23.12-14,24.17-13.73,.26,.07,.54,.27,.67,.5,.71,1.22,.83,1.44-20.79,16.47-2.64,1.84-5.5,3.82-8.16,5.69,3.3-2,6.91-4.22,10.22-6.26,19.91-12.26,22.85-13.83,23.95-13.55,.26,.07,.54,.27,.68,.51,.68,1.18,.71,1.23-17.87,13.99-3.75,2.57-8.1,5.57-11.88,8.22,4.72-2.81,10.39-6.27,15.48-9.37,22.65-13.81,25.38-15.24,26.41-14.98,.26,.07,.53,.26,.66,.5,.73,1.26,.82,1.42-25.66,18.93-5.14,3.4-10.81,7.15-15.69,10.44,3.98-2.41,8.42-5.13,12.65-7.73,25.61-15.72,31.83-19.25,33.29-18.88,.26,.07,.57,.29,.7,.52,.77,1.34,.94,1.62-31.51,22.39-4.24,2.71-8.66,5.54-12.73,8.17,4.27-2.58,8.84-5.39,13.07-7.97,26.34-16.13,31.95-19.32,33.34-18.97,.26,.07,.55,.28,.69,.51,.82,1.42,1.04,1.8-32.44,23.09-4.94,3.14-10.14,6.45-14.65,9.37,5.5-3.31,11.94-7.29,17.73-10.87,24.43-15.1,29.65-18.07,31.05-17.72,.26,.07,.56,.29,.7,.52,.78,1.36,.9,1.57-30.66,21.3-1.49,.93-3.01,1.88-4.55,2.85,4.25-2.51,5.07-2.76,5.61-2.63,.26,.07,.52,.26,.66,.49q.67,1.16-17.73,14.17c-2.62,1.85-5.45,3.84-8.11,5.73,1.65-1.01,3.33-2.04,4.91-3.01,15.63-9.59,16.48-9.93,17.31-9.72,.26,.07,.52,.26,.65,.49q.65,1.12-14.71,12.29c-2.07,1.5-4.37,3.18-6.59,4.81,1.34-.82,2.69-1.65,3.97-2.43,16.46-10.11,18.5-11.15,19.46-10.91,.26,.07,.53,.27,.67,.5,.66,1.14,.68,1.19-17.75,14.06-.65,.46-1.32,.92-1.99,1.39,.26-.16,.52-.32,.77-.47,16.57-10.12,18.47-11.09,19.36-10.86,.26,.07,.52,.26,.65,.49,.6,1.03,.64,1.12-11.77,11.16-1.23,.99-2.53,2.05-3.8,3.08,.5-.31,.99-.62,1.46-.92,8.5-5.35,9.39-5.78,10.14-5.59,.26,.07,.53,.26,.66,.5,.55,.96,.58,1-8.96,9.27-.03,.03-.07,.06-.1,.09,.18-.11,.35-.22,.52-.32,8.39-5.19,8.53-5.16,9.16-5,.26,.07,.51,.25,.64,.48q.33,.58-2.04,5.03c-.17,.32-.36,.67-.54,1.02,.14-.09,.28-.18,.42-.26,3.96-2.45,4.12-2.51,4.67-2.38,.26,.07,.5,.24,.64,.48,.28,.48,.11,1.09-.37,1.37-.12,.07-.24,.11-.37,.13-.53,.25-2.32,1.36-3.52,2.11-1.23,.76-2.03,1.26-2.58,1.58Zm5.14-4.13h0Zm0,0h0Zm0,0h0s0,0,0,0Zm0,0h0s0,0,0,0Zm0,0h0s0,0,0,0Zm0,0h0s0,0,0,0Zm0,0h0s0,0,0,0Zm0,0h0s0,0,0,0Zm0,0h0s0,0,0,0Zm0,0s0,0,0,0c0,0,0,0,0,0Zm0,0h0s0,0,0,0Zm0,0h0s0,0,0,0Zm0,0h0s0,0,0,0Zm0,0h0s0,0,0,0Zm0,0h0s0,0,0,0Zm0,0h0s0,0,0,0Zm0,0h0s0,0,0,0Zm0,0h0s0,0,0,0Zm0,0h0s0,0,0,0Z"/>
  </g>
</svg>