<?xml version="1.0" encoding="UTF-8"?>
<svg id="_图层_2" data-name="图层 2" xmlns="http://www.w3.org/2000/svg" xmlns:xlink="http://www.w3.org/1999/xlink" viewBox="0 0 1366 768">
  <defs>
    <style>
      .cls-1 {
        fill: url(#_未命名的渐变_10);
      }
    </style>
    <linearGradient id="_未命名的渐变_10" data-name="未命名的渐变 10" x1="962.99" y1="864.86" x2="674.99" y2="370.25" gradientUnits="userSpaceOnUse">
      <stop offset=".08" stop-color="#000"/>
      <stop offset=".17" stop-color="#050505"/>
      <stop offset=".29" stop-color="#141414"/>
      <stop offset=".41" stop-color="#2d2d2d"/>
      <stop offset=".54" stop-color="#515151"/>
      <stop offset=".68" stop-color="#7e7e7e"/>
      <stop offset=".83" stop-color="#b6b6b6"/>
      <stop offset=".97" stop-color="#f6f6f6"/>
      <stop offset=".99" stop-color="#fff"/>
    </linearGradient>
  </defs>
  <rect class="cls-1" width="1366" height="768"/>
  <g>
    <g>
      <path d="M640.93,159.89c0,2.14,1.71,5.78,3.71,7.99,.93,1,1.28,2,.93,2.99-.5,1.57,.07,1.85,1.71,.86,.71-.43,2-.21,3.78,.71,2.85,1.43,4.14,1.28,4.14-.5,0-.57,.36-1,.78-1,1.28,0,3.28-2.35,2.21-2.71-.43-.14-.86-.64-.86-1.14,0-1.5-2.99-3.78-8.49-6.42-6.42-3.14-7.91-3.28-7.91-.78Z"/>
      <path d="M683.43,158.75c-1.71,.36-2.71,1.35-4.78,4.99-1.43,2.5-4.49,6.77-6.85,9.63-4.99,5.92-11.34,14.55-13.83,18.61-3.64,6.06-7.49,11.05-8.56,11.05-.57,0-1.78,.64-2.71,1.5-1.21,1.14-1.35,1.71-.78,2.5,.71,.78,.14,1.78-2.5,4.92-1.85,2.14-3.64,3.92-3.99,3.92-.86,0-.78-5.28,.14-10.41,.78-4.14,3.71-9.27,4.92-8.49,.5,.29,2.42-.5,4.92-2.07,.5-.36,.64-.78,.29-1.07-.36-.21-1.14-1.28-1.85-2.35-.64-1.07-2.5-2.64-3.99-3.42-1.57-.78-3.28-2.07-3.85-2.92l-1.07-1.5-1.28,1.93c-1.07,1.71-1.14,2.28-.36,5.42,1.64,6.42,.43,23.96-1.85,26.45-.93,1.07-.93,1.5-.14,3.35,.57,1.21,1.28,2.21,1.57,2.21,.36,0,.43,.29,.21,.57-.64,1.07,1.71,3.71,3.28,3.71,2.21,0,5.42-2.71,7.13-5.92,.78-1.64,2.28-4.14,3.35-5.49,1-1.35,1.85-2.64,2-2.78s1.93,1.43,3.99,3.57,4.28,3.92,4.85,4.06,1.28,.5,1.57,.78c1.21,1.21,8.91-.64,13.33-3.14,3.07-1.71,4.71-2.28,5.28-1.78,1.85,1.5,10.7,2.99,15.19,2.5,4.63-.5,9.98-2.78,11.19-4.78,.78-1.35-.14-3.57-2.71-6.35-.86-.93-2.28-2.99-3.21-4.56-1-1.57-2.35-3.57-3.14-4.49l-1.5-1.57,7.13,.36c3.85,.14,8.84,.78,10.98,1.43,2.14,.57,4.78,1.07,5.85,1.07s3.42,.36,5.21,.86c4.71,1.28,5.35-.14,1.93-4.14-2-2.35-3.42-3.28-6.13-3.92-4.14-1-14.33-1.21-21.96-.43l-5.49,.5v-3.99c0-3.35-.29-4.35-1.71-5.85-1.35-1.35-2.21-1.64-3.78-1.28l-2.07,.5,.36,4.49c.64,7.63,.57,7.7-7.13,9.13-3.64,.71-6.85,1.14-7.06,.93-.57-.64,1.07-7.56,2.85-11.77,3.64-8.56,7.99-16.19,10.62-18.68,2.57-2.42,2.78-2.78,2-4.42-1.14-2.5-3.35-3.78-5.85-3.35Zm-11.12,22.53c-.71,3.49-1.57,8.77-1.78,11.55l-.5,5.21-2.99,.78c-1.57,.43-4.14,1.07-5.7,1.43-1.5,.43-2.85,.64-2.99,.5-.36-.36,6.35-13.55,9.2-18.04,2.64-4.21,5.63-8.34,5.85-8.06,.14,.14-.36,3.07-1.07,6.63Zm26.81,23.82c3.49,8.13,3.42,8.2-1.28,8.91-2.5,.43-11.41-.57-12.76-1.43-.36-.21,.86-2.35,2.71-4.78,1.78-2.42,3.85-5.78,4.56-7.49,.93-2.07,1.71-2.99,2.5-2.85,.64,.14,2.42,3.28,4.28,7.63Zm-12.98-5.49c-.71,2.57-2.92,6.42-4.71,8.7l-1.71,2-2.21-1.85c-2.42-2.07-4.35-5.85-3.35-6.85,.78-.71,9.34-3.42,11.19-3.49,1.07-.07,1.21,.29,.78,1.5Zm-12.26,10.84c1.78,2.21,2,2.85,1.21,3.35-2.07,1.35-6.27,2.21-8.2,1.78-1.71-.43-8.84-6.99-8.84-8.2,0-.5,6.27-3.14,7.84-3.28,.57-.07,1.71-.43,2.5-.86,1.28-.71,1.5-.57,2.35,1.78,.5,1.43,1.93,3.85,3.14,5.42Z"/>
    </g>
    <path d="M696.55,273.55c-1.35,.71-6.42,5.06-11.27,9.77-8.2,8.06-8.77,8.49-9.98,7.34-1-1-1-1.5-.29-2.64,1.43-2.35,.93-3.78-2.64-7.7-3.49-3.78-4.49-4.42-4.28-2.85,.29,2.21-.29,3.57-2.99,7.7-1.64,2.42-3.71,4.63-4.56,4.99l-1.64,.64,1.21,4.85c1,3.85,1.64,5.06,3.14,5.92,1.71,.93,2.07,.93,2.64,0,1.5-2.5,3.78-4.99,4.56-4.99,.43,0,1.35,.57,2,1.21,3.07,3.28,5.92,3.42,7.06,.43,.36-.93,1.71-3.28,2.92-5.06,1.28-1.85,2.35-3.57,2.35-3.85,0-.21,1-1.5,2.14-2.85,1.21-1.28,3.57-4.06,5.28-6.13,5.42-6.56,10.48-7.63,7.06-1.5-2.85,5.06-13.12,16.33-14.97,16.33-.71,0-1.28,.5-1.28,1.07,0,1.57-8.56,10.41-11.19,11.55-2.57,1-2.64,1.21-2.35,5.92,.14,3.35,1.57,5.7,3.49,5.7,.64,0-2.21,1.71-6.35,3.78s-9.98,5.13-12.98,6.85c-4.28,2.35-5.56,2.78-5.56,1.93,0-.64-.36-1.14-.78-1.14-1.57,0-3.49,1.5-3.49,2.71,0,2.14,4.35,5.63,7.56,6.2,2.64,.43,3.35,.14,7.27-2.57,2.42-1.71,4.42-3.28,4.42-3.64,0-.29,.5-.36,1.07-.14,.71,.29,1.07,0,1.07-.86,0-1,.14-1.14,.64-.43,.43,.71,.71,.57,1-.57,.29-1.07,.78-1.5,1.5-1.21,.57,.21,1.85-.36,2.92-1.35s2.35-1.64,2.85-1.43c.5,.14,1.14-.14,1.35-.71,.21-.64,.71-.86,1.14-.64,.36,.21,.71,.14,.71-.21s.86-1,1.85-1.5c1.14-.5,1.71-.5,1.57-.07-.07,.36-.36,.64-.57,.57-.21,0-2.71,2.35-5.63,5.35-2.92,3.07-5.92,5.49-6.63,5.49s-1.28,.07-1.28,.14c-.07,.14-.21,1.93-.43,3.99l-.43,3.71h2.71c1.71,0,3.42-.64,4.85-1.71,4.06-3.07,20.25-10.41,23.03-10.41,.71,0,.93,2,.93,7.77,0,4.35-.21,7.99-.57,8.13-.64,.5-3.71-2-3.71-2.99,0-.43-.71-.78-1.64-.78s-2.21-.43-2.92-.93c-1.07-.78-2.14-.78-5.92-.07-5.21,.93-5.42,1.07-5.78,3.57-.5,3.92,1.28,9.34,4.35,13.12,5.21,6.42,15.83,10.27,19.75,7.2,1.5-1.21,1.78-2,1.78-5.35,0-2.21,.29-3.99,.57-3.99s.36-2,.07-4.42c-.29-2.5-.5-4.85-.5-5.21,.36-5.78,1.07-15.26,1.21-16.33,.21-1.71,2-2.42,5.85-2.5,2.07-.07,3.49-.57,4.99-1.85l2.07-1.85-2.07-1.71c-1.14-.93-2.5-1.5-3.07-1.28-.5,.21-.93,0-.93-.43,0-.64-.36-.64-1.43-.07-.78,.43-1.43,.57-1.43,.36,0-.29-.5,.07-1.14,.64-.57,.64-1.78,1.14-2.57,1.14-.86,0-1.28-.21-1.07-.43,.71-.71-1.78-4.56-2.92-4.56-.86,0-.86-.21-.14-1.07s1.07-.93,1.43-.29c.36,.57,.78,.43,1.35-.5,.43-.78,.78-1.07,.78-.64,0,.36,.29,.29,.64-.29s1.64-1,2.85-.93c1.21,0,2.07-.29,1.85-.64-.29-.36-.07-.64,.29-.64,.43,0,.78,.36,.78,.78,0,.57,.29,.57,1-.07,.57-.43,2.42-.78,4.14-.71s3.64,.07,4.28,.07c1.57-.07,2.92-2.57,2.42-4.21-.86-2.64-9.2-4.06-12.62-2.21-.93,.5-1.93,.86-2.21,.78-.36-.07-.57,.21-.57,.64,0,.36-.29,.57-.57,.36-.57-.36-6.42,1.14-9.77,2.42-2.64,1.07-6.27,2.14-7.2,2.14-.71,0-.71-.36,0-1.78,1.35-2.57,3.64-4.35,7.27-5.78,1.71-.64,2.92-1.43,2.71-1.78s-.07-.64,.36-.64c1.14,0,.57-2.85-.64-2.92-.57,0-2.57-.14-4.42-.21-6.13-.21-5.99-1.14,1.57-8.56,14.05-13.83,14.26-14.19,9.91-17.9-2.57-2.07-5.56-2.28-9.2-.57Zm-14.26,32.59c0,1.28-.57,1.93-2.21,2.5-3.28,1.14-3.28,1.07-.64-1.71,1.35-1.35,2.5-2.5,2.64-2.5s.21,.78,.21,1.71Zm-2.35,9.98c-.21,.57-1.5,1.57-2.78,2.28l-2.35,1.14,2.5-2.42c2.64-2.5,3.28-2.78,2.64-1Zm14.69,4.49c.21,.36,.57,1.57,.78,2.85,.5,2.21,.43,2.28-2.42,3.07-1.57,.43-5.99,2.07-9.77,3.57-3.78,1.57-6.99,2.71-7.13,2.57-.5-.43,4.28-5.42,5.21-5.42,.5,0,1-.36,1.14-.78,.29-.78,9.63-6.13,11.05-6.27,.43,0,1,.14,1.14,.43Zm-14.19,29.8c-.29,.71,0,1.07,.78,1.07,.64,0,2.07,.57,3.07,1.35,1.07,.71,3.28,1.78,4.99,2.28,2.64,.78,3.21,.71,3.78-.14,.5-.86,.64-.86,.64,.07,.07,.78,.29,.71,1.14-.36,.57-.78,.86-2.14,.64-3.07s-.07-1.57,.43-1.57c.57,0,.71,1.43,.29,5.13-.5,5.21-1.21,6.99-2.78,6.99-2.5,0-8.63-2.5-10.34-4.14-2.71-2.64-4.78-8.7-2.92-8.7,.36,0,.5,.5,.29,1.07Z"/>
    <g>
      <path d="M674.8,399.69c0,.93,.64,2.5,1.43,3.49,1.14,1.43,1.43,2.85,1.43,6.85,0,4.92,0,5.06-2.28,6.2-1.28,.64-3.07,1.78-3.99,2.5-1.57,1.21-1.71,1.21-3.92,0-2.64-1.5-9.63-3.21-11.48-2.85-1.14,.29-1,.71,1.21,3.35,2.28,2.71,2.57,3.49,2.57,7.13,.07,6.85,0,6.85,4.71,11.84,1.5,1.64,2.14,2.99,2.14,4.71,0,3.35,1.71,7.13,3.28,7.13,2,0,12.69-7.77,17.26-12.48l2.71-2.78,2.92,3.35c2.99,3.57,3.64,3.64,4.42,.36,.57-2.64-3.14-6.56-7.34-7.7-3.21-.86-4.85-.36-2.71,.78,.64,.43,1.21,1,1.21,1.28,0,.5-6.49,4.35-7.34,4.35-.21,0,0-1.35,.43-2.99,.71-2.28,1.5-3.35,3.71-4.56,1.57-.93,3.57-1.64,4.42-1.71,.86,0,2-.57,2.5-1.28s2.78-2.35,5.06-3.64,4.63-3.14,5.28-4.06c1-1.57,1-1.85-.14-3.57-1.78-2.78-4.92-3.71-11.91-3.64l-6.27,.14v-2.85c0-1.57,.29-3.85,.64-5.13,.93-3.14-1.28-5.13-6.2-5.49-3.49-.29-3.71-.21-3.71,1.28Zm18.75,13.33c1.43,.36,2.64,1.07,2.64,1.5s-1.71,2.5-3.85,4.63c-3.14,3.14-4.28,3.85-6.42,3.92-1.43,.07-2.78-.14-2.99-.36-.29-.21-.21-2.21,.07-4.42,.43-3.64,.71-4.14,2.71-4.99,2.78-1.21,4.35-1.28,7.84-.29Zm-15.9,10.48c0,2.35-.29,2.78-2.14,3.49-2.07,.78-2.21,.71-1.71-.71,.43-1.43,3.14-5.49,3.64-5.49,.14,0,.21,1.21,.21,2.71Zm-1.43,10.62c0,.71-.29,1.78-.71,2.35-.36,.64-.36,1.35,.07,1.93,.57,.57,.14,1.14-1.43,1.93-1.14,.64-2.5,1.14-2.85,1.14-1.35,0-3.49-2.35-3.14-3.35,.29-.71,.64-.78,1.35-.14s1.21,.14,2.21-2.14c.93-2.21,1.64-2.92,2.85-2.92,1.07,0,1.64,.43,1.64,1.21Z"/>
      <path d="M686.57,443.18c-1.35,2-1,3.07,1.43,3.99,1.07,.43,1.71,1.35,1.93,2.78,.29,1.85-.21,2.78-2.78,5.49-1.71,1.85-3.07,2.99-3.07,2.57,0-.78-2.14-1.78-2.71-1.21-.21,.14,.07,.86,.57,1.43,.5,.64,.93,2.71,1,4.63,.07,2,.21,3.57,.43,3.57s1.14,1.43,2.07,3.21,1.93,3.21,2.28,3.21c.64,0,1.71-2.92,1.43-3.92-.14-.5,.07-.5,.57,0,.36,.36,.86,2.14,1.07,3.92,.14,1.78,.43,3.85,.57,4.56,.14,1.07-.5,1.64-3.21,2.5-2.71,.86-3.57,.86-3.99,.21-.43-.71-1-.57-2.28,.5-.93,.78-1.35,1.43-1,1.5,.43,0,.86,1,.93,2.28,.14,1.28,.71,2.85,1.35,3.57,1,1.07,1.35,1.14,3.49,.21,1.35-.57,3.92-2.07,5.7-3.35,4.49-3.21,8.91-6.13,10.62-6.92,.78-.43,2.21-1.35,3.21-2.14l1.78-1.43-3.21,.78c-1.78,.43-3.85,.86-4.71,.93-.78,.07-1.78,.36-2.28,.64-1.21,.71-1.07-.64,.5-3.71,.71-1.43,1.14-3.07,.93-3.64-.57-1.71,3.57-4.21,8.63-5.13,4.06-.71,4.85-1.07,4.56-2.14-.36-1.21,1.78-3.85,2.5-3.14,.21,.21,.93-.21,1.57-1,1.14-1.28,1.14-1.5-.21-4.56-1.64-3.57-5.63-6.99-7.63-6.56-.78,.14-2.42,.57-3.64,1-1.85,.57-2.5,.43-2.92-.36-1.07-1.93-6.49-4.63-9.77-4.85-1.14-.14-2.71-.43-3.35-.71-.86-.36-1.5,0-2.35,1.28Zm17.83,9.7c-1.43,1.64-2.07,1.5-1.35-.29,.21-.64,.93-1.14,1.57-1.14,.93,0,.86,.21-.21,1.43Zm-14.47,10.48c-.57,.5-1.35,.71-1.64,.5-1.14-.64-.71-5.28,.64-7.06l1.21-1.64,.43,3.71c.36,2.78,.21,3.85-.64,4.49Z"/>
      <path d="M659.54,451.81c-1.21,.93-1.28,1.28-.5,2.92,.43,1.07,.71,2,.64,2.07-.14,.07-1.21,.71-2.5,1.35s-3.64,2.42-5.28,3.99-3.07,2.78-3.07,2.71c-.07-.14-.78-1.5-1.64-3.07-2.35-4.28-3.14-3.85-1.28,.71,1.35,3.42,1.57,4.92,1.28,9.84-.36,5.42-.21,6.13,1.78,9.91,1.71,3.42,2.28,3.92,2.92,3.14,1-1.14,1.21-5.49,.5-8.7-.43-2-.29-2.14,1.78-2.28,1.21-.07,3.14-.64,4.21-1.21,1.14-.57,2.28-1.07,2.5-1.07s.36,1.57,.29,3.49c-.14,2.28,.29,4.21,1.07,5.42l1.21,1.85-5.92,2.71c-8.13,3.71-8.06,3.71-10.77,2.57-2.35-.93-2.5-.93-3.21,.64-.57,1.28-.43,2.07,.57,3.64,1.71,2.57,6.2,5.35,7.77,4.78s6.27-3.71,5.56-3.71c-.36,0,2.92-3.49,7.2-7.77l7.84-7.84,2.99,2.92c2.21,2.07,3.21,2.57,3.64,1.93,.29-.57,0-1.64-.78-2.78-.71-1-1.78-2.92-2.35-4.28-.64-1.35-1.14-2.07-1.14-1.57-.07,.57-.64,.71-1.93,.43-1.71-.43-1.78-.36-1.07,1,.71,1.28,.43,1.71-2.92,3.64-2.07,1.14-3.78,2.07-3.85,2,0-.07,.07-2.64,.29-5.63,.36-5.99,.5-6.2,6.42-7.34,2.5-.5,2.78-2,.43-2.35-1.14-.14-.5-1.14,3.42-5.13,2.71-2.78,4.85-5.28,4.85-5.63,0-1-4.21-2.92-6.42-2.99-1,0-3.28,.36-5.21,.86-3.14,.86-3.49,.78-4.99-.64-1.93-1.85-2.5-1.85-4.35-.5Zm12.41,4.71c0,1.93-5.21,7.77-6.13,6.92-.07-.14,0-1.57,.21-3.21,.29-2.42,.78-3.14,2.28-3.71,2.57-.93,3.64-.93,3.64,0Zm-11.12,4.99c.71,3.78,.57,4.14-3.42,6.7-2.14,1.35-4.42,3.21-4.99,4.06-1.07,1.5-1.14,1.5-1.21,.21,0-.78-.14-2.21-.29-3.21-.29-2.5,2.71-6.85,5.85-8.49q3.49-1.85,4.06,.71Z"/>
      <path d="M706.82,472.2c.78,.86,1.93,3.64,2.64,6.2,1.35,5.21,2.85,8.27,5.35,11.12,1.64,1.85,3.49,2.5,3.49,1.14,0-.43,.64-.71,1.5-.71,.78,0,1.21-.36,1-.71-.21-.43-.14-.71,.29-.71,.78,0,1.43-1.71,1.85-5.42,.36-2.35,.07-2.92-1.93-4.71-4.49-3.85-8.06-6.06-11.41-6.85-4.35-1.14-4.42-1.07-2.78,.64Z"/>
    </g>
    <g>
      <path d="M682,526.82c.64,1.57-2.78,6.85-6.27,9.84-1.71,1.5-3.92,3.42-4.92,4.42s-2.14,1.78-2.5,1.78-1,.57-1.43,1.28c-.64,.93-.57,1.43,.14,2.14,.5,.43,1.07,.57,1.28,.21,.21-.29,1.93-1,3.78-1.57,3.57-.93,4.35-1.35,9.13-4.28,1.57-.93,2.99-1.71,3.21-1.78,1.35-.14,6.27-3.07,7.27-4.21,1.5-1.85,.78-3.14-3.49-6.42-3.42-2.57-6.92-3.42-6.2-1.43Z"/>
      <path d="M693.13,539.94c-.5,.29-3.42,2.99-6.56,5.99-4.99,4.85-5.85,5.42-7.7,5.06-2.71-.57-5.78,1.07-8.27,4.28-1.07,1.43-2.35,2.57-2.78,2.57-.5,0-2.21-1.28-3.71-2.85s-2.99-2.85-3.28-2.85,.07,1.57,.78,3.49c.78,1.93,1.14,3.64,.93,3.92-.5,.5,2.78,8.98,3.49,8.98,.21,0,1,.5,1.64,1.14,1.07,1.07,1.21,1.07,2.57-.14,.78-.71,1.21-1.71,1.07-2.21-.21-.57-.14-1.5,.21-2.21,1.28-2.57,2.5-6.99,2.5-9.41,.07-3.64,2.35-3.71,6.49-.29,1.78,1.43,3.21,2.92,3.21,3.28,0,1.14-8.41,10.27-10.48,11.34-1.14,.5-3.14,1.93-4.56,2.99-1.43,1.14-3.07,2-3.57,1.93-2-.29-2.5,.07-2.64,1.93-.21,2.5,3.35,10.91,4.56,10.91,.5,0,1,.36,1.14,.78,.14,.36,1.21-.64,2.35-2.28,1.21-1.64,3.64-4.49,5.56-6.35,3.49-3.42,9.77-8.27,9.77-7.49s-3.49,7.34-4.42,8.27c-.5,.57-1.85,2.42-3.07,4.21-1.14,1.78-2.71,3.64-3.35,4.14-1.71,1.28-2.42,2.78-3.07,6.35-.43,2.78-.36,2.92,1.07,2.57,.78-.21,3.92-3.07,6.92-6.35,5.35-5.92,6.99-6.99,7.77-4.99,1.28,3.42-13.05,21.03-23.32,28.59-4.06,2.99-4.71,4.28-1.14,2.42,1-.57,1.57-.57,1.71-.14,.36,1.07,5.13-.36,7.06-2.07,.78-.71,1.64-1.14,1.85-.93,.43,.43,8.77-8.2,12.76-13.19,1.43-1.78,3.42-4.85,4.56-6.77,1.78-3.28,1.85-3.85,1.14-6.56-.64-2.21-1.35-3.21-2.92-3.92-1.21-.5-2.14-1.14-2.14-1.35s1-1.78,2.14-3.35c2.07-2.92,2.78-5.13,1.5-5.13-.36,0-.78-.64-1-1.43-.57-2.28,2.14-1.78,4.71,.86,5.35,5.78,7.7,15.4,5.85,24.24-1.28,6.27-3.28,9.98-7.63,14.12-3.99,3.78-3.57,3.78-11.34,.43l-2.57-1.07,.36,1.78c.14,.93,.57,1.93,.93,2.07,.29,.21,.43,.86,.14,1.43-.21,.57,0,1.07,.43,1.07s.71,.21,.64,.5c-.07,.5,.71,2.85,2.14,6.06,.43,1.14,.71,1.07,3.49-.36,1.64-.86,4.85-3.07,7.2-4.85,7.56-5.99,12.19-18.11,11.12-29.31-.57-5.21-4.85-14.9-7.99-17.83-2.14-2.07-7.13-4.85-8.56-4.85s1.35-3.49,2.85-3.57c.64,0,1.35-.64,1.64-1.35,.21-.78,1.07-1.64,1.85-1.85,.71-.29,1.35-.71,1.35-1.07s2.28-2.92,4.99-5.78c2.78-2.92,4.99-5.7,4.99-6.27s-1.64-2.64-3.64-4.49c-2.99-2.78-4.14-3.42-6.27-3.42-1.43,0-2.99,.29-3.49,.64Zm2.78,.78c1.78,1,1.71,1.28-.93,5.35-3.92,5.85-7.91,9.7-5.42,5.13,1.14-2.07,1.43-3.28,1.28-5.78,0-1.21,.57-2.78,1.5-3.78,1.85-1.93,1.71-1.85,3.57-.93Z"/>
    </g>
  </g>
</svg>