<?xml version="1.0" encoding="UTF-8"?>
<svg xmlns="http://www.w3.org/2000/svg" xmlns:xlink="http://www.w3.org/1999/xlink" viewBox="0 0 1925 1080">
  <defs>
    <style>
      .cls-1 {
        fill: url(#_未命名的渐变_33-5);
      }

      .cls-1, .cls-2, .cls-3, .cls-4, .cls-5, .cls-6, .cls-7, .cls-8, .cls-9, .cls-10, .cls-11, .cls-12, .cls-13, .cls-14, .cls-15, .cls-16, .cls-17, .cls-18, .cls-19, .cls-20, .cls-21, .cls-22, .cls-23 {
        stroke-width: 0px;
      }

      .cls-2 {
        fill: url(#_未命名的渐变_30-4);
      }

      .cls-3 {
        fill: url(#_未命名的渐变_30-3);
      }

      .cls-4 {
        fill: url(#_未命名的渐变_33-8);
      }

      .cls-5 {
        fill: url(#_未命名的渐变_33-12);
      }

      .cls-6 {
        fill: url(#_未命名的渐变_30-2);
      }

      .cls-7 {
        fill: url(#_未命名的渐变_33-11);
      }

      .cls-8 {
        fill: url(#_未命名的渐变_33-9);
      }

      .cls-24 {
        filter: url(#drop-shadow-3);
      }

      .cls-9 {
        fill: url(#_未命名的渐变_33-10);
      }

      .cls-25 {
        filter: url(#drop-shadow-1);
      }

      .cls-10 {
        fill: url(#_未命名的渐变_33-3);
      }

      .cls-11 {
        fill: url(#_未命名的渐变_33-7);
      }

      .cls-12 {
        fill: #06f;
      }

      .cls-13 {
        fill: url(#_未命名的渐变_2);
      }

      .cls-14 {
        fill: url(#_未命名的渐变_33-2);
      }

      .cls-15 {
        fill: #fff;
      }

      .cls-16 {
        fill: url(#_未命名的渐变_33-13);
      }

      .cls-17 {
        fill: url(#_未命名的渐变_30);
      }

      .cls-26 {
        filter: url(#drop-shadow-2);
      }

      .cls-18 {
        fill: url(#_未命名的渐变_33-6);
      }

      .cls-19 {
        fill: rgba(49, 116, 143, 0);
      }

      .cls-20 {
        fill: url(#_未命名的渐变_33-4);
      }

      .cls-21 {
        fill: url(#_未命名的渐变_33-14);
      }

      .cls-22 {
        fill: url(#_未命名的渐变_33-15);
      }

      .cls-23 {
        fill: url(#_未命名的渐变_33);
      }
    </style>
    <filter id="drop-shadow-1" filterUnits="userSpaceOnUse">
      <feOffset dx="5" dy="5"/>
      <feGaussianBlur result="blur" stdDeviation="3"/>
      <feFlood flood-color="#000" flood-opacity=".25"/>
      <feComposite in2="blur" operator="in"/>
      <feComposite in="SourceGraphic"/>
    </filter>
    <linearGradient id="_未命名的渐变_30" data-name="未命名的渐变 30" x1="871" y1="428.93" x2="1168.36" y2="726.29" gradientTransform="translate(0 1083) scale(1 -1)" gradientUnits="userSpaceOnUse">
      <stop offset="0" stop-color="#ec476d"/>
      <stop offset="1" stop-color="#f6ae4a"/>
    </linearGradient>
    <linearGradient id="_未命名的渐变_2" data-name="未命名的渐变 2" x1="969.49" y1="424.41" x2="969.49" y2="503.37" gradientTransform="translate(0 1083) scale(1 -1)" gradientUnits="userSpaceOnUse">
      <stop offset="0" stop-color="#db44db" stop-opacity=".3"/>
      <stop offset=".11" stop-color="#db44db" stop-opacity=".21"/>
      <stop offset=".27" stop-color="#db44db" stop-opacity=".12"/>
      <stop offset=".44" stop-color="#db44db" stop-opacity=".05"/>
      <stop offset=".65" stop-color="#db44db" stop-opacity="0"/>
      <stop offset="1" stop-color="#db44db" stop-opacity="0"/>
    </linearGradient>
    <linearGradient id="_未命名的渐变_30-2" data-name="未命名的渐变 30" x1="794.4" y1="506.59" x2="1099.05" y2="811.24" xlink:href="#_未命名的渐变_30"/>
    <linearGradient id="_未命名的渐变_30-3" data-name="未命名的渐变 30" x1="949.27" y1="351.43" x2="1254.12" y2="656.28" xlink:href="#_未命名的渐变_30"/>
    <linearGradient id="_未命名的渐变_30-4" data-name="未命名的渐变 30" x1="871.37" y1="429.33" x2="1176.22" y2="734.18" xlink:href="#_未命名的渐变_30"/>
    <filter id="drop-shadow-2" filterUnits="userSpaceOnUse">
      <feOffset dx="5" dy="5"/>
      <feGaussianBlur result="blur-2" stdDeviation="3"/>
      <feFlood flood-color="#000" flood-opacity=".25"/>
      <feComposite in2="blur-2" operator="in"/>
      <feComposite in="SourceGraphic"/>
    </filter>
    <linearGradient id="_未命名的渐变_33" data-name="未命名的渐变 33" x1="738.45" y1="293.02" x2="809.34" y2="293.02" gradientUnits="userSpaceOnUse">
      <stop offset="0" stop-color="#e94a7d"/>
      <stop offset="1" stop-color="#f6ac4b"/>
    </linearGradient>
    <linearGradient id="_未命名的渐变_33-2" data-name="未命名的渐变 33" x1="737.8" y1="375.89" y2="375.89" xlink:href="#_未命名的渐变_33"/>
    <linearGradient id="_未命名的渐变_33-3" data-name="未命名的渐变 33" y1="459.01" x2="807.07" y2="459.01" xlink:href="#_未命名的渐变_33"/>
    <linearGradient id="_未命名的渐变_33-4" data-name="未命名的渐变 33" x1="734.56" y1="541.63" x2="810.31" y2="541.63" xlink:href="#_未命名的渐变_33"/>
    <linearGradient id="_未命名的渐变_33-5" data-name="未命名的渐变 33" x1="735.53" y1="624.67" x2="808.69" y2="624.67" xlink:href="#_未命名的渐变_33"/>
    <linearGradient id="_未命名的渐变_33-6" data-name="未命名的渐变 33" x1="736.83" y1="707.54" x2="810.96" y2="707.54" xlink:href="#_未命名的渐变_33"/>
    <linearGradient id="_未命名的渐变_33-7" data-name="未命名的渐变 33" x1="735.53" y1="790.24" x2="811.61" y2="790.24" xlink:href="#_未命名的渐变_33"/>
    <filter id="drop-shadow-3" filterUnits="userSpaceOnUse">
      <feOffset dx="5" dy="5"/>
      <feGaussianBlur result="blur-3" stdDeviation="3"/>
      <feFlood flood-color="#000" flood-opacity=".25"/>
      <feComposite in2="blur-3" operator="in"/>
      <feComposite in="SourceGraphic"/>
    </filter>
    <linearGradient id="_未命名的渐变_33-8" data-name="未命名的渐变 33" x1="898.22" y1="779.72" x2="867.82" y2="727.07" xlink:href="#_未命名的渐变_33"/>
    <linearGradient id="_未命名的渐变_33-9" data-name="未命名的渐变 33" x1="949.7" y1="786.28" x2="919.75" y2="734.42" xlink:href="#_未命名的渐变_33"/>
    <linearGradient id="_未命名的渐变_33-10" data-name="未命名的渐变 33" x1="991.64" y1="784.49" x2="971.27" y2="749.2" xlink:href="#_未命名的渐变_33"/>
    <linearGradient id="_未命名的渐变_33-11" data-name="未命名的渐变 33" x1="1043.74" y1="790.8" x2="1021.63" y2="752.5" xlink:href="#_未命名的渐变_33"/>
    <linearGradient id="_未命名的渐变_33-12" data-name="未命名的渐变 33" x1="1093.23" y1="779.72" x2="1062.84" y2="727.07" xlink:href="#_未命名的渐变_33"/>
    <linearGradient id="_未命名的渐变_33-13" data-name="未命名的渐变 33" x1="1144.71" y1="786.28" x2="1114.77" y2="734.42" xlink:href="#_未命名的渐变_33"/>
    <linearGradient id="_未命名的渐变_33-14" data-name="未命名的渐变 33" x1="1190.1" y1="791.4" x2="1167.45" y2="752.17" xlink:href="#_未命名的渐变_33"/>
    <linearGradient id="_未命名的渐变_33-15" data-name="未命名的渐变 33" x1="1239.71" y1="796.52" x2="1202.18" y2="731.51" xlink:href="#_未命名的渐变_33"/>
  </defs>
  <g id="_图层_4" data-name="图层 4">
    <rect class="cls-12" width="1925" height="1080"/>
  </g>
  <g id="_图层_5" data-name="图层 5">
    <g>
      <circle id="firefish-logo-bubble-1" class="cls-19" cx="718.83" cy="406.49" r="10.25"/>
      <circle id="firefish-logo-bubble-2" class="cls-19" cx="702.17" cy="406.49" r="20.5"/>
      <circle id="firefish-logo-bubble-3" class="cls-19" cx="690.64" cy="406.49" r="17.94"/>
      <circle id="firefish-logo-bubble-4" class="cls-19" cx="717.55" cy="406.49" r="10.25"/>
      <circle id="firefish-logo-bubble-5" class="cls-19" cx="690.64" cy="406.49" r="5.12"/>
      <g id="firefish-logo-firefish" class="cls-25">
        <g id="firefish-logo-fish">
          <g id="firefish-logo-body">
            <path class="cls-17" d="m1053.87,451.73h-168.75c-10.75,0-19.47,8.72-19.47,19.47v168.75c0,10.75,8.72,19.47,19.47,19.47h168.75c10.75,0,19.47-8.72,19.47-19.47v-168.75c0-10.75-8.72-19.47-19.47-19.47Z"/>
          </g>
          <g id="firefish-logo-body-purple-grad">
            <path class="cls-13" d="m1053.87,451.73h-168.75c-10.75,0-19.47,8.72-19.47,19.47v168.75c0,10.75,8.72,19.47,19.47,19.47h168.75c10.75,0,19.47-8.72,19.47-19.47v-168.75c0-10.75-8.72-19.47-19.47-19.47Z"/>
          </g>
          <g id="firefish-logo-fin-l">
            <path class="cls-6" d="m1053.8,425.7h-89.23c-10.75,0-19.46-8.71-19.46-19.46v-89.23c0-17.34,20.96-26.02,33.22-13.76l89.23,89.23c12.26,12.26,3.58,33.22-13.76,33.22h0Z"/>
          </g>
          <g id="firefish-logo-fin-b">
            <path class="cls-3" d="m1209.37,581.54h-90.36c-10.88,0-19.7-8.82-19.7-19.7v-90.36c0-17.55,21.22-26.35,33.64-13.93l90.36,90.36c12.41,12.41,3.62,33.64-13.93,33.64h0Z"/>
          </g>
          <g id="firefish-logo-fin-r">
            <path class="cls-2" d="m1209.37,425.75h-90.36c-10.88,0-19.7-8.82-19.7-19.7v-90.36c0-17.55,21.22-26.35,33.64-13.93l90.36,90.36c12.41,12.41,3.62,33.64-13.93,33.64h0Z"/>
          </g>
          <g id="firefish-logo-eye-l">
            <circle class="cls-15" cx="917.57" cy="581.54" r="25.96"/>
          </g>
          <g id="firefish-logo-eye-r">
            <circle class="cls-15" cx="982.47" cy="581.54" r="25.96"/>
          </g>
        </g>
      </g>
      <g class="cls-26">
        <path class="cls-23" d="m771.3,281.37c-.76,1.19-2.32,4.26-4.69,9.23h30.11c5.18,0,9.39-.11,12.62-.32v5.83c-3.45-.21-7.56-.32-12.3-.32h-3.24c-2.38,6.26-5.61,11.87-9.71,16.83,7.98,3.02,16.19,6.91,24.6,11.65-1.51,1.72-3.02,3.77-4.53,6.15-7.99-5.4-16.3-9.82-24.93-13.27-5.4,4.1-11.55,7.28-18.45,9.55-6.91,2.27-12.62,3.83-17.16,4.69-.87-2.59-2.16-4.86-3.88-6.8,6.69-.43,13-1.62,18.94-3.56,5.93-1.94,10.52-4.1,13.76-6.47-6.47-2.37-14.03-4.53-22.66-6.47,3.45-4.74,6.04-8.85,7.77-12.3h-8.09c-2.59,0-6.26.11-11.01.32v-5.83c2.59.22,6.15.32,10.68.32h10.68c2.8-5.18,4.96-10.36,6.47-15.54,2.59,1.51,5.07,2.59,7.45,3.24-.87.87-1.67,1.89-2.43,3.08Zm.16-26.71c2.37,3.02,4.74,6.37,7.12,10.04-1.29.65-2.7,1.62-4.21,2.91h29.78c-.22,3.02-.32,5.5-.32,7.45s.11,4.53.32,7.77h-6.8v-10.04h-47.91v9.39h-6.8c.21-3.02.32-5.61.32-7.77s-.22-4.42-.65-6.8h29.78c-1.73-3.67-3.67-6.69-5.83-9.06,1.94-1.29,3.67-2.59,5.18-3.88Zm6.47,55.68c3.02-2.8,5.93-7.66,8.74-14.57h-22.01c-1.73,2.59-3.56,5.61-5.5,9.06,8.85,2.38,15.1,4.21,18.78,5.5Z"/>
        <path class="cls-14" d="m758.84,403.25v-5.5c-5.4,3.24-10.79,6.04-16.19,8.42-1.08-1.72-2.7-3.45-4.86-5.18,3.24-.65,6.9-1.89,11.01-3.72,4.1-1.83,7.66-3.77,10.68-5.83,3.02-2.05,5.39-4.05,7.12-5.99h-15.86c-3.45,0-7.02.11-10.68.32v-5.83c3.67.43,7.23.65,10.68.65h22.01c-1.29-3.02-2.91-5.61-4.86-7.77,1.72-.86,3.34-1.83,4.86-2.91,2.15,2.81,3.99,5.5,5.5,8.09-1.94.87-3.35,1.73-4.21,2.59h23.95c3.24,0,6.9-.11,11.01-.32v5.5c-3.88-.21-7.56-.32-11.01-.32h-21.37c3.88,5.83,7.33,9.82,10.36,11.98,2.15-1.51,4.15-3.08,5.99-4.69,1.83-1.62,3.4-3.29,4.69-5.02,1.51,2.16,3.24,4,5.18,5.5-2.16.65-6.37,3.24-12.62,7.77,1.72,1.08,4.05,2.1,6.96,3.08s6.96,1.67,12.14,2.1c-1.94,2.15-3.13,4.21-3.56,6.15-4.97-1.08-9.23-2.38-12.79-3.88-3.56-1.51-6.91-3.77-10.04-6.8-3.13-3.02-6.75-7.77-10.84-14.24-1.94,1.94-4.53,4.21-7.77,6.8v10.36c3.45-1.29,6.8-2.91,10.04-4.86.21,1.73.75,3.45,1.62,5.18-3.88,1.94-6.85,3.4-8.9,4.37-2.05.97-4.37,2.21-6.96,3.72-1.29-1.94-2.48-3.67-3.56-5.18,1.29-1.08,2.05-2.59,2.27-4.53Zm-8.09-40.63c3.88-1.62,7.12-3.08,9.71-4.37v-9.39c0-3.24-.11-6.26-.32-9.06h6.15c-.22,2.38-.32,5.4-.32,9.06v15.21c0,2.81.11,5.94.32,9.39h-6.15c.21-3.67.32-6.9.32-9.71-2.81,1.08-5.88,2.48-9.23,4.21-3.35,1.73-6.31,3.24-8.9,4.53-.87-1.94-2.05-3.67-3.56-5.18,4.1-1.51,8.09-3.08,11.98-4.69Zm-9.06-13.76c1.72-1.51,2.91-2.91,3.56-4.21,3.24,2.16,6.58,4.86,10.04,8.09-1.51,1.51-2.91,3.02-4.21,4.53-2.81-3.24-5.94-6.04-9.39-8.42Zm43.05-.32c0-3.67-.11-6.9-.32-9.71h6.47c-.22,1.29-.32,4.53-.32,9.71h8.42c1.94,0,4.53-.11,7.77-.32v5.5c-3.24-.21-5.83-.32-7.77-.32h-8.42v10.04h6.15c1.51,0,3.88-.11,7.12-.32v5.5c-3.24-.21-5.61-.32-7.12-.32h-14.89c-2.59,0-5.29.11-8.09.32v-5.5c2.15.22,4.64.32,7.45.32h3.56v-10.04h-4.53c-2.81,0-6.04.11-9.71.32v-5.5c3.67.22,6.9.32,9.71.32h4.53Z"/>
        <path class="cls-10" d="m779.56,471.31c3.88,0,7.45-.11,10.68-.32v6.47c-3.24-.21-6.04-.32-8.42-.32h-31.08c-3.88,0-7.99.11-12.3.32v-6.47c4.31.22,8.42.32,12.3.32h28.81Zm21.69,16.19c-.65,3.45-2.48,5.72-5.5,6.8-3.02,1.08-7.45,1.83-13.27,2.27-.22-1.94-1.29-4.43-3.24-7.45,6.26.21,10.25.11,11.98-.32,1.72-.43,2.86-1.4,3.4-2.91.54-1.51,1.67-10.68,3.4-27.52h-51.47c2.8-17.26,4.31-29.56,4.53-36.9,2.8.43,5.39.76,7.77.97-.87,2.59-1.62,6.26-2.27,11.01h38.85c4.31,0,8.2-.11,11.65-.32v6.15c-3.45-.21-7.12-.32-11.01-.32h-40.14l-1.94,14.24h51.47c-.43,2.59-.87,5.61-1.29,9.06l-2.91,25.25Z"/>
        <path class="cls-20" d="m748.81,516.87c-1.94,4.75-4,9.39-6.15,13.92,3.02-.43,6.04-.75,9.06-.97,2.15-4.74,3.45-8.52,3.88-11.33l7.12,2.59c-1.29,1.51-3.13,4.53-5.5,9.06-2.38,4.53-5.94,11.55-10.68,21.04l14.57-1.94c-.87,2.59-1.41,4.64-1.62,6.15-2.81,0-5.99.27-9.55.81-3.56.54-7.07,1.35-10.52,2.43-.87-2.59-1.51-4.86-1.94-6.8,1.94-.86,3.88-2.86,5.83-5.99,1.94-3.13,3.88-6.64,5.83-10.52-2.38.22-4.59.49-6.64.81-2.05.32-3.83.81-5.34,1.46-.65-1.72-1.51-3.88-2.59-6.47,1.94-1.29,4.05-4.53,6.31-9.71s4.26-10.79,5.99-16.83c2.37.87,4.96,1.62,7.77,2.27-1.94,1.94-3.88,5.29-5.83,10.04Zm14.89,52.12c-3.88.65-8.2,1.46-12.95,2.43-4.75.97-9.06,2.21-12.95,3.72-.87-2.38-1.73-4.86-2.59-7.45,4.31-.43,8.36-.92,12.14-1.46,3.77-.54,9.33-1.56,16.67-3.08-.22,2.16-.32,4.1-.32,5.83Zm13.27-57.46c-.87,2.27-1.62,4.37-2.27,6.31h20.72c4.31,0,8.2-.11,11.65-.32v5.83c-3.67-.21-7.56-.32-11.65-.32h-3.24v11.01c5.18,0,9.39-.11,12.62-.32v5.83c-3.24-.21-7.45-.32-12.62-.32v11.65c5.39,0,9.71-.11,12.95-.32v5.5c-3.24-.21-7.56-.32-12.95-.32v11.65h5.18c4.31,0,8.63-.11,12.95-.32v5.5c-4.32-.22-8.63-.32-12.95-.32h-23.31v7.45h-6.15c.21-4.1.32-9.6.32-16.51v-31.4c-1.29,3.24-2.7,6.26-4.21,9.06-2.16-1.51-4-2.7-5.5-3.56,1.94-2.8,3.67-5.66,5.18-8.58,1.51-2.91,3.18-6.96,5.02-12.14,1.83-5.18,2.96-9.49,3.4-12.95,2.37.87,4.96,1.62,7.77,2.27-1.08,1.51-2.05,3.4-2.91,5.66Zm9.39,22.5v-11.01h-12.3v11.01h12.3Zm0,16.83v-11.65h-12.3v11.65h12.3Zm0,16.51v-11.65h-12.3v11.65h12.3Zm9.06-53.74c-1.73.65-3.56,1.51-5.5,2.59-1.08-2.59-2.7-5.61-4.86-9.06l5.18-3.24c.86,1.29,2.59,4.53,5.18,9.71Z"/>
        <path class="cls-1" d="m749.13,588.09h6.8c-.22,4.53-.32,10.58-.32,18.13,3.24,0,7.12-.11,11.65-.32v5.83c-4.97-.21-8.85-.32-11.65-.32v12.95c3.02-.65,6.9-1.62,11.65-2.91-.22.65-.11,2.38.32,5.18-1.94.43-5.94,1.51-11.98,3.24v22.34c.21,2.37-.27,4.31-1.46,5.83-1.19,1.51-5.02,2.7-11.49,3.56-.43-2.59-1.08-4.86-1.94-6.8,5.83.21,8.74-.86,8.74-3.24v-20.39c-4.75,1.08-8.63,2.16-11.65,3.24-.43-1.72-1.19-3.77-2.27-6.15,2.8-.43,7.45-1.29,13.92-2.59v-14.24c-4.75,0-8.85.11-12.3.32v-5.83c3.24.22,7.33.32,12.3.32,0-7.12-.11-13.16-.32-18.13Zm59.24,32.37c0,5.61.11,9.71.32,12.3h-6.8v-4.86h-23.63c-.43,7.56-1.51,14.08-3.24,19.58-1.73,5.5-4.53,10.73-8.42,15.7-2.38-1.51-4.53-2.7-6.47-3.56,2.8-2.81,4.91-5.55,6.31-8.25,1.4-2.7,2.59-5.72,3.56-9.06.97-3.34,1.67-8.09,2.1-14.24.43-6.15.43-15.05,0-26.71h36.58c-.22,6.91-.32,13.27-.32,19.1Zm-6.15,2.27v-16.19h-23.63v16.19h23.63Zm-7.12-25.9c-1.94.65-4.1,1.51-6.47,2.59-1.51-4.1-3.35-7.66-5.5-10.68,2.37-.86,4.31-1.72,5.83-2.59,2.59,3.88,4.64,7.45,6.15,10.68Z"/>
        <path class="cls-18" d="m777.94,680.99v12.95h14.57c3.67,0,7.33-.11,11.01-.32v6.15c-3.67,0-7.34-.11-11.01-.32h-14.57v11.98h22.98c3.24,0,6.58-.11,10.04-.32v6.15c-3.45-.21-6.8-.32-10.04-.32h-22.98v17.48c.21,3.24-.81,5.5-3.08,6.8s-6.1,2.15-11.49,2.59c-.22-2.59-1.29-5.07-3.24-7.45,4.1,0,7.01-.27,8.74-.81,1.72-.54,2.48-1.89,2.27-4.05v-14.57h-23.31c-3.88.22-7.56.32-11.01.32v-6.15c3.67.22,7.33.32,11.01.32h23.31v-11.98h-14.24c-3.88,0-7.88.11-11.98.32v-6.15c3.88.22,7.88.32,11.98.32h14.24v-12.3c-11.22.65-19.75,1.08-25.57,1.29-.65-2.37-1.62-4.42-2.91-6.15,7.77.22,17.85-.16,30.27-1.13,12.41-.97,21.2-2.43,26.38-4.37,1.29,3.02,2.7,5.5,4.21,7.45-3.02.22-11.55.97-25.57,2.27Z"/>
        <path class="cls-11" d="m768.55,765.8v19.1h10.04v-19.42c0-4.1-.11-7.88-.32-11.33h23.95c-.22,3.02-.32,6.91-.32,11.65v19.1c3.02,0,6.26-.11,9.71-.32v6.15c-3.67-.21-6.91-.32-9.71-.32v25.25c0,3.88-.81,6.31-2.43,7.28s-4.69,1.89-9.23,2.75c-.43-2.81-1.41-5.29-2.91-7.45,2.8,0,4.8-.11,5.99-.32,1.18-.21,1.99-1.4,2.43-3.56v-23.95h-11.33c-.43,15.11-3.24,27.09-8.42,35.93-1.73-1.73-3.78-2.91-6.15-3.56,5.18-6.9,7.98-17.69,8.42-32.37h-9.71v27.19c0,3.24-1.03,5.18-3.08,5.83-2.05.65-4.48,1.29-7.28,1.94-.65-2.16-1.62-4.53-2.91-7.12,2.59,0,4.37-.06,5.34-.16.97-.11,1.56-1.02,1.78-2.75v-24.93h-10.36c-.43,14.68-3.45,26.54-9.06,35.61-1.94-1.51-4.1-2.59-6.47-3.24,5.83-7.98,8.85-18.78,9.06-32.37-2.81,0-6.15.11-10.04.32v-6.15c3.67.22,7.12.32,10.36.32v-18.78c0-4.74-.11-8.74-.32-11.98h23.31c-.22,3.24-.32,7.12-.32,11.65Zm-6.15,19.1v-24.93h-10.36v24.93h10.36Zm33.34,0v-24.93h-11.01v24.93h11.01Z"/>
      </g>
      <g class="cls-24">
        <path class="cls-4" d="m906.92,734.83h-31.23v21.33h23.62v7.24h-23.62v29.33h-8.76v-65.13h39.99v7.24Z"/>
        <path class="cls-8" d="m938.53,737.87h-7.62v-9.9h7.62v9.9Zm0,54.85h-7.62v-42.66h7.62v42.66Z"/>
        <path class="cls-9" d="m997.95,757.68c-4.83-.76-8.89-.06-12.19,2.09-3.3,2.16-6.09,5.9-8.38,11.24v21.71h-7.62v-42.66h7.62v11.05c2.29-4.06,5.14-7.05,8.57-8.95s7.43-2.86,12-2.86v8.38Z"/>
        <path class="cls-7" d="m1052.04,778.25c-.51,4.57-2.54,8.25-6.09,11.05-3.56,2.8-7.75,4.19-12.57,4.19-6.09,0-11.11-1.96-15.05-5.9-3.94-3.93-5.9-9.33-5.9-16.19s1.96-12.25,5.9-16.19c3.93-3.93,8.95-5.9,15.05-5.9,5.33,0,9.71,1.71,13.14,5.14s5.14,9.08,5.14,16.95h-30.85c0,5.59,1.2,9.52,3.62,11.81,2.41,2.29,5.39,3.43,8.95,3.43,2.79,0,5.08-.7,6.86-2.09,1.77-1.39,2.92-3.49,3.43-6.28h8.38Zm-9.14-12.95c-.51-3.55-1.66-6.03-3.43-7.43-1.78-1.39-4.07-2.09-6.86-2.09-2.54,0-4.83.7-6.86,2.09-2.04,1.4-3.56,3.87-4.57,7.43h21.71Z"/>
        <path class="cls-5" d="m1101.94,734.83h-31.23v21.33h23.62v7.24h-23.62v29.33h-8.76v-65.13h39.99v7.24Z"/>
        <path class="cls-16" d="m1133.55,737.87h-7.62v-9.9h7.62v9.9Zm0,54.85h-7.62v-42.66h7.62v42.66Z"/>
        <path class="cls-21" d="m1196.78,780.92c0,4.06-1.59,7.18-4.76,9.33-3.18,2.16-7.18,3.24-12,3.24-6.09,0-10.8-1.2-14.09-3.62-3.3-2.41-4.95-5.9-4.95-10.47h7.62c0,3.05,1.08,5.08,3.24,6.09,2.15,1.02,4.76,1.52,7.81,1.52s5.33-.57,6.86-1.71,2.29-2.6,2.29-4.38c0-1.27-.64-2.53-1.9-3.81-1.27-1.27-4.45-2.29-9.52-3.05-5.84-.76-9.84-2.22-12-4.38-2.16-2.15-3.24-5.01-3.24-8.57,0-3.05,1.46-5.77,4.38-8.19,2.92-2.41,7.17-3.62,12.76-3.62,5.08,0,9.07,1.14,12,3.43,2.92,2.29,4.38,5.33,4.38,9.14h-7.62c0-2.29-.83-3.87-2.48-4.76-1.66-.89-3.75-1.33-6.28-1.33-3.3,0-5.65.57-7.05,1.71-1.4,1.14-2.09,2.48-2.09,4,0,1.78.63,3.18,1.9,4.19,1.27,1.02,3.93,1.78,8,2.29,6.6,1.02,11.05,2.61,13.33,4.76,2.29,2.16,3.43,4.89,3.43,8.19Z"/>
        <path class="cls-22" d="m1246.29,792.72h-7.62v-27.42c0-3.05-.76-5.46-2.29-7.24-1.52-1.77-3.56-2.67-6.09-2.67-3.3,0-6.42,1.71-9.33,5.14-2.92,3.43-4.38,7.68-4.38,12.76v19.43h-7.62v-65.13h7.62v30.47c2.03-2.79,4.25-4.95,6.67-6.48,2.41-1.52,5.52-2.29,9.33-2.29,4.57,0,8,1.27,10.28,3.81,2.29,2.54,3.43,5.71,3.43,9.52v30.09Z"/>
      </g>
    </g>
  </g>
</svg>