<?xml version="1.0" encoding="UTF-8"?>
<svg id="_图层_2" data-name="图层 2" xmlns="http://www.w3.org/2000/svg" viewBox="0 0 1919 1080">
  <defs>
    <style>
      .cls-1, .cls-2 {
        stroke-width: 0px;
      }

      .cls-2 {
        fill: #ff931e;
      }
    </style>
  </defs>
  <g id="_图层_1-2" data-name="图层 1">
    <rect class="cls-2" width="1919" height="1080"/>
    <path class="cls-1" d="m884.04,231.39c-1.43,0-2.7-.49-3.8-1.46-1.1-.97-1.66-2.17-1.66-3.6s.55-2.63,1.66-3.6c1.1-.97,2.37-1.46,3.8-1.46h42.45v-8.57c0-1.43.52-2.6,1.56-3.5,1.04-.91,2.27-1.36,3.7-1.36s2.69.46,3.8,1.36c1.1.91,1.65,2.08,1.65,3.5v8.57h43.03v-8.57c0-1.43.49-2.6,1.46-3.5.97-.91,2.17-1.36,3.6-1.36s2.69.46,3.8,1.36c1.1.91,1.65,2.08,1.65,3.5v8.57h44.59c1.56,0,2.85.49,3.89,1.46,1.04.97,1.56,2.18,1.56,3.6s-.52,2.63-1.56,3.6c-1.04.97-2.34,1.46-3.89,1.46h-44.59v7.2c0,1.43-.55,2.63-1.65,3.6-1.1.97-2.37,1.46-3.8,1.46s-2.63-.49-3.6-1.46-1.46-2.17-1.46-3.6v-7.2h-43.03v7.2c0,1.43-.55,2.63-1.65,3.6-1.1.97-2.37,1.46-3.8,1.46s-2.66-.49-3.7-1.46c-1.04-.97-1.56-2.17-1.56-3.6v-7.2h-42.45Zm138.63,91.9c-.65,0-1.33-.19-2.04-.58-.72-.39-1.33-.78-1.85-1.17v.19c-1.56-1.82-3.31-3.73-5.26-5.74-1.95-2.01-4.03-4.06-6.23-6.13l-1.56.58c-4.28.26-9.61.49-15.97.68-6.36.19-13.11.42-20.25.68-7.14.26-14.28.52-21.42.78-7.14.26-13.57.49-19.28.68-5.71.19-10.39.36-14.02.49-3.64.13-5.52.19-5.65.19h-2.63c-.58,0-1.07-.06-1.46-.19h.2c-1.82-.52-3.15-1.33-3.99-2.43-.85-1.1-1.27-1.91-1.27-2.43,0-.78.23-1.75.68-2.92.45-1.17,1.59-2.34,3.41-3.5l-.39-.78.39-.39c.13-.13.45-.32.97-.58l1.36.78,1.17-.39c.39,0,.78-.19,1.17-.58,1.17-.26,3.31-1,6.43-2.24,3.12-1.23,6.29-2.5,9.54-3.8h-.2l1.36-.39c1.43-.52,3.6-1.33,6.52-2.43,2.92-1.1,6.26-2.43,10.03-3.99-4.03.13-7.89.23-11.59.29-3.7.07-6.95.13-9.74.19-2.79.07-5.06.1-6.81.1h-2.82c-1.3,0-3.05-.32-5.26-.97-1.82-1.04-3.18-2.6-4.09-4.67v.19c-.65-3.63,1.1-6.62,5.26-8.96l3.31-1.56,3.89-2.14,8.18-4.48c.13,0,.94-.49,2.43-1.46,1.49-.97,3.34-2.17,5.55-3.6h-46.15c-1.43,0-2.66-.49-3.7-1.46-1.04-.97-1.56-2.17-1.56-3.6s.52-2.6,1.56-3.5c1.04-.91,2.27-1.36,3.7-1.36h73.6c-1.04-1.43-2.01-2.89-2.92-4.38-.91-1.49-1.88-2.95-2.92-4.38-.52-1.3-.75-2.69-.68-4.19.06-1.49.42-2.56,1.07-3.21v.19c1.17-.78,2.46-1.1,3.89-.97,1.43.13,2.53.71,3.31,1.75,1.43,1.56,3.02,3.57,4.77,6.04,1.75,2.47,3.28,4.74,4.58,6.81.26,1.04.39,1.82.39,2.34h64.64c1.69,0,3.05.46,4.09,1.36,1.04.91,1.56,2.08,1.56,3.5s-.52,2.63-1.56,3.6c-1.04.97-2.4,1.46-4.09,1.46h-86.84c-.52.65-.85,1.04-.97,1.17-1.95,1.56-4.03,3.08-6.23,4.58-2.21,1.49-4.25,2.82-6.13,3.99-1.88,1.17-3.47,2.14-4.77,2.92-1.3.78-2.14,1.23-2.53,1.36l-2.14,1.36.39,1.56c2.85,0,6.13-.03,9.83-.1,3.7-.06,7.5-.16,11.39-.29,3.89-.13,7.75-.23,11.58-.29,3.83-.06,7.3-.16,10.42-.29,6.23-2.73,11.81-5.32,16.75-7.79,1.43-.65,2.82-.78,4.19-.39,1.36.39,2.3,1.3,2.82,2.73.52,1.17.52,2.4,0,3.7-.52,1.3-1.43,2.27-2.73,2.92-3.5,1.82-7.63,3.8-12.36,5.94-4.74,2.14-9.57,4.25-14.51,6.33-4.93,2.08-9.77,4.06-14.51,5.94-4.74,1.88-8.79,3.47-12.17,4.77l.19,1.95c4.54-.13,9.47-.26,14.8-.39,5.32-.13,10.71-.29,16.16-.49,5.45-.19,10.81-.39,16.06-.58,5.26-.19,10.03-.36,14.31-.49-1.3-1.17-2.56-2.21-3.8-3.12-1.23-.91-2.37-1.75-3.41-2.53-1.04-.65-1.72-1.72-2.04-3.21-.33-1.49-.1-2.82.68-3.99.65-1.04,1.72-1.72,3.21-2.04,1.49-.32,2.95-.16,4.38.49,2.21,1.69,4.64,3.7,7.3,6.04,2.66,2.34,5.32,4.77,7.98,7.3,2.66,2.53,5.29,5.1,7.89,7.69,2.59,2.6,4.87,4.93,6.81,7.01h-.19c.78,1.04,1.07,2.4.88,4.09-.19,1.69-.88,3.25-2.04,4.67-.13.13-.91.19-2.34.19Zm-101.64,62.5c-2.99,0-5.94-.62-8.86-1.85-2.92-1.23-5.35-2.76-7.3-4.58-2.21-2.21-3.96-4.77-5.26-7.69-1.3-2.92-1.95-5.87-1.95-8.86v-19.86c0-3.12.61-6.07,1.85-8.86,1.23-2.79,2.92-5.22,5.06-7.3,2.14-2.07,4.61-3.7,7.4-4.87,2.79-1.17,5.81-1.75,9.05-1.75h76.33c3.24,0,6.26.58,9.05,1.75,2.79,1.17,5.26,2.79,7.4,4.87,2.14,2.08,3.83,4.51,5.06,7.3,1.23,2.79,1.85,5.74,1.85,8.86v19.86c0,2.99-.58,5.94-1.75,8.86-1.17,2.92-2.86,5.48-5.06,7.69-4.54,4.28-10.06,6.43-16.55,6.43h-76.33Zm0-55.49c-3.5,0-6.49,1.27-8.96,3.8-2.47,2.53-3.7,5.49-3.7,8.86v4.48c.78-.26,1.36-.39,1.75-.39h43.81v-16.75h-32.91Zm-10.9,27.26c-.78,0-1.36-.06-1.75-.19v5.45c0,3.5,1.23,6.49,3.7,8.96s5.45,3.7,8.96,3.7h33.1c-.13-.39-.2-.85-.2-1.36v-16.55h-43.81Zm87.23,17.91c3.76,0,6.85-1.24,9.25-3.7,2.4-2.47,3.6-5.45,3.6-8.96v-5.65c-.39.13-.75.23-1.07.29-.33.07-.68.1-1.07.1h-43.61v16.55c0,.26-.03.49-.1.68-.07.19-.1.42-.1.68h33.1Zm12.85-32.52c0-3.37-1.24-6.33-3.7-8.86-2.47-2.53-5.52-3.8-9.15-3.8h-32.91v16.75h43.61c.65,0,1.36.19,2.14.58v-4.67Z"/>
    <path class="cls-1" d="m880.92,493.66c-1.43,0-2.66-.45-3.7-1.36-1.04-.91-1.56-2.08-1.56-3.5s.52-2.63,1.56-3.6c1.04-.97,2.27-1.46,3.7-1.46h30.37v-33.68c0-1.43.49-2.66,1.46-3.7.97-1.04,2.17-1.56,3.6-1.56,1.56,0,2.85.52,3.89,1.56,1.04,1.04,1.56,2.27,1.56,3.7v33.68h29.01c1.43,0,2.63.49,3.6,1.46.97.97,1.46,2.18,1.46,3.6s-.49,2.6-1.46,3.5c-.97.91-2.18,1.36-3.6,1.36h-29.01v34.07h7.2c5.84,0,10.84,1.95,14.99,5.84,4.28,4.16,6.42,9.35,6.42,15.58v38.16c0,2.73-.62,5.52-1.85,8.37-1.24,2.86-2.76,5.38-4.58,7.59h.19c-1.82,1.82-4.06,3.28-6.72,4.38-2.66,1.1-5.49,1.65-8.47,1.65h-23.56c-2.73,0-5.45-.58-8.18-1.75s-5-2.66-6.81-4.48c-1.95-1.95-3.5-4.31-4.67-7.11-1.17-2.79-1.75-5.68-1.75-8.67v-38.16c0-2.99.58-5.81,1.75-8.47,1.17-2.66,2.73-5.03,4.67-7.11,3.89-3.89,8.89-5.84,14.99-5.84h5.84v-34.07h-30.37Zm24.53,44c-2.99,0-5.55,1.07-7.69,3.21-2.14,2.14-3.21,4.9-3.21,8.28v38.16c0,3.5,1.07,6.36,3.21,8.57,2.14,2.21,4.7,3.31,7.69,3.31h23.56c3.12,0,5.71-1.13,7.79-3.41,2.07-2.27,3.12-5.09,3.12-8.47v-38.16c0-3.38-1.04-6.13-3.12-8.28-2.08-2.14-4.67-3.21-7.79-3.21h-23.56Zm48.87,79.05c-1.3,0-2.14-.19-2.53-.58-1.04-.65-1.72-1.75-2.04-3.31-.33-1.56-.16-2.92.49-4.09,6.23-11.29,10.97-24.5,14.21-39.62,3.24-15.12,4.87-33,4.87-53.64l-.19-45.95c0-2.34.58-4.67,1.75-7.01,1.17-2.34,2.66-4.41,4.48-6.23v.19c1.82-1.43,3.92-2.6,6.33-3.5,2.4-.91,4.9-1.36,7.5-1.36h20.06c2.73,0,5.29.49,7.69,1.46,2.4.97,4.54,2.27,6.43,3.89,1.88,1.62,3.34,3.54,4.38,5.74,1.04,2.21,1.56,4.55,1.56,7.01l-.19,117.41v2.34c.13,2.08.13,4.25,0,6.52-.13,2.27-.71,4.51-1.75,6.72-.78,1.95-2.31,3.89-4.58,5.84-2.27,1.95-5.68,3.12-10.22,3.5h-10.9c-1.56,0-2.86-.49-3.89-1.46-1.04-.97-1.56-2.17-1.56-3.6s.52-2.6,1.56-3.5c1.04-.91,2.34-1.36,3.89-1.36h10.71c1.82-.26,3.18-.78,4.09-1.56.91-.78,1.49-1.43,1.75-1.95.26-.91.45-2.21.58-3.89.13-1.69.13-3.18,0-4.48,0-.26-.03-.49-.1-.68-.07-.19-.1-.36-.1-.49v-34.85h-41.08c-.26,2.72-.58,5.32-.97,7.79-.39,2.47-.71,4.8-.97,7.01-1.69,8.31-3.86,16.2-6.52,23.66-2.66,7.46-5.68,14.24-9.05,20.35-.78,1.04-1.75,1.91-2.92,2.63-1.17.71-2.08,1.07-2.73,1.07Zm25.51-101.25c0,4.8-.13,9.61-.39,14.41-.26,4.8-.58,9.48-.97,14.02h40.11l.19-37.19h-38.94v8.76Zm39.14-45.76c0-1.82-.91-3.6-2.73-5.35-1.82-1.75-4.16-2.63-7.01-2.63h-20.06c-2.6,0-4.84.78-6.72,2.34-1.88,1.56-2.82,3.38-2.82,5.45v27.06h39.14l.2-26.87Z"/>
    <path class="cls-1" d="m906.23,840.44c-.65,0-1.33-.19-2.04-.58-.71-.39-1.4-.85-2.04-1.36-.39-.65-.71-1.53-.97-2.63-.26-1.1-.2-2.04.19-2.82.13-.91.32-2.46.58-4.67.26-2.21.49-4.54.68-7.01.19-2.46.36-4.93.49-7.4.13-2.46.2-4.48.2-6.04v-55.1c0-2.21-.62-4.09-1.85-5.65-1.24-1.56-2.76-2.34-4.58-2.34h-14.21c-1.43,0-2.63-.45-3.6-1.36-.97-.91-1.46-2.08-1.46-3.5s.49-2.63,1.46-3.6,2.17-1.46,3.6-1.46h14.21c2.34,0,4.51.49,6.52,1.46,2.01.97,3.8,2.27,5.35,3.89,1.56,1.62,2.79,3.5,3.7,5.65.91,2.14,1.36,4.45,1.36,6.91v55.1c0,3.25-.19,7.4-.58,12.46,0,.26-.03.52-.1.78-.07.26-.1.52-.1.78v2.53c1.69-1.43,3.5-3.02,5.45-4.77,1.95-1.75,3.83-3.47,5.65-5.16,1.82-1.69,3.44-3.21,4.87-4.58,1.43-1.36,2.53-2.43,3.31-3.21,1.04-1.04,2.3-1.62,3.8-1.75,1.49-.13,2.76.33,3.8,1.36.91.91,1.39,2.08,1.46,3.5.06,1.43-.29,2.66-1.07,3.7h.2c-1.04,1.17-2.66,2.79-4.87,4.87-2.21,2.08-4.58,4.19-7.11,6.33s-4.9,4.16-7.11,6.04c-2.21,1.88-3.77,3.21-4.67,3.99-.78.65-1.69,1.33-2.73,2.04-1.04.71-2.01,1.39-2.92,2.04l-2.53.97c-.26.26-.62.42-1.07.49-.46.06-.88.1-1.26.1Zm7.2-130.07c-.91,0-1.79-.29-2.63-.88-.85-.58-1.46-1.27-1.85-2.04-1.43-2.98-3.15-6.29-5.16-9.93-2.01-3.63-3.93-6.62-5.74-8.96-.39-1.04-.49-2.27-.29-3.7.2-1.43.68-2.53,1.46-3.31,1.04-.78,2.27-1.07,3.7-.88,1.43.2,2.59.81,3.5,1.85,1.82,2.99,3.86,6.36,6.13,10.12,2.27,3.77,4.12,7.14,5.55,10.12.39,1.17.39,2.4,0,3.7-.39,1.3-1.1,2.34-2.14,3.12-.91.52-1.75.78-2.53.78Zm59.58,137.66c-3.12-.39-5.94-1.33-8.47-2.82-2.53-1.49-4.64-3.28-6.33-5.35-1.43-2.21-2.66-4.74-3.7-7.59-1.04-2.85-1.56-5.58-1.56-8.18v-38.55c0-.78.06-1.3.2-1.56v-.97c0-3.37.52-6.68,1.56-9.93,1.04-3.24,2.53-6.16,4.48-8.76,2.21-2.59,4.77-4.61,7.69-6.04,2.92-1.43,6.2-2.14,9.83-2.14h33.49c2.07,0,4.05-.45,5.94-1.36,1.88-.91,3.54-2.14,4.96-3.7,1.43-1.56,2.56-3.34,3.41-5.35.84-2.01,1.27-4.19,1.27-6.52v-23.17c0-2.34-.42-4.54-1.27-6.62-.85-2.07-1.98-3.89-3.41-5.45-1.43-1.56-3.08-2.76-4.96-3.6-1.88-.84-3.86-1.27-5.94-1.27h-49.85c-1.43,0-2.63-.49-3.6-1.46s-1.46-2.17-1.46-3.6.49-2.63,1.46-3.6c.97-.97,2.17-1.46,3.6-1.46h49.85c3.63,0,7.04.68,10.22,2.04,3.18,1.36,5.87,3.28,8.08,5.74,2.46,2.6,4.41,5.52,5.84,8.76,1.43,3.25,2.14,6.75,2.14,10.51v23.17c0,3.5-.71,6.98-2.14,10.42-1.43,3.44-3.38,6.46-5.84,9.05-2.21,2.34-4.9,4.19-8.08,5.55-3.18,1.36-6.59,2.04-10.22,2.04h-33.49c-2.21,0-4.12.49-5.74,1.46-1.62.97-2.99,2.24-4.09,3.8-1.1,1.56-1.92,3.34-2.43,5.35-.52,2.01-.78,4.06-.78,6.13,0,.26-.03.49-.1.68-.07.19-.1.42-.1.68s.03.46.1.58c.06.13.1.33.1.58v38.55c0,1.17.13,2.5.39,3.99.26,1.49.78,2.92,1.56,4.28.78,1.36,1.85,2.56,3.21,3.6,1.36,1.04,3.21,1.62,5.55,1.75h45.56c1.82,0,3.44-.29,4.87-.88,1.43-.58,2.46-1.07,3.12-1.46-.13-1.17.13-2.53.78-4.09l.78-4.28c.13-.26.26-.52.39-.78.13-.26.2-.52.2-.78s.03-.55.1-.88c.06-.32.1-.61.1-.88l.78-5.06c.26-1.43.94-2.56,2.04-3.41,1.1-.84,2.43-1.2,3.99-1.07,1.3.13,2.43.78,3.41,1.95.97,1.17,1.33,2.47,1.07,3.89-.26,2.08-.58,4.22-.97,6.43-.39,2.21-.91,4.48-1.56,6.81v-.19l-1.17,4.48c-.13,1.17-.75,2.5-1.85,3.99-1.1,1.49-2.89,2.89-5.35,4.19-1.56.65-3.31,1.2-5.26,1.66-1.95.45-3.77.68-5.45.68h-46.92Z"/>
    <g>
      <path class="cls-1" d="m829.96,603.96c-24.23,16.05-48.46,32.1-72.69,48.15-6.78,4.49-13.57,8.99-20.35,13.48-1.6,1.06-.1,3.66,1.51,2.59,24.23-16.05,48.46-32.1,72.69-48.15,6.78-4.49,13.57-8.99,20.35-13.48,1.6-1.06.1-3.66-1.51-2.59h0Z"/>
      <path class="cls-1" d="m847.52,623.65c-15.11,8.77-29.51,18.75-43.04,29.81-3.89,3.18-7.69,6.45-11.43,9.8-1.44,1.29.69,3.41,2.12,2.12,12.87-11.55,26.65-22.07,41.2-31.42,4.16-2.67,8.38-5.25,12.66-7.73,1.67-.97.16-3.56-1.51-2.59h0Z"/>
      <path class="cls-1" d="m880.19,627.51c-5.66,12.17-12.65,23.68-20.82,34.32-.5.65-.09,1.67.54,2.05.77.46,1.56.1,2.05-.54,8.18-10.64,15.16-22.15,20.82-34.32.81-1.74-1.78-3.26-2.59-1.51h0Z"/>
      <path class="cls-1" d="m923.48,623.52c-1.25,7.07-5.69,13.29-12.03,16.69-1.7.91-.19,3.51,1.51,2.59,6.95-3.74,12.03-10.71,13.41-18.49.14-.8-.21-1.62-1.05-1.85-.72-.2-1.7.25-1.85,1.05h0Z"/>
      <path class="cls-1" d="m866.76,616.21c-20.92,8.72-41.84,17.45-62.75,26.17-5.9,2.46-11.8,4.92-17.7,7.38-.75.31-1.27.99-1.05,1.85.19.71,1.1,1.36,1.85,1.05,20.92-8.72,41.84-17.45,62.75-26.17,5.9-2.46,11.8-4.92,17.7-7.38.75-.31,1.27-.99,1.05-1.85-.19-.71-1.1-1.36-1.85-1.05h0Z"/>
      <path class="cls-1" d="m792.96,596.31c-17.02,5.84-34.13,11.73-50.09,20.13-14.05,7.4-27.22,16.92-37.44,29.18-5.54,6.65-10.1,14-13.39,22.01-.73,1.78,2.17,2.56,2.89.8,5.74-13.96,15.77-25.74,27.44-35.15,12.94-10.43,28.04-17.87,43.42-23.98,9.21-3.66,18.59-6.88,27.97-10.1,1.82-.62,1.04-3.52-.8-2.89h0Z"/>
      <path class="cls-1" d="m818.16,627.33c-18.92,13.24-41.05,20.47-61.49,30.86-5.84,2.97-11.53,6.21-16.96,9.88-1.59,1.08-.09,3.68,1.51,2.59,19.1-12.95,41.25-20.1,61.62-30.67,5.81-3.01,11.46-6.32,16.83-10.07,1.57-1.1.07-3.7-1.51-2.59h0Z"/>
      <path class="cls-1" d="m1010.99,628.05c1.15-.57,2.55.39,3.48,1.02,1.31.89,2.55,1.89,3.81,2.84,2.71,2.03,5.42,4.05,8.13,6.08,5.35,4,10.7,8.01,16.05,12.01,1.55,1.16,3.04-1.45,1.51-2.59-5.88-4.4-11.76-8.8-17.64-13.2-2.91-2.18-5.81-4.35-8.72-6.53-2.38-1.78-5.12-3.72-8.14-2.22-1.73.86-.21,3.45,1.51,2.59h0Z"/>
      <path class="cls-1" d="m1053.01,627.49c9.77,6.3,19.15,13.2,28.07,20.65,1.47,1.23,3.6-.88,2.12-2.12-9.12-7.62-18.69-14.68-28.67-21.12-1.63-1.05-3.13,1.55-1.51,2.59h0Z"/>
      <path class="cls-1" d="m1093.81,623.43c17.72,9.92,34.88,20.82,51.38,32.66,4.7,3.37,9.34,6.82,13.92,10.33,1.53,1.17,3.03-1.43,1.51-2.59-16.12-12.35-32.92-23.81-50.31-34.29-4.95-2.98-9.95-5.88-14.99-8.7-1.69-.94-3.2,1.65-1.51,2.59h0Z"/>
      <path class="cls-1" d="m1092.71,635.51c14.25,6.88,27.88,15.01,40.72,24.27,1.57,1.13,3.07-1.47,1.51-2.59-12.84-9.26-26.46-17.39-40.72-24.27-1.73-.84-3.25,1.75-1.51,2.59h0Z"/>
      <path class="cls-1" d="m1105.86,619.8c14.81,7.87,29.65,15.77,43.72,24.93,13.77,8.95,27.31,19.19,37.99,31.77,5.68,6.69,10.5,14.63,11.35,23.53.18,1.9,3.18,1.92,3,0-1.59-16.55-14.55-29.39-26.46-39.73-13.01-11.29-27.57-20.64-42.51-29.16-8.43-4.81-17-9.37-25.58-13.93-1.7-.91-3.22,1.68-1.51,2.59h0Z"/>
      <path class="cls-1" d="m1137.76,603.97c11.81,8.82,21.46,20.44,28.09,33.6,1.87,3.71,3.48,7.54,4.85,11.46.63,1.81,3.53,1.03,2.89-.8-5.03-14.48-13.42-27.72-24.4-38.41-3.11-3.03-6.43-5.83-9.91-8.43-1.55-1.16-3.04,1.45-1.51,2.59h0Z"/>
      <path class="cls-1" d="m1123.48,613.46c17.84,7.67,35.96,15.5,51.5,27.34,4.4,3.35,8.54,7.06,12.34,11.07,1.33,1.4,3.45-.72,2.12-2.12-13.63-14.4-31.25-24.01-49.11-32.15-5.08-2.32-10.21-4.53-15.34-6.74-1.75-.75-3.28,1.83-1.51,2.59h0Z"/>
      <path class="cls-1" d="m810.1,598.81c-16.81,8.11-33.91,15.59-50.7,23.75-16.64,8.09-33.02,16.87-48.15,27.58-8.44,5.98-16.47,12.54-23.86,19.79-1.38,1.35.74,3.48,2.12,2.12,13.14-12.9,28.29-23.48,44.22-32.64,15.97-9.19,32.69-17,49.41-24.71,9.51-4.38,19.04-8.74,28.47-13.29,1.74-.84.22-3.43-1.51-2.59h0Z"/>
      <path class="cls-1" d="m856.78,609.25c-14.54,6.3-27.52,16.04-37.93,27.97s-18.39,26.06-23.04,41.23c-2.62,8.54-4.15,17.42-4.53,26.35-.08,1.93,2.92,1.93,3,0,.65-15.46,4.97-30.65,12.19-44.31,7.24-13.69,17.31-25.85,29.51-35.39,6.83-5.34,14.36-9.8,22.31-13.25,1.77-.77.24-3.35-1.51-2.59h0Z"/>
      <path class="cls-1" d="m1064.34,620.36c22.06,4.86,44.05,10,65.98,15.43,6.24,1.55,12.48,3.11,18.71,4.71,1.87.48,2.67-2.41.8-2.89-21.88-5.59-43.84-10.9-65.86-15.92-6.27-1.43-12.54-2.83-18.82-4.22-1.88-.41-2.69,2.48-.8,2.89h0Z"/>
      <path class="cls-1" d="m990.57,635.25c5.11,3,10.22,5.99,15.33,8.99,1.67.98,3.18-1.61,1.51-2.59-5.11-3-10.22-5.99-15.33-8.99-1.67-.98-3.18,1.61-1.51,2.59h0Z"/>
      <path class="cls-1" d="m1120.29,613.58c24.18-.69,48.73-1.4,72.54,3.57,6.72,1.4,13.33,3.26,19.76,5.65,1.81.67,2.59-2.23.8-2.89-23.07-8.56-47.95-9.99-72.33-9.78-6.93.06-13.85.25-20.77.45-1.93.06-1.93,3.06,0,3h0Z"/>
      <path class="cls-1" d="m841.75,611.99c-24.34-.02-48.68,3.03-72.25,9.07-6.74,1.73-13.42,3.7-20.02,5.91-1.82.61-1.04,3.51.8,2.89,22.98-7.69,46.91-12.49,71.09-14.17,6.79-.47,13.59-.7,20.39-.7,1.93,0,1.93-3,0-3h0Z"/>
    </g>
  </g>
</svg>