<?xml version="1.0" encoding="UTF-8" standalone="no"?>
<svg
   id="_图层_1"
   data-name="图层 1"
   viewBox="0 0 1366 768"
   version="1.1"
   sodipodi:docname="密码设计.svg"
   inkscape:version="1.3.2 (091e20ef0f, 2023-11-25, custom)"
   xmlns:inkscape="http://www.inkscape.org/namespaces/inkscape"
   xmlns:sodipodi="http://sodipodi.sourceforge.net/DTD/sodipodi-0.dtd"
   xmlns="http://www.w3.org/2000/svg"
   xmlns:svg="http://www.w3.org/2000/svg">
  <sodipodi:namedview
     id="namedview17"
     pagecolor="#ffffff"
     bordercolor="#000000"
     borderopacity="0.25"
     inkscape:showpageshadow="2"
     inkscape:pageopacity="0.0"
     inkscape:pagecheckerboard="0"
     inkscape:deskcolor="#d1d1d1"
     inkscape:zoom="0.56578895"
     inkscape:cx="587.67496"
     inkscape:cy="389.72129"
     inkscape:window-width="1920"
     inkscape:window-height="1048"
     inkscape:window-x="0"
     inkscape:window-y="32"
     inkscape:window-maximized="1"
     inkscape:current-layer="_图层_1" />
  <defs
     id="defs1">
    <style
       id="style1">
      .cls-1 {
        stroke: #e4e6d9;
        stroke-width: 4px;
      }

      .cls-1, .cls-2, .cls-3 {
        fill: none;
        stroke-miterlimit: 10;
      }

      .cls-2 {
        stroke-width: .84px;
      }

      .cls-2, .cls-3 {
        stroke: #000;
      }

      .cls-3 {
        stroke-width: 3.35px;
      }

      .cls-4 {
        fill: #18365d;
      }

      .cls-5 {
        fill: #e4e6d9;
      }

      .cls-6 {
        fill: red;
      }
    </style>
  </defs>
  <rect
     class="cls-4"
     width="1366"
     height="768"
     id="rect1" />
  <g
     id="g5">
    <polyline
       class="cls-1"
       points="966.29 -201.89 795.22 -30.83 .11 764.29"
       id="polyline1" />
    <line
       class="cls-1"
       x1="1367.01"
       y1="701.99"
       x2="714.7"
       y2="49.69"
       id="line1" />
    <line
       class="cls-1"
       x1="1361.55"
       y1="291.45"
       x2="917.25"
       y2="-152.86"
       id="line2" />
    <line
       class="cls-1"
       x1="1028.96"
       y1="769.04"
       x2="512.16"
       y2="252.23"
       id="line3" />
    <line
       class="cls-1"
       x1="626.42"
       y1="771.58"
       x2="309.61"
       y2="454.78"
       id="line4" />
    <line
       class="cls-1"
       x1="220.37"
       y1="770.63"
       x2="107.07"
       y2="657.33"
       id="line5" />
  </g>
  <g
     id="g17"
     style="display:inline">
    <rect
       class="cls-5"
       x="255.25"
       y="253.89"
       width="855.5"
       height="260.22"
       id="rect5"
       style="display:inline" />
    <rect
       class="cls-3"
       x="269.20999"
       y="267.85001"
       width="824.22998"
       height="233.42"
       id="rect6" />
    <rect
       class="cls-2"
       x="285.95999"
       y="279.14001"
       width="794.07001"
       height="210.08"
       id="rect7" />
    <g
       id="g12">
      <path
         d="m 355.29,366.91 c 0,1.39 0.22,2.73 0.66,4.02 0.44,1.28 0.66,2.18 0.66,2.69 0,1.76 -0.92,2.64 -2.75,2.64 -1.17,0 -2.7,-0.28 -4.57,-0.83 -1.87,-0.55 -2.99,-1.04 -3.35,-1.49 -0.37,-0.44 -0.55,-1.03 -0.55,-1.76 0,-1.76 1.41,-3.83 4.23,-6.21 2.82,-2.38 4.51,-3.58 5.06,-3.58 0.55,0 0.83,0.35 0.83,1.04 0,0.69 -0.04,1.3 -0.11,1.82 -0.07,0.51 -0.11,1.06 -0.11,1.65 z m 34.98,5.28 c 0,0.29 0.29,0.62 0.88,0.99 3.3,2.05 5.9,5.19 7.81,9.4 1.91,4.22 2.86,7.98 2.86,11.28 0,2.13 -0.84,3.19 -2.53,3.19 -0.66,0 -1.5,-0.28 -2.53,-0.83 -1.03,-0.55 -5.1,-1.49 -12.21,-2.81 -4.91,-0.95 -8.58,-2.2 -11,-3.74 -0.37,-0.29 -0.77,-0.44 -1.21,-0.44 -0.44,0 -1.23,0.62 -2.37,1.87 -1.14,1.25 -1.92,2.57 -2.36,3.96 -0.44,1.39 -1.12,2.57 -2.04,3.52 -0.92,0.95 -2.88,1.92 -5.89,2.92 -3.01,0.99 -5.3,1.48 -6.88,1.48 -1.58,0 -3.1,-0.24 -4.56,-0.71 -1.47,-0.48 -2.2,-1.01 -2.2,-1.59 0,-0.58 0.77,-1.17 2.31,-1.76 6.89,-2.64 12.04,-5.37 15.45,-8.19 3.41,-2.82 5.12,-4.71 5.12,-5.67 0,-0.22 -0.07,-0.44 -0.22,-0.66 -0.22,-0.37 -0.75,-1.43 -1.59,-3.19 -0.84,-1.76 -1.41,-2.64 -1.71,-2.64 -0.3,0 -0.51,0.18 -0.66,0.55 -1.69,3.96 -3.12,6.42 -4.29,7.37 -1.17,0.95 -2.05,2.16 -2.64,3.63 -0.07,0.29 -0.4,0.44 -0.99,0.44 -0.59,0 -1.71,-0.48 -3.35,-1.43 -1.64,-0.95 -2.48,-1.85 -2.48,-2.7 0,-0.85 0.22,-1.54 0.66,-2.09 0.44,-0.55 2.04,-2.04 4.79,-4.46 2.75,-2.42 4.75,-4.07 5.99,-4.95 0.73,-0.59 0.99,-1.17 0.77,-1.76 -0.66,-1.69 -0.99,-2.9 -0.99,-3.63 0,-0.73 0.26,-1.28 0.77,-1.65 0.51,-0.37 1.03,-0.55 1.54,-0.55 1.54,0 2.6,1.43 3.19,4.29 0.22,0.95 1.1,2.57 2.64,4.84 1.54,2.27 2.64,3.41 3.3,3.41 0.15,0 0.31,-0.06 0.5,-0.17 0.18,-0.11 1.39,-1.54 3.63,-4.29 2.24,-2.75 3.98,-5.08 5.23,-6.99 1.25,-1.91 2.9,-4.62 4.95,-8.14 0.44,-0.73 0.95,-1.19 1.54,-1.38 0.59,-0.18 1.67,-0.28 3.25,-0.28 1.58,0 2.93,0.37 4.07,1.1 1.14,0.73 1.71,1.65 1.71,2.75 0,1.39 -0.62,2.27 -1.87,2.64 -0.95,0.37 -2.26,1.5 -3.91,3.41 -1.65,1.91 -2.48,3.12 -2.48,3.63 z m 21.01,30.03 c 0,0.51 -0.39,1.21 -1.16,2.09 -0.77,0.88 -1.52,2.6 -2.25,5.17 -1.03,3.59 -2.13,6.69 -3.3,9.29 -1.17,2.6 -2.07,4.24 -2.7,4.89 -0.62,0.66 -1.14,0.99 -1.54,0.99 -0.4,0 -1.01,-0.15 -1.81,-0.44 -2.71,-1.03 -5.3,-1.54 -7.75,-1.54 -2.45,0 -6.03,0.44 -10.73,1.32 -4.69,0.88 -7.42,1.61 -8.19,2.2 -0.77,0.59 -1.65,0.88 -2.64,0.88 -0.99,0 -1.67,-0.26 -2.04,-0.77 -1.54,-2.05 -3.21,-4.16 -5,-6.33 -1.8,-2.16 -2.95,-3.81 -3.46,-4.95 -0.51,-1.14 -0.77,-2.69 -0.77,-4.67 0,-1.98 0.46,-3.26 1.38,-3.85 0.92,-0.59 2.66,-0.88 5.23,-0.88 2.57,0 3.85,0.62 3.85,1.87 0,0.81 -0.48,1.67 -1.43,2.58 -0.95,0.92 -1.43,2.15 -1.43,3.69 0,1.54 0.37,2.68 1.1,3.41 0.73,0.73 1.54,1.1 2.42,1.1 0.88,0 1.67,-0.17 2.37,-0.5 0.7,-0.33 1.65,-0.7 2.86,-1.1 1.21,-0.4 1.98,-1.1 2.31,-2.09 0.33,-0.99 0.5,-2.33 0.5,-4.02 0,-1.69 -0.07,-3.45 -0.22,-5.28 -0.15,-1.83 -0.22,-3.21 -0.22,-4.12 0,-0.91 0.15,-1.93 0.44,-3.03 0.29,-1.1 0.57,-1.82 0.82,-2.14 0.26,-0.33 0.73,-0.5 1.43,-0.5 0.7,0 2.15,0.31 4.34,0.93 2.2,0.62 3.43,1.17 3.69,1.65 0.26,0.48 0.39,0.97 0.39,1.48 0,0.51 -0.18,1.21 -0.55,2.09 -0.88,2.13 -1.32,4.84 -1.32,8.14 0,2.2 0.15,3.48 0.44,3.85 0.29,0.37 0.77,0.51 1.43,0.44 0.66,-0.07 1.69,-0.09 3.08,-0.06 1.39,0.04 2.2,0.06 2.42,0.06 0.95,0 1.81,-0.33 2.58,-0.99 0.77,-0.66 1.56,-1.91 2.36,-3.74 0.81,-1.83 1.38,-3.87 1.71,-6.1 0.33,-2.24 0.7,-3.67 1.1,-4.29 0.4,-0.62 1.04,-0.94 1.92,-0.94 0.59,0 2.13,0.48 4.62,1.43 2.49,0.95 3.74,1.87 3.74,2.75 z m -17.05,-52.69 c 2.71,0 5.13,0.26 7.26,0.77 2.13,0.51 4.12,1.47 6,2.86 1.87,1.39 3.57,2.95 5.11,4.67 1.54,1.72 2.86,3.59 3.96,5.61 1.1,2.02 1.65,3.25 1.65,3.69 0,0.81 -1.03,1.48 -3.08,2.03 -2.05,0.55 -3.92,0.83 -5.61,0.83 -1.69,0 -3.56,-0.05 -5.61,-0.17 -2.05,-0.11 -3.15,-0.24 -3.3,-0.38 -0.15,-0.15 -0.22,-0.29 -0.22,-0.44 0,-0.37 0.48,-0.88 1.43,-1.54 3.01,-1.98 4.51,-4.01 4.51,-6.1 0,-2.09 -0.97,-3.94 -2.92,-5.55 -1.94,-1.61 -3.76,-2.42 -5.44,-2.42 -1.68,0 -3.85,0.64 -6.49,1.92 -2.64,1.28 -5.59,2.36 -8.85,3.25 -3.26,0.88 -5.81,1.32 -7.65,1.32 -1.84,0 -4.11,0.37 -6.82,1.1 -2.71,0.73 -4.36,1.28 -4.95,1.65 -0.59,0.37 -1.06,0.55 -1.43,0.55 -0.37,0 -0.73,-0.42 -1.1,-1.26 -0.37,-0.84 -0.55,-1.56 -0.55,-2.14 0,-1.98 2.02,-3.37 6.05,-4.18 5.13,-1.03 10.03,-2.29 14.69,-3.79 4.66,-1.5 9.11,-2.25 13.36,-2.25 z m -12.1,14.63 c 0,0.37 -0.13,0.64 -0.39,0.83 -0.26,0.18 -1.04,1.16 -2.36,2.92 -1.32,1.76 -2.31,3.19 -2.97,4.29 -0.66,1.1 -1.28,1.65 -1.87,1.65 -0.59,0 -1.48,-0.73 -2.69,-2.2 -1.21,-1.47 -1.81,-2.53 -1.81,-3.19 0,-1.25 1.45,-2.47 4.34,-3.68 2.9,-1.21 4.91,-1.82 6.05,-1.82 1.14,0 1.71,0.4 1.71,1.21 z m -6.05,-32.89 c 1.32,0 3.45,1.45 6.38,4.34 2.93,2.9 4.4,5.92 4.4,9.08 0,1.1 -0.17,1.81 -0.5,2.15 -0.33,0.34 -1.01,0.5 -2.04,0.5 -1.03,0 -2.75,-0.28 -5.17,-0.83 -2.42,-0.55 -3.92,-1.06 -4.51,-1.54 -0.59,-0.48 -1.06,-1.47 -1.43,-2.97 -0.37,-1.5 -0.55,-2.9 -0.55,-4.18 0,-1.28 0.37,-2.69 1.1,-4.23 0.73,-1.54 1.5,-2.31 2.31,-2.31 z m 17.6,52.91 c 0,-2.79 -0.73,-4.91 -2.2,-6.38 -1.47,-1.47 -2.57,-2.2 -3.3,-2.2 -0.29,0 -0.7,0.26 -1.21,0.77 -1.98,2.2 -4.62,4.62 -7.92,7.26 -0.37,0.37 -0.55,0.71 -0.55,1.04 0,0.33 0.77,0.81 2.31,1.43 1.54,0.62 3.67,0.93 6.38,0.93 2.71,0 4.47,-0.2 5.28,-0.6 0.81,-0.4 1.21,-1.16 1.21,-2.25 z m 19.25,-3.74 c 0,2.13 -0.39,4.12 -1.15,6 -0.77,1.87 -1.49,2.8 -2.15,2.8 -0.66,0 -1.43,-0.66 -2.31,-1.98 -1.61,-2.49 -4.14,-5.46 -7.59,-8.91 -0.95,-0.95 -1.43,-1.91 -1.43,-2.86 0,-0.95 0.48,-1.43 1.43,-1.43 0.66,0 2.53,0.48 5.61,1.43 3.08,0.95 5.11,1.74 6.1,2.37 0.99,0.62 1.48,1.49 1.48,2.58 z"
         id="path7" />
      <path
         d="m 485.86,352.83 c 0,1.61 -0.17,2.99 -0.5,4.12 -0.33,1.14 -1.23,2.07 -2.7,2.81 -3.3,1.76 -5.32,3.23 -6.05,4.4 -1.83,2.71 -3.96,5.5 -6.38,8.36 -0.29,0.37 -0.44,0.73 -0.44,1.1 0,0.95 0.77,1.43 2.31,1.43 0.44,0 1.19,-0.15 2.25,-0.44 1.06,-0.29 2.33,-0.44 3.79,-0.44 1.46,0 3.23,0.46 5.28,1.38 2.05,0.92 3.08,1.89 3.08,2.92 0,1.03 -0.37,1.94 -1.1,2.75 -2.13,2.2 -3.67,5.79 -4.62,10.78 -0.22,1.61 -1.25,2.6 -3.08,2.97 -3.52,0.81 -6.53,2.05 -9.02,3.74 -0.66,0.37 -1.28,0.55 -1.87,0.55 -0.59,0 -1.36,-0.82 -2.31,-2.47 -0.95,-1.65 -2.35,-4.82 -4.18,-9.51 -0.22,-0.59 -0.55,-0.88 -0.99,-0.88 -0.44,0 -1.03,0.37 -1.76,1.1 -1.39,1.69 -2.46,2.84 -3.19,3.46 -0.73,0.62 -1.69,0.94 -2.86,0.94 -2.27,0 -3.41,-0.44 -3.41,-1.32 0,-0.88 0.66,-1.91 1.98,-3.08 5.87,-5.06 10.06,-9.7 12.59,-13.92 2.53,-4.22 3.79,-6.73 3.79,-7.54 0,-0.81 -0.46,-1.25 -1.38,-1.32 -0.92,-0.07 -1.58,-0.33 -1.98,-0.77 -0.4,-0.44 -0.99,-1.65 -1.76,-3.63 -0.77,-1.98 -1.16,-3.37 -1.16,-4.18 0,-0.81 0.33,-1.47 0.99,-1.98 0.66,-0.51 1.81,-0.81 3.46,-0.88 1.65,-0.07 3.1,-0.33 4.35,-0.77 4.03,-1.25 8.76,-1.87 14.19,-1.87 1.76,0 2.64,0.73 2.64,2.2 z m -10.89,29.26 c 0,-1.91 -0.88,-2.86 -2.64,-2.86 -2.79,0 -4.18,2.16 -4.18,6.49 0,2.35 0.48,3.52 1.43,3.52 0.95,0 2.09,-0.9 3.41,-2.7 1.32,-1.8 1.98,-3.28 1.98,-4.45 z m 46.09,11 c 0,0.95 -0.15,1.61 -0.44,1.98 -0.29,0.37 -0.77,0.55 -1.43,0.55 -0.66,0 -1.23,-0.04 -1.7,-0.11 -0.48,-0.07 -1.05,-0.11 -1.71,-0.11 -3.37,0 -6.97,0.7 -10.78,2.09 -1.47,0.51 -2.68,0.77 -3.63,0.77 l -2.53,-0.22 c -0.95,0 -2.71,0.29 -5.28,0.88 -2.57,0.59 -4.14,0.88 -4.73,0.88 -1.32,0 -2.11,-0.79 -2.36,-2.37 -0.26,-1.58 -0.39,-2.7 -0.39,-3.36 0,-0.66 0.22,-1.08 0.66,-1.26 0.44,-0.18 0.84,-0.26 1.21,-0.22 0.37,0.04 0.62,0.05 0.77,0.05 2.13,0 4.99,-0.73 8.58,-2.2 1.61,-0.66 4.62,-1.3 9.02,-1.92 4.4,-0.62 7.53,-0.93 9.4,-0.93 1.87,0 3.23,0.53 4.07,1.59 0.84,1.06 1.27,2.37 1.27,3.91 z m 19.47,-11.55 c 0,1.03 -0.51,2.51 -1.54,4.46 -1.03,1.94 -1.72,4.09 -2.09,6.44 -0.95,5.72 -4.22,13.02 -9.79,21.89 -1.98,3.3 -3.01,5.52 -3.08,6.66 -0.07,1.14 -0.59,1.71 -1.54,1.71 -0.95,0 -4.16,-0.95 -9.62,-2.86 -5.46,-1.91 -9.09,-3.92 -10.89,-6.05 -1.8,-2.13 -2.69,-3.43 -2.69,-3.91 0,-0.48 0.4,-0.64 1.21,-0.5 4.25,0.81 7.77,1.21 10.56,1.21 2.79,0 5,-0.35 6.65,-1.04 1.65,-0.7 3.37,-2.47 5.17,-5.33 1.8,-2.86 3.21,-6.21 4.24,-10.06 1.03,-3.85 1.54,-6.62 1.54,-8.31 0,-2.35 -0.97,-4.22 -2.92,-5.61 -1.94,-1.39 -5.21,-2.09 -9.79,-2.09 -4.58,0 -9.24,0.75 -13.97,2.25 -4.73,1.5 -7.41,2.44 -8.03,2.8 -0.62,0.37 -1.19,0.55 -1.71,0.55 -1.03,0 -1.54,-1.03 -1.54,-3.08 0,-0.88 0.5,-2.07 1.48,-3.58 0.99,-1.5 2.04,-4.2 3.14,-8.08 1.1,-3.89 1.8,-7.44 2.09,-10.67 0.15,-1.83 0.75,-2.75 1.81,-2.75 1.06,0 2.22,0.2 3.46,0.61 1.25,0.4 1.87,0.95 1.87,1.65 0,0.7 -0.18,1.3 -0.55,1.82 -0.59,1.17 -0.95,2.79 -1.1,4.84 -0.07,0.73 -0.29,2 -0.66,3.79 -0.37,1.8 -0.64,3.03 -0.82,3.69 -0.18,0.66 -0.27,1.14 -0.27,1.43 0,1.1 0.7,1.65 2.09,1.65 0.88,0 1.52,-0.2 1.92,-0.61 0.4,-0.4 1.14,-1.94 2.2,-4.62 1.06,-2.68 1.96,-5.57 2.69,-8.69 0.73,-3.12 1.1,-5.78 1.1,-7.98 0,-3.37 -1.39,-5.06 -4.18,-5.06 -1.54,0 -3.37,0.7 -5.5,2.09 -2.13,1.39 -3.37,2.37 -3.74,2.92 -0.37,0.55 -0.86,0.83 -1.48,0.83 -0.62,0 -1.39,-0.79 -2.31,-2.37 -0.92,-1.58 -1.38,-2.77 -1.38,-3.58 0,-1.54 1.58,-2.46 4.73,-2.75 3.67,-0.22 6.6,-0.73 8.8,-1.54 2.2,-0.81 4.73,-1.21 7.59,-1.21 2.86,0 5.23,0.51 7.1,1.54 1.87,1.03 2.81,1.85 2.81,2.48 0,0.63 -0.39,1.38 -1.16,2.25 -0.77,0.88 -1.52,2.31 -2.25,4.29 -0.73,1.98 -1.83,5.7 -3.3,11.17 -1.47,5.46 -2.2,8.38 -2.2,8.74 0,0.95 0.84,1.47 2.53,1.54 3.81,0.15 7.41,0.51 10.78,1.1 3.37,0.59 6.09,1.28 8.14,2.09 2.05,0.81 3.3,1.49 3.74,2.04 0.44,0.55 0.66,1.16 0.66,1.81 z"
         id="path8" />
      <path
         d="m 585.96,394.41 c 0,0.66 -0.62,2.9 -1.87,6.71 -1.25,3.81 -2.62,6.51 -4.12,8.08 -1.5,1.58 -2.82,3.15 -3.96,4.73 -1.14,1.58 -2.24,2.37 -3.3,2.37 -1.06,0 -1.71,-0.62 -1.92,-1.87 -0.07,-0.51 -0.39,-1.98 -0.94,-4.4 -0.55,-2.42 -0.83,-4.31 -0.83,-5.67 0,-1.36 0.17,-3.85 0.5,-7.48 0.33,-3.63 0.5,-5.78 0.5,-6.44 0,-3.45 -0.92,-5.17 -2.75,-5.17 -0.73,0 -2.22,0.22 -4.46,0.66 -2.24,0.44 -3.7,1.1 -4.4,1.98 -0.7,0.88 -1.34,1.32 -1.93,1.32 -0.59,0 -1.34,-1.16 -2.25,-3.46 -0.92,-2.31 -1.38,-3.87 -1.38,-4.67 0,-0.8 0.48,-1.27 1.43,-1.38 0.95,-0.11 1.69,-0.31 2.2,-0.61 1.91,-0.73 3.78,-1.1 5.61,-1.1 1.83,0 4.51,-0.73 8.03,-2.2 3.52,-1.47 5.65,-2.6 6.38,-3.41 0.73,-0.81 1.39,-1.21 1.98,-1.21 0.59,0 1.56,0.64 2.92,1.92 1.36,1.28 2.04,2.64 2.04,4.07 0,1.43 -0.46,2.46 -1.38,3.08 -0.92,0.62 -1.61,1.56 -2.09,2.8 -0.48,1.25 -1.17,3.78 -2.09,7.59 -0.92,3.81 -1.38,6.11 -1.38,6.88 0,0.77 0.31,1.16 0.94,1.16 0.63,0 1.56,-0.37 2.81,-1.1 1.25,-0.73 2.36,-1.56 3.35,-2.48 0.99,-0.92 1.63,-1.38 1.92,-1.38 0.29,0 0.44,0.22 0.44,0.66 z m -7.48,-52.58 c 0.81,0 1.45,0.51 1.93,1.54 0.48,1.03 0.97,1.8 1.48,2.31 1.47,1.47 2.75,3.26 3.85,5.39 1.1,2.13 1.65,3.58 1.65,4.34 0,0.76 -0.38,1.69 -1.15,2.75 -0.77,1.06 -1.61,1.6 -2.53,1.6 -0.92,0 -2.2,-0.46 -3.85,-1.38 -1.65,-0.92 -3.17,-1.56 -4.56,-1.93 -1.61,-0.44 -2.42,-1.5 -2.42,-3.19 0,-2.64 0.64,-5.21 1.92,-7.7 1.28,-2.49 2.51,-3.74 3.69,-3.74 z m 39.6,56.87 c 0,0.44 0.15,0.77 0.44,0.99 l 4.84,3.41 c 2.79,2.13 5.79,3.85 9.02,5.17 3.23,1.32 6.23,2.31 9.02,2.97 2.79,0.66 5.77,1.67 8.96,3.03 3.19,1.36 4.79,2.51 4.79,3.46 0,0.95 -1.89,1.65 -5.67,2.09 -3.78,0.44 -6.62,0.66 -8.53,0.66 -1.91,0 -4.07,-0.15 -6.49,-0.44 -2.42,-0.29 -4.05,-0.44 -4.9,-0.44 -0.85,0 -1.54,-0.29 -2.09,-0.88 -0.55,-0.59 -0.99,-1.71 -1.32,-3.36 -0.33,-1.65 -1.38,-3.32 -3.13,-5 -1.76,-1.69 -3.59,-2.86 -5.5,-3.52 -1.91,-0.66 -3.08,-1.12 -3.52,-1.38 -0.44,-0.26 -0.81,-0.39 -1.1,-0.39 -0.29,0 -0.73,0.29 -1.32,0.88 -6.23,5.94 -11.66,8.91 -16.28,8.91 -1.54,0 -3.61,-0.44 -6.21,-1.32 -2.6,-0.88 -3.91,-1.58 -3.91,-2.09 0,-0.51 0.44,-0.88 1.32,-1.1 6.31,-1.54 11.2,-3.34 14.69,-5.39 3.48,-2.05 5.22,-3.41 5.22,-4.07 0,-0.29 -0.48,-0.81 -1.43,-1.54 -0.95,-0.73 -2.09,-1.82 -3.41,-3.25 -1.32,-1.43 -2.49,-2.44 -3.52,-3.02 -1.03,-0.59 -1.92,-0.95 -2.69,-1.1 -0.77,-0.15 -1.45,-0.53 -2.04,-1.16 -0.59,-0.62 -0.88,-1.83 -0.88,-3.63 0,-1.8 0.33,-3.13 0.99,-4.01 0.66,-0.88 1.25,-1.32 1.76,-1.32 0.51,0 0.94,0.13 1.27,0.39 0.33,0.26 0.64,0.38 0.94,0.38 0.3,0 0.62,-0.15 0.99,-0.44 1.61,-1.39 3.3,-2.24 5.06,-2.53 1.76,-0.29 4.58,-1.03 8.47,-2.2 0.81,-0.22 1.94,-0.33 3.41,-0.33 1.47,0 3.69,0.64 6.66,1.92 2.97,1.28 4.45,2.33 4.45,3.13 0,0.37 -0.35,0.84 -1.04,1.43 -0.7,0.59 -1.23,1.23 -1.59,1.92 -0.37,0.7 -0.83,2.05 -1.38,4.07 -0.55,2.02 -1.81,4.6 -3.79,7.76 -0.37,0.59 -0.55,1.03 -0.55,1.32 z m 14.41,-27.61 c 0,1.61 -0.7,2.95 -2.09,4.01 -1.39,1.06 -3.15,1.59 -5.28,1.59 -3.37,0 -5.98,-1.16 -7.81,-3.46 -1.83,-2.31 -2.75,-5.81 -2.75,-10.5 0,-2.57 0.15,-5 0.44,-7.32 0.29,-2.31 0.44,-3.72 0.44,-4.23 0,-2.57 -0.81,-3.85 -2.42,-3.85 -0.66,0 -1.48,0.24 -2.48,0.71 -0.99,0.48 -1.92,1.1 -2.8,1.87 -0.88,0.77 -1.5,1.5 -1.87,2.2 -0.37,0.7 -0.55,1.34 -0.55,1.92 v 1.65 l -0.11,5.83 c 0,1.98 0.24,3.5 0.72,4.56 0.48,1.06 0.71,1.94 0.71,2.64 0,0.7 -0.33,1.39 -0.99,2.09 -0.66,0.7 -1.85,1.76 -3.58,3.19 -1.72,1.43 -3.67,2.4 -5.83,2.91 -2.16,0.51 -3.56,0.77 -4.18,0.77 -0.62,0 -0.93,-0.15 -0.93,-0.44 0,-0.29 0.37,-0.88 1.1,-1.76 4.25,-5.28 6.38,-11.51 6.38,-18.7 0,-1.83 -0.09,-3.35 -0.28,-4.56 -0.18,-1.21 -0.27,-2.07 -0.27,-2.58 0,-2.35 1.61,-3.92 4.84,-4.73 4.91,-1.17 8.36,-2.11 10.34,-2.8 1.98,-0.7 3.67,-1.04 5.06,-1.04 1.39,0 3.12,0.42 5.17,1.26 2.05,0.84 3.08,1.74 3.08,2.7 0,0.59 -0.4,1.28 -1.21,2.09 -0.81,0.81 -1.61,2.57 -2.42,5.28 -0.81,2.71 -1.21,5.28 -1.21,7.7 0,2.42 0.51,4.31 1.54,5.67 1.03,1.36 3.12,2.18 6.27,2.47 1.98,0.22 2.97,1.17 2.97,2.86 z m -21.01,23.21 c 0.51,0 1.17,-1.19 1.98,-3.58 0.81,-2.38 1.21,-4.2 1.21,-5.45 0,-2.13 -1.14,-3.19 -3.41,-3.19 -1.39,0 -3.37,0.59 -5.94,1.76 -2.57,1.17 -3.85,2.02 -3.85,2.53 0,0.22 0.7,0.84 2.09,1.87 l 4.73,3.85 c 1.83,1.47 2.9,2.2 3.19,2.2 z"
         id="path9" />
      <path
         d="m 705.42,388.69 c 0,2.64 -0.77,5.5 -2.31,8.58 -1.54,3.08 -3.79,6.58 -6.77,10.5 -2.97,3.92 -4.73,6.18 -5.28,6.76 -0.55,0.59 -1.23,0.88 -2.04,0.88 -0.81,0 -1.49,-0.57 -2.04,-1.7 -0.55,-1.14 -1.3,-2.88 -2.25,-5.23 -0.95,-2.35 -1.43,-4.84 -1.43,-7.48 0,-2.64 0.17,-5.74 0.5,-9.29 0.33,-3.56 0.49,-5.92 0.49,-7.1 0,-3.15 -0.62,-4.73 -1.87,-4.73 -0.51,0 -1.63,0.4 -3.35,1.21 -1.72,0.81 -3.06,1.59 -4.02,2.37 -0.95,0.77 -1.71,1.15 -2.25,1.15 -0.54,0 -1.01,-0.44 -1.38,-1.32 -0.73,-1.91 -2.02,-3.85 -3.85,-5.83 -0.66,-0.73 -0.99,-1.47 -0.99,-2.2 0,-1.1 0.55,-1.65 1.65,-1.65 2.2,0 5.92,-0.93 11.17,-2.8 5.24,-1.87 8.47,-3.15 9.68,-3.85 1.21,-0.7 1.96,-1.05 2.25,-1.05 0.88,0 2.18,1.17 3.91,3.52 1.72,2.35 2.58,4.03 2.58,5.06 0,0.73 -0.59,1.43 -1.76,2.09 -1.17,0.66 -2.16,1.61 -2.97,2.86 -0.81,1.25 -1.43,3.19 -1.87,5.83 -0.44,2.64 -0.66,6.12 -0.66,10.45 0,2.93 0.7,4.4 2.09,4.4 1.1,0 2.58,-0.92 4.46,-2.75 1.88,-1.83 3.56,-3.96 5.06,-6.38 1.5,-2.42 2.42,-3.63 2.75,-3.63 0.33,0 0.5,0.44 0.5,1.32 z m -1.65,-33.88 c 0,1.39 -0.72,2.09 -2.15,2.09 -1.43,0 -3.06,-0.28 -4.89,-0.83 -1.83,-0.55 -3.36,-0.93 -4.57,-1.16 -1.21,-0.22 -2.04,-0.59 -2.47,-1.1 -0.44,-0.51 -0.66,-1.32 -0.66,-2.42 0,-2.42 0.44,-4.97 1.32,-7.65 0.88,-2.68 1.8,-4.02 2.75,-4.02 0.66,0 1.3,0.72 1.92,2.15 0.62,1.43 2.11,3.25 4.46,5.45 2.86,2.79 4.29,5.28 4.29,7.48 z m 46.64,8.14 c 0.73,0 1.43,0.59 2.09,1.76 1.17,2.2 1.98,3.59 2.42,4.18 1.03,1.47 1.54,3.15 1.54,5.06 0,0.73 -0.31,1.1 -0.93,1.1 -0.62,0 -1.5,-0.11 -2.64,-0.33 -1.14,-0.22 -2.95,-0.33 -5.44,-0.33 -3.74,0 -6.82,0.26 -9.24,0.77 -0.66,0.15 -1.12,0.37 -1.38,0.66 -0.26,0.29 -0.42,0.7 -0.5,1.21 l -0.66,14.96 c -0.22,4.84 -0.44,8.69 -0.66,11.55 -0.22,2.86 -0.33,5.54 -0.33,8.03 0,6.67 0.15,10.52 0.44,11.55 0.29,1.03 0.44,1.82 0.44,2.37 0,0.55 -0.33,0.93 -0.99,1.16 -0.66,0.22 -1.74,0.33 -3.25,0.33 -1.51,0 -2.49,-0.11 -2.97,-0.33 -0.48,-0.22 -0.71,-0.59 -0.71,-1.1 0,-0.51 0.11,-1.28 0.33,-2.31 0.22,-1.03 0.39,-2.31 0.5,-3.85 0.11,-1.54 0.17,-6.07 0.17,-13.59 0,-7.52 -0.26,-13.66 -0.77,-18.42 -0.51,-4.77 -0.77,-7.39 -0.77,-7.86 0,-0.47 -0.37,-0.72 -1.1,-0.72 -0.73,0 -1.65,-0.07 -2.75,-0.22 -1.1,-0.15 -2.2,-0.22 -3.3,-0.22 -4.62,0 -8.1,0.95 -10.45,2.86 -0.51,0.44 -1.06,0.66 -1.65,0.66 -0.59,0 -1.06,-0.55 -1.43,-1.65 -0.51,-1.54 -1.28,-3.01 -2.31,-4.4 -1.03,-1.39 -1.54,-2.27 -1.54,-2.64 0,-0.66 0.51,-0.99 1.54,-0.99 1.03,0 3.65,-0.37 7.86,-1.1 4.22,-0.73 6.93,-1.27 8.14,-1.6 1.21,-0.33 2.58,-0.7 4.12,-1.1 1.54,-0.4 2.36,-0.79 2.47,-1.16 0.11,-0.37 0.17,-2.75 0.17,-7.15 0,-5.21 0.11,-9.42 0.33,-12.65 0.22,-3.23 0.28,-5.12 0.17,-5.67 -0.11,-0.55 -0.17,-0.97 -0.17,-1.27 0,-1.1 0.66,-1.65 1.98,-1.65 1.32,0 3.34,0.39 6.05,1.16 2.71,0.77 4.07,1.56 4.07,2.36 0,0.37 -0.35,1.03 -1.04,1.98 -0.7,0.95 -1.04,2.64 -1.04,5.06 0,4.11 -0.04,7.11 -0.11,9.02 l -0.11,5.28 c 0,0.95 0.29,1.43 0.88,1.43 l 6.27,-0.77 c 2.13,-0.29 3.61,-0.61 4.45,-0.94 0.84,-0.33 1.45,-0.5 1.82,-0.5 z"
         id="path10" />
      <path
         d="m 831.26,375.05 c 0,0.95 0.09,1.59 0.28,1.92 0.18,0.33 0.57,0.5 1.16,0.5 0.59,0 2.6,-0.22 6.05,-0.66 6.6,-1.1 11.92,-1.65 15.95,-1.65 2.42,0 4.01,0.97 4.79,2.92 0.77,1.94 1.15,3.28 1.15,4.02 0,1.69 -0.95,2.53 -2.86,2.53 -0.73,0 -1.91,-0.22 -3.52,-0.66 -1.61,-0.44 -3.04,-0.73 -4.29,-0.88 -1.25,-0.15 -3.7,-0.22 -7.37,-0.22 -3.67,0 -6.29,0.07 -7.86,0.22 -1.58,0.15 -2.49,0.31 -2.75,0.5 -0.26,0.18 -0.39,0.55 -0.39,1.1 0,0.55 0.07,1.47 0.22,2.75 0.15,1.28 0.22,2.6 0.22,3.96 0,1.36 -0.13,2.88 -0.38,4.56 -0.26,1.69 -0.39,3.28 -0.39,4.79 0,1.51 0.09,2.79 0.28,3.85 0.18,1.06 0.28,1.94 0.28,2.64 0,0.7 -0.17,1.91 -0.5,3.63 -0.33,1.72 -0.5,3.68 -0.5,5.88 0,2.2 -0.15,3.89 -0.44,5.06 -0.29,1.17 -0.53,1.98 -0.71,2.42 -0.18,0.44 -1.04,0.66 -2.58,0.66 -1.54,0 -3.28,-0.4 -5.22,-1.21 -1.94,-0.81 -4.29,-1.38 -7.04,-1.7 -2.75,-0.33 -5.54,-1.58 -8.36,-3.74 -2.82,-2.16 -4.24,-3.69 -4.24,-4.57 0,-0.44 0.29,-0.66 0.88,-0.66 0.59,0 1.14,0.04 1.65,0.11 5.21,1.03 8.98,1.54 11.33,1.54 3.52,0 5.65,-0.93 6.38,-2.8 0.73,-1.87 1.1,-7.72 1.1,-17.54 0,-3.96 -0.06,-6.36 -0.17,-7.21 -0.11,-0.84 -0.37,-1.27 -0.77,-1.27 -0.4,0 -1.28,0.2 -2.64,0.61 -1.36,0.4 -3.39,0.73 -6.11,0.99 -2.71,0.26 -5.06,0.84 -7.04,1.76 -1.98,0.92 -4,1.59 -6.05,2.04 -3.15,0.66 -5.67,1.61 -7.54,2.86 -1.87,1.25 -3.19,1.87 -3.96,1.87 -0.77,0 -1.61,-0.68 -2.53,-2.04 -0.92,-1.36 -1.76,-2.53 -2.53,-3.52 -0.77,-0.99 -1.16,-1.67 -1.16,-2.04 0,-1.03 1.04,-1.69 3.13,-1.98 2.09,-0.29 3.54,-0.55 4.35,-0.77 4.4,-1.25 9,-2.13 13.8,-2.64 4.8,-0.51 8.12,-1.14 9.96,-1.87 1.54,-0.59 3.19,-1.1 4.95,-1.54 1.76,-0.44 2.77,-0.77 3.02,-0.99 0.26,-0.22 0.38,-0.62 0.38,-1.21 0,-0.59 -0.07,-1.5 -0.22,-2.75 -0.15,-1.25 -0.29,-2.05 -0.44,-2.42 -0.15,-0.37 -0.39,-0.55 -0.72,-0.55 -0.33,0 -0.75,0.04 -1.26,0.11 -1.83,0.37 -4.69,0.73 -8.58,1.1 -2.13,0.29 -3.58,0.7 -4.34,1.21 -0.77,0.51 -1.49,0.77 -2.15,0.77 -0.66,0 -1.61,-1.19 -2.86,-3.57 -1.25,-2.38 -1.87,-3.92 -1.87,-4.62 0,-0.7 0.79,-1.16 2.37,-1.38 1.58,-0.22 4.69,-0.88 9.35,-1.98 4.66,-1.1 7.26,-1.74 7.81,-1.92 0.55,-0.18 0.82,-0.57 0.82,-1.16 0,-0.95 -0.26,-2.35 -0.77,-4.18 -0.15,-0.44 -0.22,-0.86 -0.22,-1.26 0,-0.4 0.31,-0.61 0.93,-0.61 0.62,0 1.98,0.31 4.07,0.93 2.09,0.62 3.67,1.3 4.73,2.04 1.06,0.73 1.82,1.1 2.25,1.1 0.43,0 0.88,-0.11 1.32,-0.33 3.01,-1.17 5.26,-1.76 6.76,-1.76 1.5,0 2.62,0.84 3.36,2.53 0.73,1.69 1.1,2.86 1.1,3.52 0,0.66 -0.13,1.14 -0.38,1.43 -0.26,0.29 -1.25,0.75 -2.97,1.38 -1.72,0.62 -3.03,1.03 -3.91,1.21 -0.88,0.18 -1.92,0.5 -3.13,0.94 -1.21,0.44 -1.92,0.77 -2.15,0.99 -0.22,0.22 -0.33,0.81 -0.33,1.76 v 5.17 z m 6.82,-38.83 c 0.59,0 1.04,0.18 1.38,0.55 0.33,0.37 0.77,1.5 1.32,3.41 0.55,1.91 0.83,3.19 0.83,3.85 0,0.66 -0.15,1.14 -0.44,1.43 -0.29,0.29 -1.03,0.48 -2.2,0.55 -3.89,0.22 -8.42,0.72 -13.58,1.49 -5.16,0.77 -8.12,1.39 -8.85,1.87 -0.73,0.48 -1.36,1.38 -1.87,2.7 -0.51,1.32 -1.21,2.24 -2.09,2.75 -0.88,0.51 -2.81,1.08 -5.78,1.71 -2.97,0.62 -5.67,0.93 -8.08,0.93 -2.41,0 -3.63,-0.17 -3.63,-0.5 0,-0.33 0.17,-0.64 0.5,-0.93 0.33,-0.29 1.76,-1.38 4.29,-3.25 2.53,-1.87 4.49,-3.21 5.88,-4.02 1.39,-0.81 3.28,-1.69 5.67,-2.64 2.38,-0.95 4.46,-2.02 6.21,-3.19 1.76,-1.17 3.61,-2.15 5.55,-2.91 1.94,-0.77 4.77,-1.6 8.47,-2.48 3.7,-0.88 5.85,-1.32 6.43,-1.32 z"
         id="path11" />
      <path
         d="m 976.9,379.67 c 0,1.32 -0.11,2.15 -0.33,2.48 -0.22,0.33 -0.59,0.5 -1.1,0.5 -0.51,0 -1.36,-0.33 -2.53,-0.99 -1.17,-0.66 -3.14,-1.21 -5.89,-1.65 -2.75,-0.44 -4.66,-0.66 -5.72,-0.66 -1.06,0 -1.69,0.02 -1.87,0.05 -0.18,0.04 -0.33,0.13 -0.44,0.27 -0.11,0.15 -0.17,0.95 -0.17,2.42 l -0.11,6.27 -0.11,7.92 -0.22,7.04 c 0,1.1 0.18,3.08 0.55,5.94 0.37,2.86 0.55,5.44 0.55,7.75 0,2.31 -0.51,3.46 -1.54,3.46 -0.59,0 -1.61,-0.46 -3.08,-1.38 -1.47,-0.92 -3.34,-1.96 -5.61,-3.13 -2.49,-1.1 -4.56,-2.42 -6.21,-3.96 -1.65,-1.54 -3.32,-3.56 -5,-6.05 -0.15,-0.29 -0.33,-0.44 -0.55,-0.44 -0.22,0 -0.44,0.15 -0.66,0.44 -2.71,3.74 -5.1,6.36 -7.15,7.87 -2.05,1.5 -3.74,2.25 -5.06,2.25 -0.37,0 -0.55,-0.11 -0.55,-0.33 0,-0.44 0.68,-1.47 2.03,-3.08 1.36,-1.61 2.04,-2.57 2.04,-2.86 0,-0.29 -0.33,-0.51 -0.99,-0.66 -5.06,-0.95 -8.71,-2.29 -10.94,-4.01 -2.24,-1.72 -3.36,-3.17 -3.36,-4.35 0,-0.66 0.33,-0.99 0.99,-0.99 0.66,0 1.36,0.18 2.09,0.55 0.73,0.37 1.74,0.55 3.03,0.55 1.29,0 2.16,-0.26 2.64,-0.77 0.48,-0.51 0.71,-1.76 0.71,-3.74 l -0.22,-12.98 c 0,-0.59 -0.2,-0.88 -0.6,-0.88 -0.4,0 -1.94,0.24 -4.62,0.71 -2.68,0.48 -4.14,0.83 -4.4,1.04 -0.26,0.22 -0.5,0.84 -0.71,1.87 l -1.32,4.84 c -0.51,2.13 -0.77,3.74 -0.77,4.84 0,1.1 0.09,1.91 0.27,2.42 0.18,0.51 0.28,0.95 0.28,1.32 0,1.39 -1.39,3.46 -4.18,6.21 -2.79,2.75 -5.32,4.75 -7.59,6 -2.27,1.25 -4.03,1.87 -5.28,1.87 -0.44,0 -0.66,-0.17 -0.66,-0.5 0,-0.33 0.48,-1.19 1.43,-2.58 3.37,-4.55 5.85,-8.05 7.42,-10.5 1.58,-2.46 2.86,-5.12 3.85,-7.97 0.99,-2.86 1.48,-4.91 1.48,-6.16 0,-0.37 -0.29,-0.48 -0.88,-0.33 -3.67,0.95 -7.04,1.47 -10.12,1.54 -3.08,0.07 -5.54,0.62 -7.37,1.65 -1.25,0.66 -2.35,0.99 -3.3,0.99 -0.95,0 -1.81,-0.97 -2.58,-2.92 -0.77,-1.94 -1.15,-3.24 -1.15,-3.9 0,-0.66 0.37,-0.95 1.1,-0.88 0.73,0.07 1.28,0.11 1.65,0.11 3.23,0 7.59,-0.53 13.09,-1.59 5.5,-1.06 8.62,-1.74 9.35,-2.04 0.73,-0.29 1.17,-0.55 1.32,-0.77 0.15,-0.22 0.46,-2.9 0.93,-8.03 0.48,-5.13 0.71,-10.12 0.71,-14.96 0,-1.32 0.17,-2.18 0.5,-2.58 0.33,-0.4 1.56,-1.06 3.69,-1.98 2.13,-0.92 4.42,-1.58 6.88,-1.98 2.46,-0.4 4.38,-0.61 5.77,-0.61 1.39,0 3.06,0.26 5,0.77 1.94,0.51 2.92,1.28 2.92,2.31 0,0.51 -0.22,1.03 -0.66,1.54 -1.25,1.39 -2.15,4.4 -2.7,9.02 -0.55,4.62 -0.83,8.36 -0.83,11.22 0,0.51 0.18,0.77 0.55,0.77 l 3.96,-0.55 c 1.47,-0.29 2.27,-0.5 2.42,-0.6 0.15,-0.11 0.26,-0.97 0.33,-2.58 0.07,-1.61 0.11,-3.7 0.11,-6.27 0,-2.57 0.11,-5.04 0.33,-7.42 0.22,-2.38 0.33,-4.27 0.33,-5.67 0,-0.51 0.48,-1.06 1.43,-1.65 0.95,-0.59 2,-0.88 3.13,-0.88 1.13,0 2.46,-0.44 3.96,-1.32 1.5,-0.88 3.26,-1.32 5.28,-1.32 2.02,0 3.76,0.18 5.23,0.55 1.47,0.37 2.42,0.7 2.86,0.99 0.44,0.29 0.66,0.68 0.66,1.15 0,0.47 -0.2,1.06 -0.6,1.76 -0.4,0.7 -0.7,2.47 -0.88,5.33 -0.18,2.86 -0.27,7.81 -0.27,14.85 0,0.51 0.17,0.83 0.5,0.94 0.33,0.11 1.61,0.17 3.85,0.17 2.24,0 3.98,-0.18 5.22,-0.55 1.25,-0.37 2.35,-0.55 3.3,-0.55 0.95,0 1.65,0.35 2.09,1.04 0.44,0.7 1.06,1.89 1.87,3.58 0.81,1.69 1.21,3.48 1.21,5.39 z m -62.15,-3.3 c 0.07,0 0.22,-0.04 0.44,-0.11 0.95,-0.29 2.31,-0.61 4.07,-0.94 1.76,-0.33 2.68,-0.57 2.75,-0.71 0.07,-0.15 0.18,-2.02 0.33,-5.61 l 0.55,-11 c 0,-2.64 -0.66,-3.96 -1.98,-3.96 -0.95,0 -1.89,0.44 -2.8,1.32 -0.92,0.88 -1.45,2.7 -1.6,5.45 -0.15,2.75 -0.48,5.52 -0.99,8.3 l -1.21,6.82 c 0,0.29 0.15,0.44 0.44,0.44 z m 15.51,28.82 c 0.15,0 0.29,-0.09 0.44,-0.28 0.15,-0.18 0.53,-1.12 1.16,-2.8 0.62,-1.69 1.26,-3.78 1.92,-6.27 0.66,-2.49 1.26,-5.33 1.81,-8.53 0.55,-3.19 0.83,-5.1 0.83,-5.72 0,-0.62 -0.17,-0.94 -0.5,-0.94 -0.33,0 -1.32,0.09 -2.97,0.28 -1.65,0.18 -2.57,0.37 -2.75,0.55 -0.18,0.18 -0.28,1.12 -0.28,2.8 0,1.68 -0.15,3.41 -0.44,5.17 -0.29,1.76 -0.44,3.54 -0.44,5.33 0,1.79 0.15,3.87 0.44,6.22 0.29,2.35 0.46,3.63 0.5,3.85 0.04,0.22 0.13,0.33 0.27,0.33 z m 21.56,-1.65 c 0,-2.93 -0.28,-7.57 -0.83,-13.92 -0.55,-6.34 -0.86,-9.62 -0.93,-9.84 -0.07,-0.22 -0.33,-0.33 -0.77,-0.33 l -4.07,0.22 c -1.17,0.07 -1.85,0.18 -2.03,0.33 -0.18,0.15 -0.28,0.37 -0.28,0.66 -0.29,3.52 -1.17,8.36 -2.64,14.52 -0.44,1.83 -0.66,4.25 -0.66,7.26 0,0.81 0.22,1.41 0.66,1.82 0.44,0.4 1.67,0.97 3.68,1.7 2.02,0.73 3.67,1.1 4.95,1.1 1.28,0 2.09,-0.28 2.42,-0.83 0.33,-0.55 0.5,-1.45 0.5,-2.7 z m -7.81,-32.12 c 0.15,0 0.84,-0.07 2.09,-0.22 1.25,-0.15 2.18,-0.24 2.8,-0.27 0.62,-0.04 0.97,-0.15 1.04,-0.33 0.07,-0.18 0.15,-1.6 0.22,-4.24 l 0.33,-8.47 c 0,-4.4 -1.06,-6.6 -3.19,-6.6 -0.81,0 -1.5,0.57 -2.09,1.71 -0.59,1.14 -1.03,3.54 -1.32,7.21 -0.29,3.67 -0.44,7.11 -0.44,10.34 0,0.59 0.18,0.88 0.55,0.88 z"
         id="path12" />
    </g>
    <g
       id="g16"
       style="display:inline">
      <path
         class="cls-6"
         d="m 1039.25,317.53 c -0.8,-0.88 -0.89,-1.35 -0.27,-1.4 0.62,-0.04 1.24,0.11 1.86,0.47 0.62,0.35 1.06,0.84 1.33,1.46 0.62,-1.33 1.06,-2.48 1.33,-3.46 0.27,-0.97 0.4,-1.64 0.4,-1.99 0,-0.44 -0.16,-0.62 -0.46,-0.53 -0.31,0.09 -0.73,0.22 -1.26,0.4 -0.53,0.18 -1.11,0.07 -1.73,-0.33 -0.62,-0.4 -0.6,-0.62 0.07,-0.66 0.66,-0.04 1.33,-0.18 1.99,-0.4 0.67,-0.22 1.17,-0.49 1.53,-0.8 0.35,-0.31 1.06,-0.15 2.13,0.47 0.71,0.44 0.82,0.91 0.33,1.4 -0.49,0.49 -1.02,1.62 -1.59,3.39 -0.58,1.77 -1.31,3.5 -2.19,5.18 -0.89,1.68 -2.02,3.15 -3.39,4.39 -1.38,1.24 -2.81,2.13 -4.32,2.66 -1.51,0.53 -1.68,0.42 -0.53,-0.33 1.15,-0.75 2.35,-1.75 3.59,-2.99 1.24,-1.24 2.44,-2.97 3.59,-5.18 -0.8,-0.27 -1.59,-0.84 -2.39,-1.73 z m 9.57,6.18 c -0.18,0.31 -0.4,1.04 -0.66,2.19 1.6,-0.35 2.86,-0.58 3.79,-0.66 0.93,-0.09 1.77,-0.2 2.53,-0.33 0.75,-0.13 1.48,0.07 2.19,0.6 0.71,0.53 0.47,0.86 -0.73,1 -1.2,0.13 -2.44,0.25 -3.72,0.33 -1.29,0.09 -2.68,0.22 -4.19,0.4 -0.89,2.92 -2.08,5.1 -3.59,6.51 -1.51,1.42 -3.24,2.37 -5.18,2.86 -1.95,0.49 -2.02,0.27 -0.2,-0.66 1.82,-0.93 3.32,-2.1 4.52,-3.52 1.2,-1.42 2.01,-3.06 2.46,-4.92 -1.15,0.27 -2.15,0.47 -2.99,0.6 -0.84,0.13 -1.53,0.22 -2.06,0.27 -0.53,0.05 -1.15,-0.2 -1.86,-0.73 -0.71,-0.53 -0.66,-0.82 0.13,-0.86 0.8,-0.04 1.77,-0.11 2.92,-0.2 1.15,-0.09 2.53,-0.27 4.12,-0.53 0.27,-1.06 0.31,-2.21 0.13,-3.46 -1.15,0 -1.99,-0.15 -2.53,-0.47 -0.53,-0.31 -0.13,-0.6 1.2,-0.86 1.33,-0.27 2.39,-0.53 3.19,-0.8 0.8,-0.27 1.57,-0.51 2.33,-0.73 0.75,-0.22 1.4,-0.09 1.93,0.4 0.53,0.49 0.27,0.91 -0.8,1.26 -1.06,0.35 -2.31,0.66 -3.72,0.93 0.71,0.62 0.97,1.09 0.8,1.4 z m 4.25,-8.17 c 0.71,-0.8 1.4,-1.66 2.06,-2.59 0.66,-0.93 1,-1.71 1,-2.33 0,-0.71 0.31,-0.88 0.93,-0.53 0.62,0.35 1.22,0.75 1.79,1.2 0.58,0.44 0.51,0.78 -0.2,1 -0.71,0.22 -2.44,1.44 -5.18,3.66 2.04,2.39 3.9,4.21 5.58,5.45 1.68,1.24 3.28,2.11 4.79,2.59 1.5,0.49 1.77,0.78 0.8,0.86 -0.98,0.09 -2.24,0.16 -3.79,0.2 -1.55,0.05 -2.81,-0.55 -3.79,-1.79 -0.98,-1.24 -2.31,-3.06 -3.99,-5.45 -1.68,-2.39 -2.88,-3.83 -3.59,-4.32 -0.71,-0.49 -0.93,-0.8 -0.67,-0.93 0.26,-0.13 0.62,-0.11 1.06,0.07 0.71,-0.97 1.28,-1.86 1.73,-2.66 0.44,-0.8 0.62,-1.44 0.53,-1.93 -0.09,-0.49 0.15,-0.62 0.73,-0.4 0.58,0.22 1.15,0.53 1.73,0.93 0.57,0.4 0.51,0.75 -0.2,1.06 -0.71,0.31 -2.04,1.35 -3.99,3.12 0.97,0.98 1.86,1.91 2.66,2.79 z m 4.05,17.35 c 0.49,0.58 0.66,1.46 0.53,2.66 -0.13,1.2 -0.93,1 -2.39,-0.6 -1.46,-1.6 -2.81,-2.99 -4.05,-4.19 -1.24,-1.2 -1.35,-1.64 -0.33,-1.33 1.02,0.31 2.19,0.82 3.52,1.53 1.33,0.71 2.24,1.35 2.72,1.93 z"
         id="path13" />
      <path
         class="cls-6"
         d="m 1044.83,350.88 c -0.09,-1.28 -0.29,-2.26 -0.6,-2.92 -0.31,-0.66 -0.11,-0.91 0.6,-0.73 0.71,0.18 1.37,0.42 1.99,0.73 0.62,0.31 0.77,0.73 0.47,1.26 -0.31,0.53 -0.47,1.55 -0.47,3.06 0,1.51 -0.13,3.5 -0.4,5.98 -0.27,2.48 -0.98,4.54 -2.13,6.18 -1.15,1.64 -2.5,2.86 -4.05,3.66 -1.55,0.8 -1.71,0.64 -0.47,-0.46 1.24,-1.11 2.35,-2.53 3.32,-4.25 0.97,-1.73 1.55,-4.23 1.73,-7.51 -2.57,1.42 -4.32,2.68 -5.25,3.79 -0.93,1.11 -1.66,1.29 -2.19,0.53 -0.53,-0.75 -0.51,-1.42 0.07,-1.99 0.58,-0.58 0.97,-1.26 1.2,-2.06 0.22,-0.8 0.27,-2.26 0.13,-4.39 -0.13,-2.13 -0.51,-3.61 -1.13,-4.45 -0.62,-0.84 -0.58,-1.22 0.13,-1.13 0.71,0.09 1.37,0.31 1.99,0.66 1.59,-0.88 2.81,-1.73 3.66,-2.53 0.84,-0.8 1.24,-1.51 1.2,-2.13 -0.05,-0.62 0.29,-0.77 1,-0.46 0.71,0.31 1.37,0.75 1.99,1.33 0.62,0.58 0.6,0.95 -0.07,1.13 -0.67,0.18 -1.55,0.53 -2.66,1.06 -1.11,0.53 -2.73,1.29 -4.85,2.26 0.27,1.6 0.4,4.7 0.4,9.3 1.33,-0.62 2.79,-1.24 4.39,-1.86 0.09,-1.42 0.09,-2.77 0,-4.05 z m 7.98,7.38 c 0,4.34 -0.11,7.75 -0.33,10.23 -0.22,2.48 -0.55,3.77 -1,3.85 -0.44,0.09 -0.67,-1.11 -0.67,-3.59 0,-2.48 0.04,-5.52 0.13,-9.37 0.09,-3.85 0.09,-6.67 0,-8.44 -0.09,-1.77 -0.38,-2.99 -0.86,-3.66 -0.49,-0.66 -0.36,-0.93 0.4,-0.8 0.75,0.13 1.35,0.27 1.79,0.4 0.44,0.13 1.35,0 2.72,-0.4 1.37,-0.4 2.28,-0.77 2.72,-1.13 0.44,-0.35 1.08,-0.4 1.93,-0.13 0.84,0.27 1.55,0.6 2.13,1 0.57,0.4 0.66,0.8 0.27,1.2 -0.4,0.4 -0.69,0.98 -0.86,1.73 -0.18,0.75 -0.27,2.15 -0.27,4.19 0,2.04 -0.47,3.5 -1.4,4.65 -0.93,1.15 -1.57,1.26 -1.93,0.33 -0.36,-0.93 -1.04,-1.79 -2.06,-2.59 -1.02,-0.8 -0.93,-1.02 0.27,-0.66 1.2,0.36 1.99,0.4 2.39,0.13 0.4,-0.27 0.62,-1.04 0.67,-2.33 0.04,-1.28 0.04,-2.48 0,-3.59 -0.05,-1.11 -0.22,-1.77 -0.53,-1.99 -0.31,-0.22 -0.89,-0.22 -1.73,0 -0.84,0.22 -2.06,0.51 -3.66,0.86 -0.09,2.31 -0.13,5.67 -0.13,10.1 z"
         id="path14" />
      <path
         style="font-size:85.3333px;line-height:0;font-family:'Adobe 楷体 Std';-inkscape-font-specification:'Adobe 楷体 Std, Normal';letter-spacing:20px;word-spacing:0px;writing-mode:tb-rl;fill:#ff0000;stroke-width:0.361041"
         d="m 1052.532,403.05316 c 0.092,-1.50963 -1.0783,-2.4339 -3.1733,-2.68037 -0.8318,-0.0924 -0.9242,0.15405 -0.5853,0.6778 0.5545,0.86265 1.4172,2.21823 1.8793,2.86522 0.6778,0.95508 1.7869,0.52375 1.8793,-0.86265 z m -9.027,2.98846 c -0.1848,-0.61618 -0.8318,-1.07831 -2.1566,-1.29397 -0.8318,-0.12324 -1.1091,0.21566 -0.6778,0.83183 0.3389,0.49295 1.0475,1.17074 1.7253,1.57126 0.6162,0.33889 1.3864,-0.12324 1.1091,-1.10912 z m 15.0348,-0.43133 c -1.1091,-0.55455 -1.8794,-0.61617 -3.7587,-0.12323 -1.7561,0.46213 -7.8563,1.38639 -10.321,1.47883 -0.9859,0.0308 -1.1399,0.30808 -0.4621,0.80103 0.9858,0.7394 1.294,0.7394 3.1116,0.30808 2.9577,-0.73941 7.0861,-1.13992 9.7356,-0.92426 3.1425,0.27728 3.389,-0.64699 1.6946,-1.54045 z m -22.1516,2.55714 c -0.5854,-0.83184 -0.9859,-0.73941 -1.0475,0.0924 -0.062,0.77021 -0.4313,2.34147 -0.5546,2.58794 -0.4621,0.95507 -0.4929,1.84853 -0.2773,2.61875 0.3081,1.07831 0.7703,1.23235 1.5713,-0.0924 0.7086,-1.07831 1.1399,-4.12838 0.3081,-5.20669 z m 4.4057,-5.73045 c 0.4005,-1.23235 0.2772,-1.60206 -1.294,-2.24904 -1.4788,-0.61618 -1.8485,-0.27728 -1.1091,0.89346 0.2773,0.46213 0.6777,2.18742 0.647,3.11169 -0.3081,12.9089 -0.5854,14.23368 -1.1399,15.89736 -0.5239,1.57125 -0.493,1.84853 0.2772,3.91272 0.3389,0.92426 0.8627,0.98588 1.1707,0 0.4006,-1.20154 0.5546,-2.18743 0.6779,-6.96279 0.308,-13.30943 0.4005,-13.46347 0.7702,-14.6034 z m 15.3427,8.93457 c 0.5238,-0.21566 0.6162,-0.92427 -0.9858,-1.7253 -1.448,-0.73941 -1.7561,-0.73941 -2.8036,-0.27728 -0.8935,0.40052 -4.5906,1.13993 -6.1926,1.26316 -1.7869,-0.55456 -2.1566,-0.0616 -1.5713,0.61618 0.3697,0.40052 0.8935,1.44802 1.633,3.38897 0.3388,0.95508 1.0166,1.13993 1.1706,0.3389 0.3697,-0.0616 0.8627,-0.12323 1.3865,-0.18485 0.4929,0.61617 0.7702,1.57125 0.8318,2.61875 0.092,1.32478 0,3.54302 -0.1848,4.74456 -0.1541,0.98588 -0.5238,1.0475 -2.4956,0.36971 -0.6161,-0.21567 -0.7702,0.0308 -0.3388,0.40051 0.4312,0.36971 1.3863,1.69449 1.8485,2.49552 0.4929,0.83184 0.8626,0.89345 1.4788,0.24647 0.9242,-0.98589 1.3864,-2.61876 1.294,-4.5289 -0.1541,-3.23493 -0.1541,-4.00515 -0.062,-4.46728 0.2465,-1.07831 0.1849,-1.44802 -1.5096,-1.97177 1.7253,-0.21566 3.6971,-0.43132 4.1592,-0.52375 0.6162,-0.0616 0.6778,-0.30809 0.4621,-0.73941 -0.092,-0.21566 0,-0.6778 0.6162,-1.23235 0.3697,-0.30809 1.1091,-0.77023 1.2631,-0.83184 z m -11.276,6.43904 c -0.2465,-0.89345 -0.6778,-0.86264 -0.8934,-0.27728 -0.1849,0.49295 -0.8935,1.69449 -1.2016,2.12581 -0.8318,1.13993 -0.9859,1.7253 -0.801,2.4339 0.2465,0.83184 0.5237,0.86265 1.3248,0.3389 0.5545,-0.40052 0.9858,-1.20154 1.2939,-2.12581 0.3389,-1.01669 0.4314,-1.91015 0.2773,-2.49552 z m 13.1862,2.80361 c -0.3081,-1.3864 -1.5096,-2.4339 -3.9743,-2.86522 -0.8319,-0.15405 -0.8935,0.0924 -0.5238,0.58536 1.0475,1.32478 2.3415,2.86522 3.2041,3.85111 0.801,0.92427 1.6945,0.0616 1.294,-1.57125 z m -4.991,-9.55074 c -0.3081,1.60206 -0.493,1.97177 -0.8627,2.15662 -0.801,0.33889 -2.0641,0.64698 -4.8369,0.98588 -0.1849,-0.92426 -0.4622,-1.94096 -0.6778,-2.7728 2.1258,-0.3697 4.3748,-0.83183 5.2066,-1.01669 0.8319,-0.15404 1.294,0.0308 1.1708,0.64699 z m 5.484,41.38782 c -0.3389,-0.73941 -0.5238,-1.94095 -0.5238,-3.35816 0,-1.01669 -0.4622,-1.01669 -0.647,-0.0616 -0.4313,2.24904 -0.7394,2.24904 -1.6329,1.91015 -1.6636,-0.61618 -2.1566,-1.87934 -2.0642,-4.09758 0.092,-2.31066 0.4622,-2.92684 1.4789,-3.72787 0.8626,-0.64698 0.5853,-0.77021 -0.3697,-1.29397 -1.0167,-0.55456 -1.3248,-0.67779 -1.7869,-0.24647 -0.5238,0.49294 -1.2324,0.86265 -2.8344,1.3864 0.1848,-1.17074 0.5545,-2.86522 0.801,-3.45059 0.3389,-0.73941 0.2156,-1.17073 -1.0475,-1.66368 -1.448,-0.61617 -1.8794,-0.46213 -1.4173,0.55456 0.4622,1.01669 0.5238,2.68037 0.2774,4.92941 -0.7086,0.21566 -1.8177,0.40052 -2.7113,0.61618 -0.8625,0.18485 -0.955,0.43132 -0.1231,0.77022 0.308,0.12324 1.1091,0.12324 2.6803,-0.3389 -0.1233,0.95508 -0.2773,1.81773 -0.5237,2.68037 -0.4621,-0.27727 -0.8011,-0.40051 -1.2324,-0.49293 -1.0475,-0.24648 -1.2015,0.12323 -0.4005,0.61617 0.2772,0.18485 0.9859,0.61618 1.2939,0.83184 -0.4004,1.20154 -0.955,2.27986 -1.7561,3.32736 -0.5237,0.77021 -0.2156,1.10911 0.6779,0.3697 0.8318,-0.7086 1.602,-1.66368 2.1566,-2.98846 0.5854,0.40052 0.9859,0.73942 1.2323,1.0475 0.8627,1.07831 1.6329,0.70861 1.294,-0.64698 -0.1849,-0.70861 -0.7394,-1.10912 -2.0642,-1.63287 0.3081,-1.01669 0.5546,-2.18743 0.7394,-3.4814 0.7394,-0.27728 1.2632,-0.52375 2.2182,-0.77022 0.647,-0.12324 0.5854,-0.0308 0.4622,0.55456 -0.4622,2.40309 -0.5238,3.8511 -0.2773,5.20669 0.3389,1.78692 1.6637,3.51221 4.3748,4.22081 1.5097,0.40052 2.0642,0 1.7254,-0.77022 z m -13.5251,-6.25419 c -0.1849,-0.24647 -0.7395,-0.0924 -2.4955,0.67779 -0.031,-0.73941 -0.031,-1.63286 -0.031,-2.58794 1.2016,-0.27728 2.0951,-0.58537 2.3724,-0.77022 0.4313,-0.27728 0.4929,-0.7086 -0.092,-0.86265 -0.4929,-0.12323 -1.1707,-0.0924 -2.249,0.18485 0.062,-1.50963 0.2773,-2.98845 0.4621,-3.38896 0.3697,-0.70861 0.2465,-0.92427 -1.3556,-1.47883 -1.4172,-0.52375 -1.602,-0.0308 -1.0475,0.7086 0.4929,0.64698 0.6162,1.26316 0.7086,4.55971 -1.6329,0.46213 -3.2041,0.86265 -4.4981,1.0475 -0.4621,0.0616 -0.5545,0.43132 0.031,0.7086 0.4929,0.21566 1.3863,0.21566 2.6187,-0.0308 0.6778,-0.12323 1.294,-0.27727 1.8794,-0.40051 0.031,0.92426 0.062,1.94095 0.062,2.8036 -4.7137,2.21824 -5.792,2.58795 -6.9011,2.55714 -0.9243,-0.0308 -1.0476,0.27727 -0.062,1.07831 1.0167,0.80103 1.3864,0.89345 2.1874,0.33889 0.6778,-0.46213 2.742,-1.66367 4.7753,-2.7728 0,0.92427 0,1.63287 -0.031,1.94096 -0.062,0.83184 -0.2156,0.95508 -1.2939,0.77022 -0.493,-0.0616 -0.5546,0.15405 -0.2157,0.43133 0.3389,0.30809 0.8626,1.0475 1.2632,1.75611 0.1848,0.3697 0.7086,0.30808 0.8627,0 0.6161,-1.07832 0.8318,-2.03339 0.7085,-3.05008 -0.092,-0.40052 -0.1232,-1.17074 -0.154,-2.4339 2.4955,-1.35559 2.6496,-1.63287 2.4955,-1.78691 z m 10.475,17.0989 c 0.031,-1.84853 -0.092,-2.12581 -4.3749,-4.71375 -0.4621,-0.30809 -0.955,-0.15404 -0.4313,0.6778 0.2157,0.27728 0.4313,0.61617 0.647,0.95507 l -5.0835,0.83184 0.062,-2.7728 c 5.638,-0.61618 5.8228,-0.83184 5.4223,-1.3864 -0.2773,-0.46213 -0.3081,-0.58537 -0.062,-0.86264 0.4005,-0.40052 0.9551,-0.92427 1.3556,-1.20155 0.5853,-0.40051 0.5545,-0.67779 -1.294,-1.69449 -0.6778,-0.3697 -1.1399,-0.3697 -1.6329,0.0308 -0.308,0.24648 -1.8485,0.61618 -3.6662,0.98589 0.031,-0.24647 0.062,-0.52375 0.1541,-0.77022 0.2464,-0.73941 -0.092,-0.95508 -1.3249,-1.3864 -0.955,-0.3389 -1.4172,0.12323 -0.8318,0.89346 0.2465,0.3389 0.4313,0.83184 0.4929,1.47882 -1.5712,0.27728 -3.2657,0.49294 -4.5597,0.55456 -1.6944,-0.58537 -2.0641,-0.0924 -1.448,0.3389 0.5546,0.46213 1.6637,2.15662 1.8794,3.14249 0.154,0.80104 0.6161,1.32479 0.8934,1.32479 0.1849,0 0.3389,-0.30809 0.2773,-0.95508 1.1091,-0.12323 2.095,-0.21566 2.9576,-0.33889 l 0.031,2.83441 c -4.5596,0.73941 -6.1001,0.89346 -7.2092,0.67779 -0.9551,-0.18485 -1.1091,0.12324 -0.154,1.23236 0.8626,0.98588 1.2015,1.13993 2.1258,0.7086 1.0167,-0.49294 5.1758,-1.57125 12.0462,-3.05007 0.7702,1.17073 1.5096,2.31066 1.8485,2.86522 0.9552,1.57125 1.8485,1.17073 1.8794,-0.40051 z m -5.2375,-8.22596 c 0,0.55456 -0.1849,1.0475 -0.5546,1.50964 -0.2156,0.33889 -0.4621,0.46213 -3.3582,0.86264 l 0.062,-2.61875 c 1.1399,-0.21566 2.5263,-0.40051 2.9884,-0.36971 0.7086,0.0308 0.8627,0.0616 0.8627,0.61618 z m -5.33,2.55714 c -0.8318,0.12323 -1.8485,0.27728 -3.0808,0.43132 -0.1849,-1.01669 -0.4314,-1.78691 -0.7703,-2.46471 1.14,-0.0616 2.7112,-0.27728 3.8511,-0.46213 z"
         id="text17"
         aria-label="惊蛰" />
    </g>
  </g>
</svg>
