<?xml version="1.0" encoding="UTF-8" standalone="no"?>
<!-- Created with Inkscape (http://www.inkscape.org/) -->

<svg
   width="1920"
   height="1080"
   viewBox="0 0 1920 1080"
   version="1.1"
   id="svg1"
   xml:space="preserve"
   sodipodi:docname="湿鞋.svg"
   inkscape:export-filename="湿鞋.png"
   inkscape:export-xdpi="96"
   inkscape:export-ydpi="96"
   inkscape:version="1.3.2 (091e20ef0f, 2023-11-25, custom)"
   xmlns:inkscape="http://www.inkscape.org/namespaces/inkscape"
   xmlns:sodipodi="http://sodipodi.sourceforge.net/DTD/sodipodi-0.dtd"
   xmlns="http://www.w3.org/2000/svg"
   xmlns:svg="http://www.w3.org/2000/svg"><sodipodi:namedview
     id="namedview1"
     pagecolor="#ffffff"
     bordercolor="#000000"
     borderopacity="0.25"
     inkscape:showpageshadow="2"
     inkscape:pageopacity="0.0"
     inkscape:pagecheckerboard="0"
     inkscape:deskcolor="#d1d1d1"
     inkscape:zoom="0.39479167"
     inkscape:cx="886.54353"
     inkscape:cy="325.48812"
     inkscape:window-width="1920"
     inkscape:window-height="1048"
     inkscape:window-x="0"
     inkscape:window-y="32"
     inkscape:window-maximized="1"
     inkscape:current-layer="layer1" /><defs
     id="defs1" /><g
     id="layer1"><rect
       style="fill:#000000"
       id="rect1"
       width="1920"
       height="1080"
       x="0"
       y="0" /><path
       d="m 951.60577,340.66669 h 2.8125 q 26.8125,3.375 26.8125,6.75 3.9375,5.4375 3.9375,10.125 -1.3125,6.5625 -9.5625,6.5625 -2.4375,1.6875 -3.9375,1.6875 l -6.5625,-6 q -3.9375,-3 -7.3125,-7.875 -6.75,-3.5625 -7.3125,-5.0625 v -0.5625 q 3.9375,-0.75 3.9375,-2.25 -3.9375,0 -3.9375,-1.125 v -1.125 q 0.1875,-1.125 1.125,-1.125 z m 60.75003,1.125 h 2.25 l 2.25,1.6875 q 5.0625,-1.125 5.625,-1.125 9,1.5 9,7.875 l 4.875,2.25 q 9.1875,-2.8125 12.375,-2.8125 3.75,1.6875 5.0625,1.6875 h 0.5625 q 3.9375,-1.125 4.3125,-1.125 h 6.75 q 4.3125,0 11.25,-7.3125 0.9375,-0.5625 2.25,-0.5625 h 1.5 q 3.1875,0 9,5.0625 5.625,0 5.625,5.625 v 3.9375 q 0,1.5 -6.75,2.25 l -0.5625,1.125 q 0.5625,13.5 0.5625,17.25 -0.5625,2.8125 -0.5625,3.375 1.125,2.0625 1.125,6 v 13.5 q -1.875,2.8125 -2.25,2.8125 l 2.25,8.8125 q 0,8.4375 -4.5,8.4375 h -6.5625 q -2.625,0 -7.3125,-5.625 -3,-0.5625 -5.0625,-0.5625 h -8.8125 q -2.8125,0 -5.625,-0.5625 l -9,1.125 -2.25,-0.5625 -5.0625,0.5625 q -4.875,-0.5625 -6,-0.5625 l -0.5625,1.125 0.5625,2.25 -1.6875,3.375 0.5625,2.8125 q -2.4375,1.6875 -13.5,3.9375 -2.625,0 -2.625,-7.875 l 0.9375,-2.8125 q -0.375,-2.25 -0.375,-3.9375 0.9375,-5.8125 0.9375,-7.6875 -2.625,-5.625 -2.625,-15.75 0.9375,-2.8125 2.625,-2.8125 v -1.125 l -1.5,-2.0625 q 0,-8.625 0.9375,-14.625 -4.3125,-9.75 -4.3125,-15 0,-0.75 0.5625,-5.625 -1.125,-1.875 -1.125,-3.375 v -0.5625 q 0,-1.6875 4.875,-2.8125 z m 19.125,9.5625 0.5625,2.25 q -0.1875,2.0625 -5.625,4.5 v 2.25 q 0,3.5625 0.5625,7.125 -1.125,4.3125 -1.125,7.875 v 0.5625 q 0,0.75 1.6875,1.6875 h 6.75 q 2.625,0.1875 2.625,1.125 2.4375,-1.125 3.375,-1.125 9,0.5625 11.8125,1.125 2.0625,-1.125 4.5,-1.125 h 0.5625 q 2.25,1.125 3.75,5.625 -0.5625,1.5 -3.375,1.5 -3.5625,-0.9375 -4.875,-0.9375 h -0.5625 q -1.3125,0 -7.3125,1.5 -0.5625,0 -4.5,-3.1875 -4.6875,3.1875 -10.5,3.1875 0,0.5625 -2.8125,1.6875 l 0.5625,3.9375 q 0,2.625 -1.6875,3.9375 l 0.5625,2.8125 v 4.5 q -1.125,3.9375 -1.125,4.5 v 0.375 q 8.625,-0.375 15,-1.5 7.875,0.5625 9,1.5 3.9375,-0.9375 3.9375,-1.5 l 9.9375,1.5 q 0.5625,0 4.5,-0.375 2.25,0.9375 3.9375,0.9375 1.125,-3 1.6875,-7.6875 l -0.5625,-2.25 0.5625,-3.9375 q -1.125,-1.875 -1.125,-3.375 2.4375,-1.125 2.8125,-2.25 v -1.125 q -3.375,-2.25 -3.375,-3.1875 l 1.6875,-2.8125 v -2.25 q 0,-3.375 -2.8125,-17.4375 l 0.5625,-2.0625 q 0,-3.375 -4.5,-3.9375 l -2.8125,0.5625 q -2.25,-0.5625 -3.9375,-0.5625 -2.625,1.6875 -4.3125,1.6875 -6,0 -13.5,-2.25 l -4.5,2.25 h -2.25 q -1.6875,0 -2.625,-5.625 z m -39.75003,9 h 1.125 q 2.25,0.9375 2.25,3.1875 l -1.6875,3.375 0.5625,3.375 q 0,0.9375 -2.25,2.25 l 0.5625,5.625 q -6,25.125 -6,25.6875 -1.875,1.125 -3.9375,9.375 h -1.125 v 3.9375 q 0,2.4375 -2.25,4.5 1.6875,3.375 1.6875,3.9375 -2.8125,13.125 -6.75,21.75 0,4.6875 -2.8125,6 v 0.5625 q 1.6875,2.625 1.6875,3.375 -1.125,1.6875 -2.8125,10.125 -0.75,0 -1.6875,3.375 0,4.125 7.3125,13.3125 5.625,8.4375 5.625,12.375 0,2.625 6.75,3.1875 0.9375,-1.125 1.5,-6 l 3.375,-3.375 q 2.0625,0 4.5,2.25 3.37503,-1.6875 5.62503,-1.6875 3.9375,2.25 6.1875,2.25 3.5625,-1.125 4.875,-1.125 h 2.8125 l 3.375,0.5625 q 1.125,-0.5625 1.6875,-0.5625 3,0.5625 5.625,0.5625 l 0.5625,-1.125 q 0,-0.5625 -0.5625,-0.5625 0,-1.125 1.6875,-11.8125 v -0.5625 q 0,-3.5625 -0.5625,-7.125 0.5625,-5.625 2.25,-7.3125 v -0.5625 l -1.6875,-2.25 q 0.5625,-4.875 0.5625,-6.1875 0,-0.5625 -0.5625,-5.4375 l 1.6875,-3.375 q -2.8125,-10.5 -2.8125,-15.75 l 1.125,-2.0625 q -0.5625,-3.1875 -0.5625,-4.5 2.8125,-2.25 3.375,-2.25 16.125,6.375 16.125,8.8125 0,1.3125 -3.9375,3.9375 0,0.5625 -0.5625,1.6875 0.5625,4.875 0.5625,7.875 v 1.6875 q 0,0.75 -1.6875,1.6875 l 0.5625,2.8125 v 3.1875 q 0,3.1875 -0.5625,3.9375 0.9375,22.3125 2.8125,22.3125 l -0.5625,5.625 v 1.125 l 1.125,3.9375 h 1.6875 q 1.125,0 5.625,1.125 2.8125,-0.75 2.8125,-3.9375 v -2.8125 l -1.6875,-5.625 q 0,-0.5625 1.6875,-3.75 l 0.5625,-9 q -1.125,-2.25 -1.125,-3.375 0,-0.375 0.5625,-3.375 -0.5625,-3.9375 -0.5625,-6.75 l 1.125,-2.0625 q -1.6875,-4.125 -1.6875,-5.0625 0,-0.5625 0.5625,-0.5625 l -1.125,-10.6875 q 0.5625,-0.9375 0.5625,-1.6875 -1.6875,-6.5625 -1.6875,-9.375 2.4375,-2.25 3.9375,-2.25 7.6875,5.0625 13.3125,5.0625 1.3125,1.6875 2.25,4.3125 0,0.9375 -4.5,5.625 v 13.5 q 0,2.25 -0.5625,4.3125 0.5625,2.25 0.5625,4.5 v 3.9375 q 0,0.75 1.6875,1.6875 1.125,0 2.8125,-3.9375 4.5,-1.5 4.5,-2.25 -1.125,0 -1.125,-1.125 v -0.5625 q 0,-1.125 6.5625,-11.625 l 3.375,-8.4375 q 4.6875,-10.5 6.1875,-10.5 16.6875,5.0625 19.5,9.9375 v 2.25 q -1.3125,7.875 -5.625,7.875 -0.9375,0.5625 -1.6875,0.5625 -3,-0.5625 -4.3125,-0.5625 -2.25,2.25 -3.9375,7.125 -9.1875,6.9375 -16.125,17.4375 0,0.9375 -5.625,6 0,3.9375 -3.375,3.9375 v 1.6875 q 0,3.1875 -0.5625,7.875 1.125,2.4375 2.25,2.8125 h 0.5625 l 6.75,-2.25 q 0,-0.5625 0.375,-0.5625 h 0.5625 q 1.6875,0 1.6875,2.8125 10.125,-4.125 10.125,-7.875 0,-4.875 4.5,-7.3125 h 1.6875 q 14.4375,9.375 14.4375,13.5 l 0.5625,2.25 -0.5625,3.375 q 1.125,1.6875 1.125,3.1875 0,0.9375 -1.6875,1.6875 h -7.3125 q -1.3125,0 -9.9375,-2.25 h -0.5625 q -5.625,0 -13.5,-0.5625 -0.9375,0.5625 -1.5,0.5625 -0.9375,-0.5625 -5.625,-0.9375 -3.5625,0.9375 -4.5,0.9375 l -3.9375,-0.9375 q -6.375,0.9375 -8.8125,0.9375 0,-0.75 -1.6875,-1.5 -11.8125,2.0625 -14.0625,2.0625 l -2.8125,-1.125 q -3,0.5625 -4.3125,0.5625 -3.9375,0 -10.6875,-0.9375 l -8.4375,2.0625 -1.6875,-1.125 q -9.375,4.5 -17.25003,4.5 -5.625,0.5625 -8.8125,0.5625 -2.0625,-1.125 -4.5,-1.125 h -1.6875 q -7.5,7.875 -14.0625,7.875 -3,0 -7.125,-3.9375 -2.25,-0.75 -3.375,-2.8125 v -1.125 l 1.6875,-2.25 v -1.125 q 0,-0.1875 -2.25,-2.625 v -1.6875 q 2.25,-2.4375 2.25,-4.5 0,-2.4375 -3.375,-10.6875 -2.25,-6.9375 -4.5,-7.125 0,-1.125 -1.125,-2.8125 l -2.8125,0.5625 h -1.6875 q -8.0625,-4.6875 -9.375,-6.75 v -1.125 q 3.5625,-3.9375 6.1875,-3.9375 h 8.8125 q 2.8125,1.3125 2.8125,1.6875 3,0 3.9375,-8.8125 3.375,-7.3125 4.5,-7.3125 2.625,-21.75 7.125,-21.75 l 1.125,-2.8125 q -0.5625,-0.9375 -0.5625,-2.25 v -0.5625 q 6.1875,-5.8125 6.1875,-12.75 2.0625,-4.5 2.8125,-9.5625 5.8125,-11.4375 6.75,-20.625 3.375,-6.75 3.9375,-11.25 z m -58.5,15.5625 h 1.125 q 19.875,11.625 20.625,11.625 10.6875,3.375 10.6875,10.6875 0,2.25 2.625,5.0625 v 0.5625 q -2.8125,3.375 -6,9.9375 -1.3125,0 -2.25,0.5625 l -2.8125,-0.5625 -3.375,0.5625 q -3.9375,-5.0625 -3.9375,-11.0625 -6.9375,-7.6875 -7.6875,-11.25 0.5625,-0.9375 0.5625,-2.25 v -0.5625 q -10.6875,-6 -10.6875,-9.9375 v -2.8125 z m 129.93753,1.6875 h 5.625 q 1.125,0.1875 1.125,1.125 v 1.125 q -0.9375,2.25 -3.9375,2.25 h -3.375 q -0.75,0 -1.6875,-1.6875 v -0.5625 q 0,-0.9375 2.25,-2.25 z m -71.43753,55.6875 h 2.8125 q 8.81253,9.5625 17.43753,16.875 2.0625,6 6.5625,14.4375 v 1.125 q 0,0.5625 -1.125,6.1875 v 3.75 q -5.4375,7.3125 -12.1875,7.3125 h -1.125 q -0.75,0 -1.6875,-1.6875 0,-1.125 0.5625,-2.25 0,-6 -4.50003,-18.375 v -6.75 q -6.75,-7.6875 -6.75,-9.9375 0,-4.6875 -2.625,-6.75 v -1.125 q 0,-0.75 2.625,-2.8125 z m 62.62503,121.90625 q 10.5,1.125 10.5,7.6875 -3.375,4.125 -5.625,11.25 l 0.75,4.125 v 1.3125 q 0,0.75 -0.75,0.75 1.5,2.8125 1.5,4.125 -0.75,1.3125 -0.75,2.8125 2.4375,1.875 10.5,2.8125 v 2.0625 q 0,1.875 -9.75,4.3125 l -3.5625,5.4375 q 0.75,1.3125 0.75,2.8125 -1.3125,0.75 -2.0625,0.75 v 1.5 q 4.875,3.1875 4.875,4.125 v 3.375 l -2.0625,2.8125 2.8125,3.5625 -0.75,3.5625 q 1.125,0.5625 6.1875,1.3125 l 3.5625,-0.75 q 3.75,0.75 7.6875,0.75 4.875,0 14.625,-12.5625 h 2.8125 q 5.4375,2.8125 12.5625,12.5625 v 0.75 q 0,2.8125 -10.5,5.625 -2.25,-1.5 -4.125,-1.5 h -4.875 q -2.625,0 -6.375,0.75 l -4.125,-2.0625 q -3.5625,0 -3.5625,1.3125 l -3.375,-0.75 h -3.5625 q -4.875,0 -4.875,4.875 -1.125,0 -4.875,9.1875 -0.9375,0 -2.0625,2.0625 l 4.125,7.6875 v 0.75 q 0,1.5 -0.75,2.8125 1.6875,4.125 2.8125,4.125 l 3.5625,-0.75 3.5625,2.0625 h 2.0625 q 7.3125,0 12.5625,-11.0625 2.25,-1.5 4.125,-1.5 3.75,0 13.3125,10.5 v 2.0625 q -2.4375,4.875 -6.9375,4.875 h -1.5 q -2.4375,0 -6.1875,-0.5625 l -1.5,0.5625 q -3.75,-0.5625 -6.1875,-0.5625 -3.5625,0 -10.5,0.5625 l -8.4375,-1.3125 q -2.0625,2.625 -2.0625,4.125 2.0625,0.75 2.0625,4.3125 v 3.375 l -0.75,4.3125 0.75,1.3125 q -0.75,3.9375 -0.75,5.625 2.25,3.5625 2.25,9.75 h 0.5625 q 9.75,-0.75 16.875,-2.0625 l 2.8125,0.75 q 10.3125,-7.875 10.3125,-11.25 l 4.875,-1.3125 h 1.5 l 11.0625,11.8125 v 3.375 q 0,4.125 -9,4.875 h -9.75 q -1.5,0 -2.8125,0.75 -1.125,-0.75 -2.8125,-0.75 h -3.375 l -4.3125,0.75 q -1.3125,-1.125 -13.875,-2.0625 -10.125,2.8125 -16.875,2.8125 -8.8125,-0.75 -9.75,-1.5 -9.75,0.75 -16.6875,2.25 -0.75,0 -0.75,-0.75 l -3.375,0.75 h -4.3125 q -10.125,-1.5 -11.0625,-1.5 h -4.31253 q -1.125,0 -2.8125,-2.8125 v -1.3125 q 0,-1.3125 7.68753,-3.5625 4.875,0.75 7.6875,0.75 3.5625,-2.0625 5.625,-2.0625 h 0.75 q 3.375,1.5 3.375,2.0625 l 1.5,-0.75 h 0.75 q 6.9375,0.1875 6.9375,1.5 l 6.9375,-0.75 h 7.6875 q 4.125,0 4.125,-6.9375 0,-3 1.5,-5.625 -0.75,-2.8125 -0.75,-4.875 1.5,-2.25 1.5,-3.5625 l -2.25,-3.375 0.75,-4.875 q -2.625,-2.25 -6.1875,-2.25 -3.75,0 -14.0625,0.75 l -1.3125,-0.75 q -8.4375,0.75 -8.4375,2.8125 v 1.5 q 9,8.25 9,11.8125 v 0.75 q 0,1.125 -2.625,2.8125 h -7.125 q -3.9375,0 -11.0625,-0.75 -1.3125,0.75 -6.37503,1.3125 -5.4375,-0.5625 -11.0625,-0.5625 -2.8125,4.125 -2.8125,18 2.0625,7.5 2.0625,9.1875 -3.1875,9.75 -9.1875,9.75 -5.4375,0 -9,-7.6875 0,-2.625 2.8125,-9.75 0,-0.5625 -0.75,-4.125 1.5,-2.625 1.5,-5.625 l -0.75,-4.875 h 0.75 q 0,-2.8125 -7.6875,-4.3125 h -4.875 q -6.1875,2.25 -14.625,3.5625 -5.0625,0 -5.0625,-9.75 v -0.75 q 1.5,-2.8125 3.5625,-2.8125 16.6875,2.0625 16.6875,4.875 12.1875,-2.625 13.3125,-5.4375 l 0.75,-3.5625 q -0.75,0 -5.625,-8.4375 h -2.0625 q -7.5,7.125 -14.625,7.6875 -1.875,-0.1875 -3.5625,-3.375 0.75,-3.5625 1.5,-13.3125 -1.5,0 -1.5,-1.5 1.5,-4.6875 1.5,-8.25 v -4.875 q 0,-2.4375 2.0625,-4.875 -2.0625,-2.4375 -2.0625,-3.5625 l 1.3125,-2.8125 q -0.75,-1.125 -0.75,-2.8125 0.1875,-1.3125 1.5,-1.3125 h 0.5625 q 15.375,3 15.375,5.625 v 0.5625 q 0,1.875 -9,2.8125 v 1.5 q 2.0625,6.9375 2.0625,16.6875 l -0.75,1.3125 q 1.5,4.3125 7.6875,4.3125 h 2.25 l 5.4375,-7.6875 v -0.75 q -2.0625,-2.25 -2.0625,-3.5625 0,-0.75 0.75,-2.0625 l -0.75,-4.125 2.0625,-2.8125 q 0,-0.375 -4.125,-4.125 v -1.5 q 0,-1.875 1.3125,-4.125 l -0.5625,-4.125 q 0,-1.125 2.0625,-2.25 l 3.375,0.75 4.3125,-0.75 q 0.75,7.6875 6.1875,7.6875 4.125,0 11.25,-6.1875 0.75003,0 2.06253,-0.75 2.4375,0.9375 4.125,2.8125 0.75,0 4.3125,-2.8125 h 2.0625 q 4.875,1.5 5.625,1.5 h 4.125 q 3.375,0 6.9375,-0.75 6.5625,0.75 8.4375,1.3125 l 4.125,-0.5625 h 3.5625 q 3.75,-11.25 6.9375,-11.25 l -3.375,-4.875 q 0,-1.6875 2.0625,-5.625 0,-3.1875 -4.875,-9 l -4.875,0.5625 h -0.75 q -1.875,0 -4.125,-1.3125 l -5.0625,0.75 q -0.375,0 -4.125,-0.75 -2.625,0.75 -5.625,0.75 0,-1.5 -1.3125,-1.5 h -0.75 q -2.4375,0 -6.1875,0.75 -2.4375,-1.3125 -4.3125,-1.3125 h -1.3125 l -4.875,1.3125 -1.5,-2.0625 q 0,-0.75 4.875,-3.5625 0,-5.8125 4.3125,-8.25 h 2.0625 q 8.4375,8.4375 13.875,9 l 8.4375,-0.75 q 4.5,1.5 6.375,1.5 2.8125,-0.1875 5.4375,-2.8125 l -0.5625,-4.875 v -4.875 q 2.0625,-2.8125 2.0625,-4.3125 l -2.0625,-4.125 q 0.5625,-2.8125 0.5625,-4.875 -1.3125,-4.5 -1.3125,-6.375 1.5,-0.5625 9,-1.3125 z m -68.43753,2.8125 h 2.25 q 11.8125,2.4375 11.8125,5.625 v 1.3125 q 0,4.125 -6.375,9.1875 0,3.1875 -1.3125,4.875 1.3125,0.9375 3.5625,9 0.375,0 2.625,3.5625 v 1.3125 l -2.0625,2.8125 0.75,4.125 q -1.3125,6.9375 -7.6875,13.3125 -4.875,0 -4.875,4.875 -3.9375,3.5625 -9.75,3.5625 l -14.625,-4.875 v -4.875 q 0,-1.125 2.8125,-2.25 -0.75,-8.4375 -2.8125,-10.3125 v -0.75 l 1.3125,-2.0625 v -0.75 q 0,-3.5625 -10.5,-3.5625 -0.5625,2.0625 -4.125,2.0625 h -2.0625 q -5.625,0 -5.625,-6.1875 0,-4.875 4.875,-4.875 7.6875,3.5625 9.75,3.5625 6.9375,0 6.9375,-5.0625 v -8.25 q 0,-0.9375 -1.3125,-7.6875 0,-0.75 0.75,-0.75 l -0.75,-1.3125 v -2.8125 q 0.375,-2.0625 5.625,-2.0625 h 0.5625 q 3.75,0 7.6875,5.4375 v 3.5625 q -2.625,3.1875 -2.625,3.5625 l 2.0625,12.5625 q -0.75,1.125 -0.75,2.8125 1.5,1.125 6.9375,2.0625 l 0.75,1.3125 -8.4375,4.875 q -0.5625,0.75 -1.3125,9.1875 1.875,1.3125 9.75,2.0625 6.75,-2.0625 7.6875,-4.875 l -2.0625,-2.8125 v -0.75 l 0.5625,-3.5625 q -1.3125,-0.1875 -2.625,-3.375 0,-4.6875 2.0625,-12.5625 -1.125,0 -2.8125,-2.8125 v -1.3125 q 0,-0.5625 3.375,-3.5625 -3.375,-6.5625 -3.375,-8.4375 0.9375,-2.8125 3.375,-4.125 z m 96.37503,18.1875 h 4.875 q 15.375,12.375 15.375,16.6875 0,2.8125 -9,4.125 -7.5,-2.0625 -18.9375,-2.8125 l -1.3125,-2.0625 q 0,-4.3125 5.625,-11.0625 0,-3.1875 3.375,-4.875 z m -69,55.875 -4.3125,4.875 q 0.75,3.75 0.75,5.4375 l -2.8125,6.375 q 1.5,4.875 2.0625,4.875 l -0.5625,3.5625 v 0.5625 l 0.5625,8.4375 q -3.1875,2.8125 -11.06253,2.8125 -5.625,-4.125 -9.1875,-4.125 -2.0625,0 -4.125,9 -2.8125,1.125 -2.8125,2.0625 2.8125,0 2.8125,4.125 v 2.8125 q 0.75,0 2.0625,0.75 4.5,-1.3125 6.375,-1.3125 h 6.1875 q 6.00003,0 6.93753,-8.4375 5.625,-4.3125 5.625,-4.875 -1.3125,-2.25 -1.3125,-4.125 0,-2.8125 23.625,-4.3125 0.5625,0 4.3125,0.75 l 9,-1.5 -1.3125,-13.125 q 1.3125,-4.875 2.0625,-4.875 -2.8125,-3.75 -3.5625,-9.1875 l -3.375,-0.5625 h -4.875 l -4.3125,0.5625 q -3.5625,-1.3125 -4.875,-1.3125 -7.6875,0.75 -13.875,0.75 z m -25.12503,4.875 q -1.3125,-0.75 -2.8125,-0.75 -2.0625,2.4375 -2.0625,4.875 0.5625,6.1875 0.5625,6.9375 -1.6875,0 -2.0625,2.8125 1.875,6.9375 2.8125,6.9375 h 6.375 q 4.125,-1.6875 4.125,-5.4375 v -1.5 q 0,-0.9375 -1.5,-7.6875 0,-4.875 1.5,-4.875 -0.75,-2.8125 -2.8125,-2.8125 -1.125,0 -4.125,1.5 z"
       id="text1"
       style="font-size:192px;line-height:0;font-family:汇文明朝体;-inkscape-font-specification:'汇文明朝体, Normal';letter-spacing:20px;word-spacing:0px;writing-mode:tb-rl;fill:#ff00ff"
       aria-label="湿鞋&#10;" /><path
       d="m 738.07752,169.80039 1.91277,-0.13663 v 0.95638 h 0.95638 v 0.95639 l 0.95638,-0.13663 v 0.95638 l 3.6889,-0.13662 v 0.95638 l 0.95639,-0.13663 v 0.95638 h 0.95638 v 0.95639 l 1.91276,-0.13663 v 0.95638 h 0.95638 v 0.81976 H 752.15 l 0.13663,0.81975 h 0.81975 l 0.13663,2.73252 -0.95638,0.13663 0.13662,0.81975 -0.95638,0.13663 v 1.77614 h -0.81976 v 1.91276 h 0.95639 v 0.81976 l 5.60166,-0.13663 v 0.81976 h 2.73252 v -0.95638 l 2.73252,-0.13663 v -0.95638 h 1.77614 v -0.95638 h 0.95638 l -0.13663,-0.95639 h 0.95639 v -0.95638 l 2.73252,-0.13662 v -0.95639 l 3.6889,-0.13662 v 0.95638 h 0.95638 v 0.81976 h 1.91276 v 0.95638 l 0.95638,-0.13663 v 0.95638 h 0.95639 v 0.95639 l 0.95638,-0.13663 v 1.91276 l 0.95638,-0.13662 0.13663,3.6889 h 2.73251 v -0.95638 h 0.95639 l -0.13663,-2.86915 h 0.95638 l -0.13662,-0.95638 h 0.95638 v -0.95638 h 0.81975 l -0.13662,-5.46504 0.95638,-0.13663 -0.13663,-0.81975 0.95639,-0.13663 v -0.81975 l 0.81975,-0.13663 -0.13662,-3.6889 h 0.95638 v -0.95638 h 0.81975 v -1.77614 l 0.95639,-0.13663 -0.13663,-0.81975 0.95638,-0.13663 v -0.81976 l 5.46504,-0.27325 0.13663,0.95638 1.77613,-0.13662 v 0.95638 l 2.73252,-0.13663 0.13663,0.95639 1.77614,-0.13663 v 0.95638 l 1.91276,-0.13662 v 0.95638 h 1.91276 v 0.81975 h 0.95639 v 1.91277 l 0.95638,-0.13663 0.13662,3.6889 h -0.95638 l 0.13663,1.91277 h -0.95638 v 0.95638 h -0.81976 v 0.95638 l -5.46504,0.27325 v 2.73252 h 0.95638 v 0.81976 l 11.06671,-0.40988 0.13662,0.95638 0.81976,-0.13662 0.13663,0.95638 h 0.81975 l 0.13663,0.95638 1.77613,-0.13663 -0.13662,-3.6889 h 0.95638 l -0.13663,-0.95638 h 1.91277 v -0.95638 l 1.77614,-0.13663 v -0.81975 l 0.81975,-0.13663 v -0.81976 l 1.91277,-0.13662 -0.13663,-0.95638 h 0.95638 v -0.95639 h 1.77614 v -0.95638 l 6.42142,-0.27325 v 0.95638 l 1.91276,-0.13662 v 0.95638 h 0.95639 v 1.77614 h 0.95638 l 0.13662,1.77613 h 0.81976 l 0.13662,0.95639 0.81976,-0.13663 0.13663,0.95638 h 0.95638 v 0.95638 l 0.95638,-0.13662 v 0.95638 h 0.95638 v 1.77614 h 0.95638 l 0.13663,3.6889 h -0.95638 v 0.95638 h -0.81976 v 0.95638 l -2.73252,0.13663 v -0.95638 l -4.64528,0.13662 v -0.81975 l -2.86915,0.13662 v -0.95638 h -1.77613 l -0.13663,-0.81976 -3.6889,0.13663 v -0.95638 h -0.95638 l 0.13662,0.95638 -5.60166,0.27325 0.13662,0.81976 -0.95638,0.13662 0.13663,3.68891 0.95638,-0.13663 v 0.95638 h 0.95638 v 0.95638 l 0.95638,-0.13662 0.13663,2.73252 h 0.81976 l 0.13662,2.73252 -0.95638,0.13662 0.13663,2.73252 h -0.95639 l 0.13663,0.95638 h -1.91276 l 0.13662,1.91277 1.77614,-0.13663 0.13663,0.95638 h 1.77613 v 0.81976 l 3.6889,-0.13663 0.13663,0.95639 1.77614,-0.13663 v 0.95638 h 0.95638 v 0.95638 l 0.95638,-0.13662 0.13663,4.64528 h -0.81976 v 0.95638 h -0.95638 v 0.95638 h -0.81976 v 0.95639 h -0.95638 l 0.13663,0.95638 h -0.95638 l 0.40987,11.0667 h -0.95638 l 0.27325,3.6889 -0.95638,0.13663 v 0.81975 l -0.95638,0.13663 0.13663,0.81976 -1.91277,0.13662 v 0.95638 h -1.77613 v 0.95639 h -0.81976 v 0.95638 h -1.91276 v -0.81976 h -0.95639 v -0.95638 l -1.77613,0.13663 -0.13663,-0.95639 h -0.81975 l -0.13663,-0.81975 h -0.81976 l -0.13662,-0.95638 -11.06671,0.40987 v -0.81975 h -1.77613 l -0.13663,-0.81976 -10.93008,0.40988 v 0.95638 h -2.73252 v 0.95638 h -0.95638 l 0.13663,3.68891 h 0.95638 v 0.95638 h 0.95638 l 0.13663,1.77614 h 0.81975 l 0.13663,2.73251 3.6889,-0.13662 v 0.95638 l 15.71199,-0.68313 v -0.95638 l 2.73252,-0.13663 v 0.95638 l 5.60166,-0.27325 -0.13663,-0.81975 2.73252,-0.13663 v -0.95638 l 2.73252,-0.13663 v -0.95638 h 0.95639 v -0.95638 h 0.81975 v -0.95638 l 8.33419,-0.27325 v 0.95638 l 0.95638,-0.13663 v 0.95638 h 0.95638 v 0.95639 l 1.77614,-0.13663 0.13662,0.95638 1.77614,-0.13663 v 0.95639 h 0.95638 l 0.13663,1.77613 h 0.81975 l 0.13663,3.68891 h -1.77614 v 0.95638 h -0.81975 v 1.91276 h -0.95638 l 0.13662,0.95638 h -0.95638 v 0.95638 h -0.95638 l 0.13662,0.95639 h -0.95638 l 0.40988,8.33418 h -0.95638 l 0.13662,3.6889 h -0.95638 v 0.95638 l -3.55227,0.13663 v 0.95638 h -0.95639 l 0.13663,2.73252 -0.95638,0.13663 v 0.81975 l -1.77614,0.13663 v 0.95638 h -0.95638 l 0.13663,0.95638 H 822.649 v 0.95639 h -1.77613 v 0.95638 h -1.77614 v 0.95638 h -0.95638 v 0.95638 l -2.73252,0.13663 0.13662,0.95638 h -1.91276 v -0.81976 h -0.95638 v -0.95638 h -0.95638 v -0.81976 h -0.95639 v -1.91276 l -0.95638,0.13663 v -0.95638 h -0.95638 l -0.13663,-0.81976 h -0.81975 l -0.13663,-2.73252 h -1.91276 v -0.95638 l -0.95638,0.13662 v -0.95638 l -1.77614,0.13663 -0.13663,-0.95638 h -0.81975 l -0.13663,-0.95639 -0.81975,0.13663 -0.13663,-1.91276 h 0.95638 v -0.95638 h 0.81976 v -0.95639 l 2.73252,-0.13662 0.13662,0.95638 2.73252,-0.13663 v 0.95638 l 1.77614,-0.13662 0.13663,0.95638 3.6889,-0.13663 v 0.95639 l 2.73252,-0.13663 v -0.95638 h 0.95638 l -0.13663,-2.73252 0.95638,-0.13663 -0.13662,-0.81975 0.95638,-0.13663 v -0.81975 l 0.81976,-0.13663 v -1.77614 h -0.95639 v -1.77614 l 0.81976,-0.13662 -0.13663,-2.73252 -0.81975,0.13662 -0.27325,-4.64528 h -0.81976 l -0.13663,-0.95638 -4.50865,0.27325 v 0.95638 l -7.37781,0.27326 v -0.95639 h -0.95638 v 0.95639 l -3.6889,0.13662 v -0.95638 l -12.84284,0.5465 v 1.91277 h -0.81976 l 0.13663,2.73252 h 0.81976 l 0.40987,9.15394 -0.95638,0.13662 0.13663,3.6889 h -0.81976 v 0.95639 h -0.95638 l 0.13663,2.73252 h 0.95638 l 0.13662,2.73252 h 0.81976 l 0.13663,1.77613 h 0.95638 l 0.13662,4.50866 -0.95638,0.13663 0.13663,2.73252 h -0.95638 l 0.13662,0.95638 h -0.95638 v 1.91276 h -0.81976 v 0.95638 l -2.73252,0.13663 v 0.81975 l -5.46503,0.27326 -0.13663,-0.95639 h -0.81976 l -0.13662,-0.81975 h -0.81976 l -0.13662,-1.77614 h -0.95639 v -0.95638 h -0.95638 l -0.13662,-3.6889 h 0.95638 v -0.95638 h 0.81975 v -1.77614 l 0.95639,-0.13663 -0.13663,-1.77613 h -0.95638 l -0.13663,-3.68891 h 0.95638 l -0.27325,-6.42142 h -0.95638 l -0.13663,-3.6889 -2.73252,0.13663 v 0.95638 h -1.77613 v 0.95638 l -2.73252,0.13663 v 0.95638 h -2.73252 v 0.95638 h -0.81976 v 1.91276 h -0.95638 l 0.13663,0.95639 -1.91277,0.13662 v 0.81976 l -0.81975,0.13662 v 0.81976 l -1.77614,0.13663 v 0.95638 h -1.91276 l 0.13662,0.95638 -3.6889,0.13663 v 0.95638 h -0.95638 v 0.95638 h -1.77614 v 0.95638 l -1.77614,0.13663 v 0.81975 l -1.77613,0.13663 v 0.95638 h -1.91277 l 0.13663,0.95638 h -0.95638 v 0.95638 h -0.81976 v 0.95639 h -1.91276 l 0.13662,0.95638 -2.86914,0.13662 0.13662,0.95639 h -0.95638 v 0.95638 l -2.73252,0.13662 v 0.81976 l -0.81975,0.13663 v 0.81975 l -3.68891,0.13663 v 0.95638 h -0.95638 l 0.13663,0.95638 h -0.95638 v 0.95638 h -0.81976 v 0.95638 l -1.91276,0.13663 v -0.95638 h -0.95638 v -0.81976 h -1.77614 v 0.95638 l -3.6889,0.13663 v -0.95638 h -0.95639 v -0.81976 h -0.95638 v -0.95638 l -0.95638,0.13663 -0.13663,-3.6889 0.95639,-0.13663 -0.13663,-0.81976 1.91276,-0.13662 -0.13662,-0.95638 h 1.91276 v -0.95639 l 1.77614,-0.13662 v -0.81976 l 2.73252,-0.13662 v -0.95639 h 1.77614 v -0.95638 l 3.6889,-0.13662 v -0.95638 h 0.81975 v -0.95639 l 1.91277,-0.13662 -0.13663,-0.81976 4.64528,-0.27325 v -0.81976 l 1.77614,-0.13662 v -0.95638 h 0.95638 l -0.13662,-0.95639 h 0.95638 v -0.95638 h 1.77614 v -0.95638 l 1.77614,-0.13663 v -0.81975 l 1.91276,-0.13663 -0.13663,-0.95638 h 0.95638 v -0.95638 h 2.73252 v -0.95638 l 1.77614,-0.13663 v -0.81975 l 2.73252,-0.13663 v -0.95638 h 1.77614 v -0.95638 l 1.77614,-0.13663 v -0.95638 h 0.95638 v -0.95638 h 0.81975 v -0.95639 h 0.95639 v -0.95638 h 0.81975 l -0.13662,-2.73252 h 0.95638 v -0.95638 h 0.95638 l -0.13663,-0.95638 2.86915,-0.13663 -0.13663,-1.77613 -15.57536,0.5465 -0.13662,-0.81976 h -1.77614 v -0.95638 l -1.91276,0.13663 v 0.95638 h -1.77614 v 0.95638 h -0.95638 l 0.13662,0.95638 h -0.95638 l 0.27325,5.60167 h -0.95638 v 0.95638 h -0.95638 l 0.13662,0.95638 h -0.95638 v 0.95638 h -1.77614 v 0.95639 l -1.77613,0.13662 v 0.81976 l -2.73252,0.13662 v 0.95639 l -2.73252,0.13662 v -0.95638 h -0.95638 l -0.13663,-1.77614 h -0.95638 v -2.73252 h -0.95638 v -0.95638 l -0.95639,0.13663 v -0.95639 h -0.95638 l -0.13662,-1.77613 0.95638,-0.13663 v -0.81976 l 0.95638,-0.13662 -0.13663,-1.77614 h 0.95639 l -0.13663,-2.73252 0.95638,-0.13662 -0.40988,-7.37781 h 0.95639 v -0.95638 h 0.95638 l -0.27325,-3.6889 h 0.95638 l -0.40988,-10.11032 h 0.95638 l -0.13662,-1.91277 h 0.95638 v -0.95638 l 3.6889,-0.13662 -0.13663,-0.95639 2.86915,-0.13662 v 0.95638 h 0.95638 v 0.95638 l 5.46504,-0.27325 0.13663,0.95638 0.81975,-0.13662 0.13663,0.95638 h 0.81975 l 0.13663,0.95638 0.81975,-0.13663 0.13663,0.95639 16.53174,-0.68313 v 0.95638 l 2.73252,-0.13663 v -0.95638 l 3.6889,-0.13663 v -0.95638 h 0.81976 l -0.13663,-3.6889 h -0.81975 l -0.13663,-2.73252 h 0.95638 l -0.13662,-0.95638 -0.95638,0.13663 v -2.86915 l -0.95639,0.13663 v -0.95639 h -1.91276 v -0.81975 l -2.73252,0.13662 v 0.81976 l -1.77614,0.13663 -0.13662,-0.95639 -1.77614,0.13663 v -0.95638 h -1.91276 v 0.95638 l -3.6889,0.13663 0.13662,0.95638 -3.6889,0.13662 -0.13663,-0.95638 -4.50865,0.27325 v 0.95639 l -15.57536,0.5465 v 0.95638 l -6.42143,0.27325 -0.13662,-0.95638 -1.77614,0.13663 v -0.95638 l -1.91276,0.13662 v -0.95638 h -1.77614 l -0.13663,-0.81976 h -0.81975 l -0.13663,-0.95638 h -0.81975 l -0.13663,-0.81975 h -0.95638 l -0.13663,-6.42142 h 0.81976 v -1.91277 h 0.81975 v -0.95638 h 0.95639 v -0.95638 h 0.81975 l -0.13662,-3.6889 h 0.95638 v -0.95639 h 0.81975 v -0.95638 h 0.95639 l -0.13663,-4.64528 h 0.81975 v -0.95638 h 0.95639 l -0.13663,-0.95638 h 0.95638 l -0.13662,-5.60167 h 0.81975 v -1.91276 h 0.81976 v -1.77614 l 0.95638,-0.13663 -0.13663,-0.81975 0.95639,-0.13663 v -1.77614 h 0.81975 v -1.91276 h 0.81976 v -1.91276 h 0.95638 l -0.13663,-1.77614 0.95639,-0.13663 -0.13663,-1.77613 h 0.95638 v -0.95639 h 0.81976 v -0.95638 h 0.95638 v -0.95638 h 0.81975 z m 4.64529,22.81654 v 0.95638 h -0.95638 l 0.13662,1.91276 h -0.95638 l 0.13663,0.95638 h -0.95639 v 0.95639 h -0.95638 l 0.13663,1.77613 -0.95638,0.13663 0.13662,1.77614 h -0.95638 v 0.95638 h -0.81975 v 0.95638 h -0.95639 v 0.95638 l -1.77613,0.13663 v 0.81975 l -0.95639,0.13663 0.13663,0.81976 -0.95638,0.13662 0.13662,1.77614 -0.95638,0.13663 v 0.81975 l -0.95638,0.13663 0.13663,2.73252 4.64528,-0.27325 v 0.95638 l 3.6889,-0.13663 v 0.95638 l 0.95638,-0.13662 v 0.95638 l 18.44451,-0.68313 v 0.81975 l 3.6889,-0.13662 v -0.81976 l 5.46504,-0.27325 v -0.95638 l 3.6889,-0.13663 v 0.95638 l 5.60167,-0.27325 v 0.95638 h 0.95638 v 0.81976 h 1.77614 v -0.95638 l 5.60166,-0.27325 v 0.95638 l 16.53174,-0.68313 v -0.95638 l 7.37781,-0.27326 -0.13663,-0.95638 h 1.91276 v -0.95638 h 0.81976 l -0.13663,-4.64528 h -0.95638 v -0.81976 h -0.95638 v -0.95638 l -0.95638,0.13663 v -0.95639 h -0.95638 v -0.95638 l -0.95639,0.13663 v -0.95638 h -0.95638 v -0.95638 l -0.95638,0.13662 -0.13663,-4.64528 h -0.95638 v -0.81976 h -0.95638 l -0.13662,-1.91276 -0.81976,0.13662 -0.13663,-0.95638 -5.46504,0.27325 v 0.81976 l -6.42142,0.27325 v 0.95638 h -0.81975 v 0.95639 h -0.95638 v 0.95638 l -1.77614,0.13662 0.13662,1.77614 h -0.95638 v 0.95638 h -0.95638 l 0.13663,0.95639 h -0.95639 v 0.95638 h -0.95638 l 0.13663,0.95638 h -0.95638 v 0.95638 l -1.77614,0.13663 v 0.81975 l -0.95638,0.13663 0.13662,0.81975 -0.95638,0.13663 v 0.81976 l -0.95638,0.13662 0.13663,1.77614 h -0.95639 l 0.13663,0.95638 h -0.95638 v 0.95638 h -0.95638 l 0.13662,0.95639 -2.86914,0.13662 v -0.95638 l -0.95639,0.13663 v -2.86915 h 0.81976 v -0.95638 h 0.95638 v -0.95638 h 0.81976 l -0.13663,-2.73252 h 0.95638 l -0.13662,-2.86915 h 0.95638 v -0.95638 h 0.95638 l -0.13662,-0.95638 h 0.95638 v -0.95638 h 0.81975 v -0.95639 h 0.95639 v -0.95638 h 0.81975 v -2.73252 h -0.95638 l -0.13663,-0.95638 -1.77613,0.13663 v 0.95638 l -2.73252,0.13662 v 0.81976 l -6.42142,0.27325 v -0.95638 l -1.77614,0.13663 -0.13663,-0.95639 -5.46504,0.27326 0.13663,2.73252 h 0.81975 l 0.13663,0.95638 0.81976,-0.13663 0.13662,1.91277 0.95638,-0.13663 v 1.91276 h 0.95639 l 0.13662,1.77614 h 0.81976 l 0.13662,1.77614 h 0.95639 v 0.95638 h 0.95638 v 1.77614 h -0.95638 l 0.13662,0.95638 h -0.95638 v 0.95638 h -0.95638 l 0.13662,0.95638 h -0.95638 v 0.95639 h -0.81975 v 0.95638 l -10.11033,0.40988 -0.13662,-0.95639 -2.73252,0.13663 v -0.95638 l -0.95638,0.13662 -0.54651,-15.71198 -0.95638,0.13662 v -0.95638 z m 57.24628,25.2758 v 0.95638 l -4.50866,0.13663 v 0.95638 l -1.91276,0.13663 v -0.95638 l -5.46504,0.27325 v 1.77614 h -0.95638 l 0.13663,2.86914 h -0.81976 v 0.95638 h -0.95638 v 0.95638 h -0.81976 v 1.77614 h 0.95638 v 0.95638 l 3.68891,-0.13662 v 0.81975 l 3.6889,-0.13662 0.13662,0.95638 1.77614,-0.13663 v 0.95639 l 2.86915,-0.13663 -0.13663,-0.81976 2.86915,-0.13662 -0.13663,-0.95638 4.64528,-0.13663 v 0.81976 l 6.42142,-0.13663 v -0.95638 h 0.95639 l -0.27326,-6.55805 h 0.95639 l -0.13663,-1.77614 h -0.95638 v -1.91276 l -9.29057,0.40988 v -0.95638 z m -37.98202,18.17126 v 0.95638 l -6.42142,0.27325 0.13663,0.95638 -4.64529,0.13663 v 0.95638 l -3.6889,0.13663 v 0.81975 l -0.81975,0.13663 0.13662,4.50865 h 0.95638 v 1.91277 l 9.29057,-0.40988 v 0.95638 l 1.91276,-0.13662 -0.13662,-0.95639 3.6889,-0.13662 v -0.95638 h 2.73252 v 0.81975 h 0.95638 v 0.95638 h 0.95638 v 0.81976 h 1.91277 v -0.95638 l 1.77613,-0.13663 v -0.81975 l 0.81976,-0.13663 v -0.81976 l 0.95638,-0.13662 v -0.81976 l 0.81976,-0.13662 v -0.81976 l 0.95638,-0.13662 v -0.81976 l 0.81975,-0.13663 -0.13662,-5.46504 h -0.95638 v -0.81975 h -0.95639 v 0.95638 h -0.95638 l 0.13663,0.95638 h -0.95638 v 0.95638 h -1.77614 v -0.95638 l -1.91276,0.13663 v -0.95638 l -2.73252,0.13662 -0.13663,-0.95638 z m 62.5747,186.03911 h 2.86914 v 0.95639 h 1.91277 v 0.81975 h 0.95638 v 0.95638 h 1.91276 v 0.95638 h 0.95638 v 0.81976 h 0.95639 v 0.95638 h 1.91276 v 0.95638 h 1.09301 v 1.77614 h 0.95638 v 1.91277 h 1.91276 v 0.81975 h 0.95638 v 2.73252 h 0.95639 v 1.91276 h 0.95638 v 0.81976 h 0.95638 v -0.40988 h 0.95638 v 2.04939 h -0.95638 v 2.73252 h -0.95638 v 0.95638 h -11.61321 v -0.95638 h -7.65105 v -0.95638 h -1.91277 v 0.95638 h -2.04939 v 0.95638 h -4.78191 v -0.95638 h -1.91276 v 0.95638 h -2.86915 v 0.81976 h -3.82552 v -0.81976 h -2.04939 v -0.95638 h -4.78191 v 0.95638 h -13.52597 v -0.95638 h -1.91277 v 0.95638 h -4.78191 v -0.95638 h -2.86914 v 0.95638 h -5.87492 v 0.81976 h -13.38934 v -0.81976 h -2.04939 v -0.95638 h -1.91277 v -0.95638 H 752.15 v -0.81976 h -1.91276 v 0.81976 h -1.91277 v 0.95638 h -1.91276 v 0.95638 h -0.95638 v 0.81976 h -2.86915 v 0.95638 h -6.8313 v 0.95638 h -2.86914 v -0.95638 h -2.86915 v 0.95638 h -6.8313 v -0.95638 h -1.91276 v -0.95638 h -1.91276 v -0.81976 h -0.95639 v -1.91276 H 717.447 v -0.81976 h -0.95638 v -0.95638 h -0.95638 v -0.27325 h 0.95638 v -1.77614 h 0.95638 v 0.40988 h 0.95638 v -0.81976 h 0.95639 v -4.64528 h 0.95638 v -0.81975 h 2.86914 v 0.81975 h 4.91854 v -0.81975 h 1.91276 v 0.81975 h 3.82553 v 0.95638 h 2.86915 v -0.95638 h 1.91276 v 0.95638 h 20.35727 v -0.95638 h 7.65105 v 0.95638 h 14.48236 v 0.95639 h 8.74406 v 0.81975 h 2.86914 v -0.81975 h 4.78191 v 0.81975 h 4.78191 v -0.81975 h 9.70045 v -0.95639 h 0.95638 v -0.95638 h 0.95638 v -0.81975 h 0.95638 v -0.95639 h 0.95638 v -0.95638 h 1.91277 v -1.77614 h 0.95638 v -0.95638 h 0.95638 v -0.95638 h 1.09301 V 425.792 h 0.95638 v -0.95638 h 0.95638 v -0.95638 h 0.95639 v -0.81975 h 0.95638 z m -46.99934,57.81562 h 6.55805 v 0.95638 h 0.95638 v 1.09301 h 1.77614 v 0.95638 h 1.91276 v 0.95638 h 0.95638 v 1.09301 h 1.77614 v 0.95638 h 1.91276 v 0.95638 h 3.68891 v 1.09301 h 0.81975 v 0.95638 h 1.91277 v 0.95638 h 0.95638 v 1.09301 h 0.81975 v 0.40988 h -0.81975 v 0.95638 h -0.95638 v 0.95638 h -0.95639 v 1.09301 h -0.95638 v 0.95638 h -0.81975 v 0.95639 h -0.95639 v 1.093 h -3.6889 v 0.95638 h -2.73252 v 2.04939 h -0.95638 v 3.00578 h -0.95638 v 0.95638 H 786.853 v 0.95638 h -0.81976 v 3.6889 h 0.81976 v 0.95638 h 1.91276 v 1.09301 h 3.55228 v -1.09301 h 8.47081 v 1.09301 h 4.37203 v -1.09301 h 6.69467 v 1.09301 h 2.5959 v -1.09301 h 0.95638 v -1.91276 h 0.81975 v -1.09301 h 0.95638 v -0.95638 h 0.95639 v -0.95638 h 0.95638 v -1.09301 h 2.86914 v 1.09301 h 1.63952 v -1.09301 h 1.093 v 1.09301 h 2.73252 v 0.95638 h 0.95638 v 0.95638 h 1.77614 v 1.09301 h 1.91277 v 0.95638 h 0.95638 v 0.95638 h 0.81975 v 1.09301 h 0.95639 v 2.04939 h 0.95638 v 0.95638 h 0.95638 v 0.95638 h 0.81975 v 3.41565 h -0.81975 v 3.96216 h -0.95638 v 1.093 h -0.95638 v 0.95639 h -7.37781 v 0.95638 h -1.77614 v 1.09301 h -0.95638 v 0.95638 h -0.95638 v 0.95638 h -1.77614 v 1.09301 h -0.95638 v 0.95638 h -1.77614 v 1.09301 h -0.95638 v 0.95638 h -1.91276 v 0.95638 h -0.81976 v 1.09301 h -0.95638 v 0.95638 h -1.91276 v 0.95638 h -0.81976 v 1.09301 h -0.95638 v 0.95638 h -1.91276 v 0.95638 h -2.86915 V 537.165 h 0.95638 v -0.95638 h 0.95638 v -1.09301 h 0.81976 v -0.95638 h 0.95638 v -0.95638 h 0.95638 v -1.09301 h 0.95639 v -2.04939 h 0.81975 v -12.56959 h -0.81975 v -3.00577 h -10.93008 v 0.95638 h -0.95638 v 0.95638 h -0.95639 v 1.09301 h -0.95638 v 0.95638 h -0.81975 v 0.95638 h -0.95639 v 1.09301 h -0.95638 v 10.65683 h 0.95638 v 6.01154 h 0.95639 v 3.00577 h 0.81975 v 0.40988 h -0.81975 v 5.60167 h 0.81975 v 3.00577 h 0.95638 v 0.95638 h 0.95639 v 1.09301 h 0.95638 v 2.04939 h 0.81975 v 1.91276 h 0.95639 v 1.09301 h 0.95638 v 0.95638 h 0.95638 v 0.95638 h 0.81975 v 1.09301 h 0.95639 v 0.95638 h 0.95638 v 0.95638 h 0.95638 v 1.09301 h 0.81976 v 0.95638 h 0.95638 v 0.95638 h 0.95638 v 1.09301 h 0.95638 v 3.96216 h 1.77614 v 0.95638 h 1.91276 v 1.09301 h 1.77614 v 0.95638 h 0.95638 v 2.04939 h 0.95638 v 0.95638 h 0.81976 v 1.09301 h 1.91276 v 0.95638 h 2.73252 v 0.95638 h 1.77614 v 1.09301 h 1.91276 v 0.95638 h 1.77614 v 0.95638 h 0.95638 v 1.09301 h 1.91277 v 0.95638 h 0.81975 v 0.95638 h 2.86915 v 1.09301 h 3.6889 v 0.95638 h 1.77614 v 0.95638 h 0.95638 v 2.04939 h 0.95638 v 0.40988 h -0.95638 v 0.95638 h -0.95638 v 1.09301 h -0.95638 v 0.95638 h -2.73252 v 0.95639 h -9.15394 v 1.093 h -3.68891 v 0.95639 h -0.95638 v 0.95638 h -0.95638 v 1.093 h -3.82553 v -1.093 h -0.81975 v -0.95638 h -0.95638 v -0.95639 h -0.95639 v -1.093 h -0.95638 v -0.95639 h -0.81975 v -0.95638 h -0.95638 v -1.09301 h -0.95639 V 589.766 h -0.95638 v -1.09301 h -0.81975 v -1.91276 h -0.95639 v -1.09301 h -0.95638 v -1.91276 h -1.77614 v -1.09301 h -0.95638 v -1.91276 h -0.95638 v -2.04939 h -0.95638 v -0.95638 h -0.81976 v -1.09301 h -0.95638 v -0.95638 h -0.95638 v -3.00577 h -0.81976 v -0.95639 h -0.95638 v -2.04939 h -0.95638 v -3.00577 h -0.95638 v -1.09301 h -0.81976 v -3.96215 h -0.95638 v -2.04939 h -0.95638 v -1.91276 h -0.95638 v -1.09301 h -0.81976 v -3.00577 h -0.95638 v -6.96793 h -0.95638 v -1.093 h -2.5959 v 1.093 h -0.95638 v 3.55228 h 0.95638 v 2.45927 h -0.95638 v 2.04939 h -0.95638 v 0.95638 H 786.853 v 2.04939 h -0.81976 v 0.95638 h -0.95638 v 0.95638 h -1.91276 v 3.00577 h -0.81976 v 2.04939 h -0.95638 v 0.95638 h -0.95638 v 2.04939 h -0.95638 v 6.01155 h -0.81976 v 1.093 h -1.91276 v 0.95639 h -1.77614 v 0.95638 h -0.95638 v 1.09301 h -0.95639 v 1.91276 h -0.81975 v 1.09301 h -1.91277 v 0.95638 h -0.95638 v 2.04939 h -0.81975 v 0.95638 h -0.95638 v 2.04939 h -0.95639 v 0.95638 h -5.46504 v 0.95638 h -0.95638 v 1.09301 h -0.95638 v 0.95638 h -2.73252 v 1.09301 h -0.95638 v 0.95638 h -1.77614 v 0.95639 h -1.91276 v 1.093 h -3.6889 v 0.95639 h -1.77614 v 0.95638 h -0.95638 v 1.093 h -1.91277 v 0.95639 h -12.84284 v 0.95638 h -0.95638 v 1.09301 h -0.81976 v 0.95638 h -3.00577 v -0.95638 h -8.19756 v -1.09301 h -0.95638 v -4.37203 h 0.95638 v -0.95638 h 3.68891 v -0.95639 h 0.95638 v 0.95639 h 2.73252 v -0.95639 h 3.6889 v -1.093 h 2.73252 v -0.95639 h 6.42142 v -1.093 h 1.91276 v -0.95639 h 1.77614 v -0.95638 h 3.6889 v -1.09301 h 1.91277 v -0.95638 h 0.81975 v -0.95638 h 1.91276 v -1.09301 h 4.64529 v -0.95638 h 0.81975 v -2.04939 h 0.95639 v -0.95638 h 1.91276 v -0.95638 h 0.81975 v -1.09301 h 1.91277 v -0.95638 h 0.81975 v -0.95638 h 0.95639 v -1.09301 h 0.95638 v -0.95638 h 0.95638 v -0.95638 h 1.77614 v -1.09301 h 0.95638 v -0.95638 h 0.95638 v -1.09301 h 0.81976 v -0.95638 h 0.95638 v -2.04939 h 0.95638 v -0.95639 h 0.95638 v -2.04939 h 0.81976 v -1.91276 h 0.95638 v -4.09878 h 0.95638 v -4.91853 h 0.95638 v -1.09301 h 0.81976 v -0.95638 h 0.95638 v -2.04939 h 0.95638 v -0.95638 h 0.95639 v -1.09301 h 0.81975 v -7.92431 h 0.95638 V 537.165 h 0.95638 v -7.10455 h 0.95639 v -3.00577 h 0.81975 v -8.60744 h -0.81975 v -3.00577 h -3.6889 v 0.95638 h -1.77614 v 1.09301 h -0.95638 v 0.95638 h -0.81976 v 0.95638 h -0.95638 v 1.09301 h -0.95638 v 0.95638 h -0.95639 v 3.00578 h -0.81975 v 0.95638 h -0.95638 v 1.09301 h -0.95639 v 0.95638 h -0.95638 v 0.95638 h -0.81975 v 1.09301 h -0.95638 v 0.95638 h -0.95639 v 1.09301 h -1.77613 v 0.95638 h -1.91277 v 0.95638 h -0.95638 v 1.09301 h -0.81976 v 1.91276 h -0.95638 v 1.09301 h -1.91276 v 0.95638 h -0.81976 v 0.95638 h -2.04939 v -0.95638 h -0.81975 v -0.40988 h 0.81975 V 537.165 h 0.95639 v -0.95638 h 0.95638 v -1.09301 h 0.95638 v -1.91276 h 0.81975 v -1.09301 h 0.95639 v -0.95638 h 0.95638 v -1.09301 h 0.81975 v -0.95638 h 0.95639 v -0.95638 h 0.95638 v -2.04939 h 0.95638 v -0.95638 h 0.81976 v -1.09301 h 0.95638 v -0.95638 h 0.95638 v -8.60744 h -0.95638 v -1.09301 h -6.42142 v -0.95638 h -2.5959 v 0.95638 h -2.86914 v 1.09301 h -7.3778 v 0.95638 h -6.42143 v 0.95638 h -1.91276 v -0.95638 h -0.95638 v -0.95638 h -8.19756 v 0.95638 h -1.77614 v 0.95638 h -3.82552 v -0.95638 h -0.95639 v -0.95638 h -0.95638 v -1.09301 h -1.77614 v -0.95638 h -0.95638 v -2.04939 h -0.95638 v -2.04939 h -0.81976 v -3.00577 h -0.95638 v -1.36626 h 0.95638 v -0.95638 h 5.60167 v 0.95638 h 3.6889 v 1.09301 h 2.73252 v 0.95638 h 4.50866 v -0.95638 h 5.60166 v 0.95638 h 0.95638 v 0.95638 h 3.68891 v 1.09301 h 7.24117 v -1.09301 h 0.95638 v -0.95638 h 0.95639 v -2.04939 h 0.95638 v -1.91276 h 0.81975 v -2.04939 h 0.95639 v -0.95639 h 4.7819 v 0.95639 h 0.81976 v 0.95638 h 1.91276 v 1.09301 h 0.95639 v 0.95638 h 0.81975 v 0.95638 h 0.95638 v 3.00577 h 0.95639 v 1.09301 h 1.77613 v 0.95638 h 0.95638 v 0.95638 h 2.5959 v -0.95638 h 0.95638 v -6.01154 h 0.95638 v -3.00577 h 0.95638 v -2.04939 h 0.81976 v -1.91277 h 0.95638 v -4.64528 h -0.95638 v -1.09301 h -1.77614 v -0.95638 h -0.95638 v -5.46504 h 0.95638 v -0.95638 h 0.95638 v -0.95638 h 0.81976 v -1.09301 h 0.95638 z m -12.84284,62.30144 h 7.51443 v 0.95638 h 0.81975 v 2.04939 h 0.95639 v 0.27326 h -0.95639 v 1.093 h -1.77613 v 0.95639 h -2.73252 v 0.95638 h -0.95638 v 1.09301 h -0.95639 v 0.95638 h -3.6889 v 1.09301 h -2.73252 v 0.95638 h -2.73252 v 0.95638 h -1.91276 v 1.09301 h -2.73252 v 0.95638 h -1.91276 v 0.95638 h -0.81976 v 1.09301 h -0.95638 v 0.95638 h -2.73252 v 0.95638 h -4.64528 v 1.09301 h -2.73252 v 0.95638 h -1.91277 v 0.95638 h -1.77613 v 1.09301 h -0.95639 v 0.95638 h -0.95638 v 0.95638 h -1.77614 v 1.09301 h -2.73252 v 0.95638 h -1.093 v -0.95638 h -2.73252 v -1.09301 h -0.95638 v -0.95638 h -0.95639 v -3.96215 h -1.77613 v -1.09301 h -0.95639 v -0.95638 h -0.95638 v -2.04939 h -0.95638 v -0.95638 h -0.81976 v -0.95638 h -0.95638 v -5.46504 h 0.95638 v -2.04939 h 0.81976 v -0.95638 h 0.95638 v -0.95639 h 2.86915 v 0.95639 h 1.91276 v 0.95638 h 1.77614 v 1.09301 h 14.61898 v -1.09301 h 3.82553 v 1.09301 h 3.55227 v -1.09301 h 1.91276 v -0.95638 h 10.11033 v -0.95639 h 0.95638 v -1.093 h 1.77614 v -0.95639 h 1.91276 z m 32.1071,91.63057 h 5.46504 v 0.5465 h 1.63951 v 0.54651 h 2.73252 v 0.5465 h 0.54651 v 0.54651 h 1.09301 v 0.5465 h 0.5465 v 0.5465 h 0.5465 v 0.54651 h 0.54651 v 4.91853 h -0.54651 v 0.54651 h -1.093 v 0.5465 h -0.54651 v 0.5465 h -1.09301 v 0.54651 h -1.093 v 4.91853 h -0.54651 v 0.54651 h -0.5465 v 2.18601 h 0.5465 v 0.54651 h 0.54651 v 2.18601 h -0.54651 v 0.54651 h -0.5465 v 3.27902 h 14.7556 v -0.5465 h 2.18602 v -0.54651 h 1.09301 v -0.5465 h 0.5465 v -0.54651 h 0.54651 v -1.093 h 0.5465 v -0.54651 h 0.5465 v -1.63951 h 0.54651 v -0.5465 h 2.18601 v 0.5465 h 0.54651 v 0.5465 h 0.5465 v 0.54651 h 0.5465 v 0.5465 h 1.09301 v 0.54651 h 2.18602 v 0.5465 h 0.5465 v 0.5465 h 1.09301 v 0.54651 h 0.5465 v 0.5465 h 0.54651 v 0.54651 h 0.5465 v 0.5465 h 0.54651 v 1.63951 h 0.5465 v 0.5465 h 1.09301 v 0.54651 h 0.5465 v 0.5465 h 0.5465 v 1.09301 h 0.54651 v 3.27902 h -0.54651 v 0.54651 h -0.5465 v 0.5465 h -0.5465 v 0.54651 h -2.18602 v 0.5465 h -1.63951 v 0.5465 h -6.01154 v 0.54651 h -0.54651 v 1.09301 h -0.5465 v 1.093 h -0.54651 v 0.54651 h -1.63951 v 0.5465 h -0.5465 v 1.09301 h -0.5465 v 0.5465 h -1.63952 v 0.54651 h -0.5465 v 0.5465 h -1.09301 v 0.5465 h -0.5465 v 0.54651 h -1.09301 v 0.5465 h -0.5465 v 1.09301 h -0.54651 v 1.09301 h -0.5465 v 0.5465 h -0.54651 v 0.54651 h -1.093 v 0.5465 h -0.54651 v 0.5465 h -3.27902 v -1.63951 h 0.5465 v -0.5465 h 0.54651 v -1.09301 h 0.5465 v -1.63951 h 0.54651 v -1.09301 h 0.5465 v -1.09301 h 0.5465 v -0.5465 h 0.54651 v -0.54651 h 0.5465 V 671.013 h 0.5465 v -1.09301 h 0.54651 v -1.09301 h 0.5465 v -1.09301 h 0.54651 v -0.5465 h 0.5465 v -2.73252 h 0.5465 v -1.63951 h -6.01154 v 0.5465 h -8.74406 v 0.5465 h -0.54651 v 15.30211 h 0.54651 v 1.09301 h 0.5465 v 1.63951 h -0.5465 v 0.54651 h -0.54651 v 3.27902 h 0.54651 v 1.63951 h -0.54651 v 1.63951 h -0.5465 v 1.09301 h 0.5465 v 1.09301 h 1.09301 v 0.5465 h 1.09301 v 0.54651 h 0.5465 v 0.5465 h 2.18602 v 0.5465 h 1.09301 v 0.54651 h 0.5465 v 1.09301 h -0.5465 v 0.5465 h -1.63951 v 0.5465 h -2.73252 v 0.54651 h -4.37203 v -0.54651 h -1.09301 v 0.54651 h -3.82553 v -0.54651 h -1.09301 v -0.5465 h -4.91853 v -0.5465 h -0.54651 v -1.09301 h 0.54651 v -0.54651 h 2.73252 v -0.5465 h 0.5465 v -0.5465 h 0.5465 v -0.54651 h 0.54651 v -0.5465 h 0.5465 v -4.91854 h -0.5465 v -0.5465 h -0.54651 v -0.5465 h -0.5465 v -1.09301 h -0.5465 v -1.09301 h 0.5465 v -0.5465 h 1.09301 v -0.54651 h 0.5465 v -0.5465 h 0.54651 v -1.63951 h -0.54651 v -1.63951 h -0.5465 v -0.54651 h -0.54651 v -7.65105 h -0.5465 v -1.09301 h 0.5465 v -1.63951 h -0.5465 v -1.09301 h -0.5465 v -1.63951 h 0.5465 v -1.63951 h -0.5465 v -0.54651 h -1.09301 v 0.54651 h -1.09301 v 0.5465 h -4.37203 v -0.5465 h -1.09301 v -0.54651 h -1.09301 v -0.5465 h -0.5465 v -2.73252 h 0.5465 v -0.5465 h 4.91854 v 0.5465 h 2.18602 v 0.5465 h 2.73251 v -1.093 h -0.5465 v -1.09301 h -0.5465 v -2.18602 h 0.5465 v -2.18601 h 0.5465 v -2.18602 h 0.54651 v -0.5465 h 0.5465 v -0.54651 h 0.54651 v -0.5465 h 0.5465 v -0.5465 h -0.5465 v -0.54651 h -0.54651 v -0.5465 h -0.5465 v -0.54651 h -0.54651 v -0.5465 h -0.5465 v -1.09301 h 0.5465 v -0.5465 h 0.54651 v -0.54651 h 0.5465 v -2.18601 h -0.5465 v -0.54651 h -0.54651 v -0.5465 h -0.5465 v -3.27902 h 0.5465 v -1.09301 h 0.54651 v -0.5465 h 0.5465 v -1.09301 h 0.54651 v -0.54651 h 1.093 z m -57.38291,1.63951 h 6.01155 v 0.54651 h 3.27902 v 0.5465 h 0.5465 v 0.5465 h 1.09301 v 0.54651 h 0.54651 v 0.5465 h 0.5465 v 0.5465 h 0.5465 v 2.18602 h -0.5465 v 0.5465 h -0.5465 v 0.54651 h -1.09301 v 0.5465 h -0.54651 v 0.54651 h -1.093 v 1.63951 h -0.54651 v 1.09301 h -0.5465 v 2.73252 h 0.5465 v 2.73251 h -0.5465 v 2.73252 h -0.5465 v 0.54651 h -1.09301 v 3.82553 h 1.09301 v 0.5465 h 4.91853 v -0.5465 h 0.5465 v -1.09301 h 0.54651 v -2.73252 h 0.5465 v -0.54651 h 0.54651 v -0.5465 h 0.5465 v -0.5465 h 0.5465 v -0.54651 h 0.54651 v -0.5465 h 0.5465 v -0.54651 h 0.54651 v -0.5465 h 3.82552 v 0.5465 h 0.54651 v 0.54651 h 0.5465 v 0.5465 h 1.09301 v 0.54651 h 0.5465 v 1.093 h 0.54651 v 0.54651 h 0.5465 v 0.5465 h 0.5465 v 0.54651 h 0.54651 v 0.5465 h 0.5465 v 3.82553 h -0.5465 v 0.5465 h -0.54651 v 0.5465 h -0.5465 v 0.54651 h -0.5465 v 0.5465 h -1.09301 v 0.54651 h -0.54651 v 0.5465 h -0.5465 v 0.5465 h -0.5465 v 0.54651 h -0.54651 v 0.5465 h -1.63951 v 2.18602 h -0.5465 v 1.09301 h -0.54651 v 0.5465 h -0.5465 v 1.09301 h -0.5465 v 1.09301 h -0.54651 v 0.5465 h -0.5465 v 1.09301 h -0.54651 v 0.5465 h -0.5465 v 0.5465 h -0.5465 v 0.54651 h -0.54651 v 1.09301 h -0.5465 v 1.093 h -0.54651 v 4.37204 h 0.54651 v 0.5465 h 0.5465 v 3.27902 h -0.5465 v 0.54651 h -0.54651 v 0.5465 h -0.5465 v 0.5465 h -0.5465 v 0.54651 h -0.54651 v 0.5465 h -0.5465 v 0.54651 h -0.54651 v 1.093 h -0.5465 v 0.54651 h -0.5465 v 2.73252 h -0.54651 v 2.18601 h 0.54651 v 0.54651 h 1.63951 v -0.54651 h 1.09301 v -0.5465 h 0.5465 v -0.54651 h 0.5465 v -1.093 h 0.54651 v -0.54651 h 0.5465 v -0.5465 h 1.09301 v -0.5465 h 0.5465 v -1.09301 h 0.54651 v -1.09301 h 0.5465 v -0.5465 h 0.54651 v -1.63952 h 0.5465 v -0.5465 h 1.09301 v -0.5465 h 0.5465 v -1.09301 h 0.5465 v -0.54651 h 0.54651 v -0.5465 h 4.91853 v 0.5465 h 0.54651 v 0.54651 h 0.5465 v 1.09301 h 0.54651 v 0.5465 h 0.5465 v 0.5465 h 0.5465 v 3.27903 h -0.5465 v 0.5465 h -0.5465 v 0.54651 h -1.09301 v 1.093 h -0.54651 v 0.54651 h -1.63951 v 0.5465 h -0.5465 v 0.5465 h -0.54651 v 0.54651 h -0.5465 v 0.5465 h -1.09301 v 0.54651 h -0.5465 v 0.5465 h -1.09301 v 0.5465 h -0.5465 v 0.54651 h -4.37203 v 0.5465 h -0.54651 v 0.54651 h -0.5465 v 0.5465 h -1.63951 v 0.5465 h -1.09301 v 1.09301 h -0.54651 v 3.27903 h 4.91854 v 0.5465 h 1.09301 v 0.5465 h 0.5465 v 0.54651 h 1.09301 v 0.5465 h 1.63951 v 0.5465 h 1.09301 v 0.54651 h 0.5465 v 2.18601 h 1.09301 v 0.54651 h 0.5465 v 2.73252 h 0.54651 v 0.5465 h 0.5465 v 0.54651 h 0.54651 v 0.5465 h 0.5465 v 2.73252 h -0.5465 v 0.5465 h -0.54651 v 1.09301 h -0.5465 v 0.5465 h -1.09301 v 0.54651 h -2.18602 v 0.5465 h -2.73251 v -0.5465 h -1.63952 v -0.54651 h -1.63951 v -0.5465 h -0.5465 v -1.09301 h -0.54651 v -6.01154 h -0.5465 v -3.27902 h -0.5465 v -0.54651 h -0.54651 v -0.5465 h -0.5465 v -0.54651 h -0.54651 v -0.5465 h -0.5465 v -0.5465 h -1.63951 v 4.37203 h 0.5465 v 0.5465 h 0.54651 v 2.73252 h -0.54651 v 8.19756 h 0.54651 v 2.18602 h -0.54651 v 5.46503 h -0.5465 v 1.09301 h -0.5465 v 2.73252 h 0.5465 v 2.18602 h -0.5465 v 2.73252 h 0.5465 v 2.73252 h 0.5465 v 2.18601 h -0.5465 v 1.63951 h 0.5465 v 3.82553 h 0.54651 v 1.09301 h 0.5465 v 0.5465 h 0.5465 v 0.54651 h 1.63952 v -0.54651 h 1.093 v -1.093 h -0.5465 v -1.09301 h 0.5465 v -0.54651 h 3.27903 v 0.54651 h 0.5465 v 0.5465 h 0.54651 v 4.37203 h -0.54651 v 0.54651 h -0.5465 v 0.5465 h -0.54651 v 0.5465 h -0.5465 v 0.54651 h -1.09301 v 0.5465 h -3.82553 v -0.5465 h -2.18601 v 0.5465 h -2.18602 v 0.54651 h -3.27902 v 0.5465 h -2.18602 v -0.5465 h -1.63951 v -0.54651 h -0.5465 v -0.5465 h -0.5465 v -0.54651 h -0.54651 v -2.18601 h -0.5465 v -1.09301 h 0.5465 v -4.37203 h 0.54651 v -2.18602 h 0.5465 V 741.512 h 0.5465 v -0.54651 h 1.09301 v -6.01154 h 0.5465 v -1.09301 h -0.5465 v -1.093 h -0.5465 v -0.54651 h -0.54651 v -2.18601 h 0.54651 v -0.54651 h 0.5465 v -0.5465 h 0.5465 v -4.37203 h -0.5465 v -2.18602 h -0.5465 v -0.5465 h -0.54651 v -2.18602 h 0.54651 v -0.5465 h 0.5465 v -1.09301 h 0.5465 v -2.18602 h -0.5465 v -1.63951 h 0.5465 v -3.27902 h 0.54651 v -1.63951 h 0.5465 v -1.63951 h -0.5465 v -5.46504 h -0.54651 v -2.73252 h -0.5465 v -1.09301 h -2.73252 v 0.5465 h -0.5465 v 0.54651 h -0.54651 v 2.18601 h -0.5465 v 0.54651 h -1.09301 v 1.63951 h -0.5465 v 0.5465 h -0.54651 v 0.54651 h -0.5465 v 0.5465 h -0.5465 v 0.5465 h -0.54651 v 0.54651 h -0.5465 v 0.5465 h -0.54651 v 0.54651 h -0.5465 v 0.5465 h -0.5465 v 0.5465 h -0.54651 v 0.54651 h -0.5465 v 0.5465 h -0.54651 v 0.54651 h -0.5465 v 0.5465 h -0.5465 v 1.09301 h -0.54651 v 0.5465 h -0.5465 v 0.54651 h -0.5465 v 1.093 h -0.54651 v 0.54651 h -0.5465 v 1.093 h -0.54651 v 0.54651 h -1.093 v 0.5465 h -0.54651 v 0.54651 h -0.5465 v 0.5465 h -0.54651 v 0.5465 h -1.63951 v -0.5465 h -0.5465 v -0.5465 h -0.54651 v -2.73252 h 0.54651 v -0.54651 h 0.5465 v -0.5465 h 0.54651 v -2.73252 h 0.5465 v -0.5465 h 0.5465 v -0.54651 h 0.54651 v -0.5465 h 1.63951 v -0.54651 h 0.5465 v -1.63951 h 0.54651 v -0.5465 h 0.5465 v -0.54651 h 0.54651 v -1.093 h 0.5465 v -1.63951 h 0.5465 v -0.54651 h 0.54651 v -0.5465 h 0.5465 v -0.54651 h 0.5465 v -0.5465 h 0.54651 v -0.5465 h 0.5465 v -0.54651 h 1.09301 v -1.63951 h 0.5465 v -0.5465 h 0.54651 v -0.54651 h 0.5465 v -0.5465 h 0.54651 v -0.54651 h 0.5465 v -0.5465 h 0.5465 v -0.5465 h 0.54651 v -1.09301 h 0.5465 v -0.54651 h 0.54651 v -0.5465 h 0.5465 v -4.91853 h 0.5465 v -1.09301 h 0.54651 v -0.54651 h 0.5465 v -0.5465 h 1.09301 v -0.5465 h 0.5465 v -0.54651 h 1.09301 v -1.63951 h 0.5465 v -0.5465 h 0.54651 v -0.54651 h 0.5465 v -1.093 h -0.5465 v -1.09301 h 0.5465 v -1.63951 h 0.54651 v -0.54651 h 0.5465 v -0.5465 h 0.5465 v -1.09301 h 0.54651 v -1.09301 h 0.5465 v -1.09301 h 0.54651 v -0.5465 h 0.5465 v -0.5465 h 0.5465 v -1.09301 h 0.54651 v -1.63951 h 0.5465 v -1.09301 h 0.54651 v -0.5465 h 0.5465 v -0.54651 h 0.5465 v -0.5465 h 0.54651 v -0.54651 h 0.5465 v -3.82552 h -0.5465 v -0.54651 h -1.63951 v -0.5465 h -0.54651 v -0.54651 h -0.5465 v -0.5465 h -1.09301 v 0.5465 h -1.09301 v 0.54651 h -0.5465 v 0.5465 h -9.29057 v 0.54651 h -2.73252 v 0.5465 h -1.09301 v 0.5465 h -4.37203 v 0.54651 h -0.5465 v 0.5465 h -2.18602 v 0.54651 h -2.18601 v -0.54651 h -1.09301 v -0.5465 h -0.5465 v -1.09301 h -0.54651 v -1.63951 h 0.54651 v -1.09301 h 0.5465 v -1.63951 h 0.5465 v -0.5465 h 1.63952 v -0.54651 h 2.73252 v -0.5465 h 0.5465 v -0.54651 h 1.09301 v 0.54651 h 0.5465 v 0.5465 h 6.01154 v 0.54651 h 1.09301 v 0.5465 h 1.09301 v -0.5465 h 1.63951 v -0.54651 h 0.54651 v -1.63951 h 0.5465 v -9.83707 h -0.5465 v -0.5465 h -0.54651 v -1.09301 h 0.54651 v -2.73252 h -0.54651 v -3.27903 h 0.54651 v -0.5465 h 0.5465 v -0.5465 h 0.5465 v -0.54651 h 0.54651 v -0.5465 h 0.5465 v -0.5465 h 0.5465 z m 32.24373,20.76715 h 3.27903 v 0.5465 h 4.37203 v 0.54651 h 0.5465 v 0.5465 h 0.54651 v 5.46504 h -0.54651 v 5.46504 h -0.5465 v 0.5465 h -0.5465 v 0.54651 h -0.54651 v 1.09301 h 0.54651 v 2.18601 h 0.5465 v 0.5465 h 0.5465 v 4.37204 h -0.5465 v 1.63951 h 0.5465 v 4.91853 h 0.54651 v 3.27903 h -0.54651 v 2.18601 h -0.5465 v 1.63951 h 0.5465 v 1.09301 h 0.54651 v 0.5465 h 0.5465 v 0.54651 h 0.5465 v 1.63951 h -0.5465 v 0.5465 h -0.5465 v 2.18602 h -0.54651 v 1.09301 h -0.5465 v 1.09301 h 0.5465 v 1.63951 h -0.5465 v 0.5465 h -0.5465 v 7.10455 h -0.54651 v 0.54651 h -0.5465 v 1.093 h 0.5465 v 1.09301 h -0.5465 v 3.82553 h -0.54651 v 2.18601 h -0.5465 v 0.54651 h -0.5465 v 3.82553 h -0.54651 v 0.5465 h -0.5465 v 1.09301 h -0.54651 v 1.63951 h -0.5465 v 1.09301 h -0.5465 v 1.093 h -0.54651 v 1.63952 h -0.5465 v 0.5465 h -0.54651 v 0.5465 h -0.5465 v 0.54651 h -0.5465 v 0.5465 H 770.048 v 0.54651 h -0.5465 v 0.5465 h -0.5465 v 1.63951 h -0.54651 v 1.63951 h -0.5465 v 1.63951 h -0.54651 v 1.09301 h -0.5465 v 0.54651 h -0.5465 v 0.5465 h -0.54651 v 1.63951 h -0.5465 v 0.54651 h -0.54651 v 0.5465 h -0.5465 v 0.5465 h -0.5465 v 0.54651 h -0.54651 v 0.5465 h -0.5465 v 0.54651 h -0.54651 v 0.5465 h -2.73252 v -0.5465 h -0.5465 v -0.54651 h -0.5465 v -0.5465 h -0.54651 V 741.512 h 0.54651 v -0.54651 h 0.5465 v -0.5465 h 1.09301 v -1.63951 h 0.5465 v -0.54651 h 0.54651 v -0.5465 h 0.5465 v -1.09301 h 0.5465 v -0.5465 h 0.54651 v -0.5465 h 0.5465 v -2.73252 h 0.54651 v -1.63952 h 0.5465 v -1.63951 h 0.5465 v -1.63951 h 0.54651 v -0.5465 h 0.5465 v -1.09301 h 0.54651 v -2.18602 h 0.5465 v -1.093 h 0.5465 v -2.18602 h 0.54651 v -0.5465 h 0.5465 v -1.63952 h 0.54651 v -2.18601 h 0.5465 v -1.09301 h 0.5465 v -1.63951 h 0.54651 v -0.5465 h 0.5465 v -4.37204 h 0.5465 v -4.91853 h -0.5465 v -0.5465 h -0.5465 v -0.54651 H 770.048 v -2.18601 h 0.54651 v -0.54651 h 0.5465 v -1.09301 h 0.5465 v -3.27902 h -0.5465 v -13.6626 h 0.5465 v -0.5465 h 0.54651 v -1.63951 h -0.54651 v -14.75561 h -0.5465 v -0.5465 h -0.5465 v -0.54651 H 770.048 v -2.73252 h -0.5465 v -2.73251 h 0.5465 v -0.54651 h 0.54651 v -0.5465 h 0.5465 v -0.54651 h 0.5465 z m 48.63885,27.8717 h 1.63951 v 0.5465 h 1.09301 v 0.54651 h 1.09301 v 0.5465 h 0.5465 v 0.5465 h 0.54651 v 0.54651 h 0.5465 v 0.5465 h 0.5465 v 0.54651 h 0.54651 v 1.093 h 0.5465 v 1.63952 h 0.54651 v 0.5465 h 0.5465 v 0.5465 h 0.5465 v 0.54651 h 0.54651 v 3.82552 h 0.5465 v 2.18602 h -0.5465 v 0.5465 h -1.63951 v 0.54651 h -1.09301 v 0.5465 h -0.54651 v 0.54651 h -0.5465 v 1.093 h -0.5465 v 0.54651 h -0.54651 v 3.27902 h -0.5465 v 1.09301 h -0.5465 v 1.09301 h -0.54651 v 1.63951 h -0.5465 v 0.5465 h -0.54651 v 2.73252 h -0.5465 v 0.54651 h -0.5465 v 0.5465 h -0.54651 v 1.09301 h -0.5465 v 0.5465 h -0.54651 v 1.63951 h -0.5465 v 0.54651 h -0.5465 v 1.093 h -0.54651 v 1.09301 h -0.5465 v 0.54651 h -0.54651 v 0.5465 h -0.5465 v 1.09301 h -0.5465 v 1.09301 h -0.54651 v 1.63951 h -0.5465 v 0.5465 h -1.09301 v 0.54651 h -0.5465 v 0.5465 h -0.54651 v 1.09301 h -0.5465 v 0.5465 h -0.5465 v 1.09301 h 0.5465 v 0.5465 h 0.5465 v 0.54651 h 2.73252 v 0.5465 h 0.54651 v 0.5465 h 0.5465 v 0.54651 h 1.63951 v 0.5465 h 0.54651 v 0.54651 h 1.093 v 0.5465 h 0.54651 v 0.5465 h 0.5465 v 0.54651 h 0.54651 v 0.5465 h 0.5465 v 0.54651 h 0.5465 v 0.5465 h 1.09301 v 0.5465 h 0.54651 v 0.54651 h 5.46503 v 0.5465 h 3.27903 v 0.5465 h 1.63951 v 0.54651 h 6.01154 v 0.5465 h 1.09301 v 0.54651 h 0.5465 v 0.5465 h 0.54651 v 0.5465 h 0.5465 v 4.37204 h -0.5465 v 0.5465 h -1.09301 v 0.5465 h -2.18602 v 0.54651 h -0.5465 v 0.5465 h -1.09301 v 0.54651 h -1.093 v 0.5465 h -2.18602 v 0.5465 h -0.5465 v 0.54651 h -2.18602 v 0.5465 h -0.5465 v 0.5465 h -0.54651 v 0.54651 h -2.73252 v 0.5465 h -2.18601 v -0.5465 h -2.73252 v -0.54651 h -0.54651 v -1.093 h -1.63951 v -0.54651 h -0.5465 v -0.5465 h -1.09301 v -0.5465 h -0.5465 v -0.54651 h -1.09301 v -0.5465 h -0.54651 v -0.54651 h -0.5465 v -0.5465 h -0.5465 v -0.5465 h -1.63951 v -0.54651 h -1.63952 v -0.5465 h -0.5465 v -0.54651 h -0.5465 v -0.5465 h -0.54651 v -0.5465 h -0.5465 v -0.54651 h -0.54651 v -0.5465 h -0.5465 v -0.54651 h -0.5465 v -1.093 h -0.54651 v -0.54651 h -0.5465 v -1.63951 h -0.54651 v -0.5465 h -0.5465 v -0.54651 h -0.5465 v -1.093 h -0.54651 v -0.54651 h -0.5465 v -0.5465 h -2.18602 v 0.5465 h -0.5465 v 0.54651 h -0.5465 v 0.5465 h -0.54651 v 0.5465 h -0.5465 v 0.54651 h -0.54651 v 0.5465 h -0.5465 v 0.5465 h -0.5465 v 0.54651 h -0.54651 v 0.5465 h -1.09301 v 0.54651 h -1.093 v 0.5465 h -0.54651 v 0.5465 h -1.09301 v 0.54651 h -0.5465 v 0.5465 h -0.5465 v 0.54651 h -0.54651 v 0.5465 h -0.5465 v 0.5465 h -0.5465 v 0.54651 h -0.54651 v 0.5465 h -1.63951 v 1.09301 h -0.5465 v 0.5465 h -1.09301 v 0.54651 h -0.54651 v 0.5465 h -1.093 v 0.54651 h -1.63952 v 0.5465 h -2.18601 v 0.5465 h -0.54651 v 0.54651 h -2.73251 v 0.5465 h -0.54651 v 0.5465 h -1.09301 v 0.54651 h -5.46504 v 0.5465 H 770.048 v 0.54651 h -1.093 v -0.54651 h -3.82553 v 0.54651 h -3.82553 v -0.54651 h -0.5465 v -0.5465 h -0.54651 v -1.63951 h 0.54651 v -0.54651 h 0.5465 v -0.5465 h 0.5465 v -0.5465 h 1.63952 v -0.54651 h 4.37203 v -0.5465 h 0.5465 v -0.54651 h 1.63951 v -0.5465 h 0.54651 v -0.5465 h 0.5465 v -0.54651 h 1.09301 v -0.5465 h 0.5465 v -0.54651 h 1.63951 v -0.5465 h 1.63952 v -0.5465 h 0.5465 v -0.54651 h 1.09301 v -0.5465 h 2.18601 v -0.54651 h 1.63951 v -0.5465 h 2.18602 v -0.5465 h 0.5465 v -1.63952 h 0.54651 v -0.5465 h 2.18601 v -0.5465 h 1.09301 v -0.54651 h 0.54651 v -0.5465 h 0.5465 v -0.5465 h 1.09301 v -0.54651 h 1.63951 v -0.5465 h 0.5465 v -1.63951 h 0.54651 v -0.54651 h 0.5465 v -0.5465 h 0.5465 v -0.54651 h 0.54651 v -0.5465 h 0.5465 v -0.5465 h 0.54651 v -0.54651 h 0.5465 v -0.5465 h 0.5465 v -1.09301 h 0.54651 v -0.5465 h 0.5465 v -0.54651 h -0.5465 v -0.5465 h -0.54651 v -1.63951 h -0.5465 v -1.09301 h -0.5465 v -1.09301 h -0.54651 v -1.09301 h -0.5465 v -0.5465 h -0.54651 v -2.73252 h -0.5465 v -1.09301 h -0.5465 v -0.5465 h -0.54651 v -0.54651 h -0.5465 v -0.5465 h -0.5465 v -0.5465 h -0.54651 v -0.54651 h -0.5465 v -3.27902 h -0.54651 v -0.5465 h -0.5465 v -0.54651 h -0.5465 v -0.5465 h -0.54651 v -0.54651 h -0.5465 v -3.27902 h -0.54651 v -2.73252 h -0.5465 v -3.27902 h -0.5465 v -0.54651 h -1.63952 v -0.5465 h -0.5465 v -1.63951 h 0.5465 v -0.54651 h 2.18602 v -0.5465 h 0.5465 v -0.5465 h 1.09301 v 0.5465 h 0.54651 v 2.73252 h -0.54651 v 0.5465 h -0.5465 v 1.09301 h 1.09301 v 0.54651 h 0.5465 v 0.5465 h 0.5465 v 0.5465 h 0.54651 v 0.54651 h 0.5465 v 0.5465 h 0.54651 v 1.09301 h 0.5465 v 2.18601 h 0.5465 v 1.09301 h 0.54651 v 0.54651 h 0.5465 v 1.093 h 0.5465 v 0.54651 h 0.54651 v 0.5465 h 0.5465 v 1.63951 h 0.54651 v 0.54651 h 0.5465 v 1.09301 h 0.5465 v 1.63951 h 0.54651 v 1.63951 h 0.5465 v 0.5465 h 0.54651 v 0.54651 h 1.093 v 0.5465 h 0.54651 v 1.09301 h 0.5465 v 0.5465 h 0.54651 v 0.54651 h 0.5465 v 0.5465 h 2.73252 v -1.09301 h 0.5465 v -1.63951 h 0.54651 v -0.5465 h 1.093 v -2.73252 h 0.54651 v -1.09301 h 0.5465 v -0.5465 h 0.54651 v -1.09301 h 0.5465 v -0.54651 h 0.5465 v -0.5465 h 0.54651 v -2.18602 h 0.5465 v -1.093 h 0.54651 v -0.54651 h 0.5465 v -1.09301 h 0.5465 v -0.5465 h 0.54651 v -0.5465 h 0.5465 v -3.82553 h -0.5465 v -6.01154 h -0.54651 v -0.54651 h 0.54651 v -0.5465 h 0.5465 v -0.54651 h 1.09301 v -0.5465 h 0.5465 v -0.5465 h 0.54651 v -0.54651 h 1.093 v -0.5465 h 0.54651 v -0.5465 h 0.5465 v -2.18602 h 0.54651 v -0.5465 h 0.5465 v -1.09301 h 0.5465 v -1.63951 h 0.54651 v -0.54651 h 0.5465 z M 794.2308,787.64611 h 9.29057 v 0.81975 h 2.45927 v 0.81976 h 1.77613 v 0.81975 h 0.81976 v 0.95639 h 0.81976 v 0.81975 h 1.63951 v 0.81976 h 0.81975 v 1.63951 h 2.5959 v 0.81975 h 1.63951 v 0.81976 h 0.81975 v 1.77614 h 0.81976 v 0.81975 h 0.81976 v 1.63952 h 0.81975 v 1.63951 h -0.81975 v 3.41565 h -1.63952 v 0.81975 h -0.81975 v 0.81976 h -0.81976 v 1.63951 h 1.63951 v -0.81976 h 2.45927 v 0.81976 h 0.95638 v -0.81976 h 5.87492 v -0.81975 h 0.81976 v -2.45927 h 0.81975 v -0.81976 h 0.81976 v -0.95638 h 0.81975 v -0.81975 h 5.87492 v 4.2354 h 0.81976 v 4.23541 h 1.63951 v -0.81976 h 3.41565 v 0.81976 h 0.81975 v 4.09878 h -1.63951 v 0.81975 h -0.81975 v 1.77614 h -0.81976 v 0.81976 h -0.95638 v 3.27902 h 0.95638 v 4.2354 h -0.95638 v 3.41565 h 0.95638 v 2.45927 h -0.95638 v 0.81976 h -0.81976 v 3.41565 h 0.81976 v 1.63951 h -0.81976 v 0.81975 h -1.63951 v 0.81976 h -7.51443 v -0.81976 h -0.81975 v -0.81975 h -1.77614 v -0.81976 h -0.81976 v 0.81976 h -4.09878 v 0.81975 h -1.77613 v -0.81975 h -1.63952 v -0.81976 h -1.63951 v 0.81976 h -0.81975 v 0.81975 h -9.29057 v -0.81975 h -3.27902 v 0.81975 h -3.41565 v -0.81975 h -1.63951 v -2.45927 h -0.81976 v -0.95638 h -2.59589 v 0.95638 h -0.81976 v -0.95638 h -0.81976 v -3.27902 h 2.45927 v 0.81975 h 6.8313 v 0.81976 h 1.63951 v -0.81976 h 0.81976 v -0.81975 h 0.81975 v -0.81976 h 1.63952 v -0.81976 h 2.59589 v 0.81976 h 5.87492 v 0.81976 h 5.87491 v -0.81976 h 2.45927 v -0.81976 h 1.63951 v -0.95638 h 0.81976 v -0.81975 h 0.95638 v -1.63952 h 0.81976 v -3.27902 h -0.81976 v -4.2354 h 0.81976 v -2.5959 h -1.77614 v -0.81975 h -7.51443 v 0.81975 h -3.27902 v -0.81975 h -0.81976 v -0.81976 h -3.41565 v 0.81976 h -3.41565 v 0.81975 h -1.63951 v 0.95638 h -4.09878 v -0.95638 h -3.41565 v -0.81975 h -0.81975 v -1.63951 h -1.63952 v 0.81975 h -2.59589 v -1.63951 h -0.81976 v -0.81976 h -0.81975 v 3.27903 h 0.81975 v 3.41565 h -0.81975 v 4.2354 h 0.81975 v 1.63951 h -0.81975 v 0.81976 h -0.81976 v 5.87492 h -0.81975 v 5.87491 h -0.95639 v 0.81976 h -0.81975 v -1.63951 h -0.81976 v -0.81976 h -2.45926 v 1.63951 h 0.81975 v 0.81976 h 2.45927 v 7.51443 h -0.81976 v 1.63951 h -0.81975 v 1.77614 h -0.81976 v 0.81975 h -0.81975 v 0.81976 h 0.81975 v 0.81975 h 1.63951 v 0.81976 h 1.63951 v -0.81976 h -0.81975 v -1.63951 h -0.81976 v -2.59589 h 0.81976 v -1.63951 h 2.59589 v 0.81975 h 1.63951 v 2.5959 h 3.41565 v 0.81975 h 1.63952 v 0.81976 h 1.63951 v -2.45927 h 2.59589 v -0.95638 h 7.51443 v 0.95638 h 0.81976 v 0.81976 h 4.2354 v -1.77614 h 0.81976 v -0.81976 h 6.69467 v 0.81976 h 1.63951 v 0.95638 h 6.69467 v -0.95638 h 0.81976 v -0.81976 h 0.81976 v -0.81975 h 0.95638 v -0.81976 h 4.09878 v -0.81975 h 0.81975 v 0.81975 h 1.77614 v 0.81976 h 1.63951 v 0.81975 h 0.81976 v 0.81976 h 0.81975 v 0.95638 h 1.63951 v 2.45927 h -0.81975 v 6.69467 h -0.81976 v 2.45927 h 0.81976 v 1.77614 h -0.81976 v 4.09878 h 0.81976 v 1.77613 h -0.81976 v 5.05516 h -0.81975 v 4.09878 h 0.81975 v 9.29057 h 1.63951 v 3.27902 h -1.63951 v 1.63952 h -0.81975 v 3.41564 h 0.81975 v 0.81976 h 0.81976 v 1.63951 h 0.81975 v 0.95638 h -0.81975 v 8.33419 h -0.81976 v 2.45927 h -0.81975 v 2.59589 h -1.63951 v 0.81976 h -2.5959 v 0.81975 h -5.87491 v -0.81975 h -1.63952 v -0.81976 h -0.81975 v -0.81976 h -0.81976 v -0.95638 h -0.81975 v -4.09878 h -1.77614 v 0.81976 h -0.81976 v 1.63951 h -1.63951 v 0.81976 h -0.81976 v 0.81975 h -5.05516 v -0.81975 h -3.27902 v -0.81976 h 0.81976 v -2.45927 h -0.81976 v -1.63951 h 0.81976 v -0.95638 h 0.81975 v -0.81976 h 0.81976 v -2.45926 h -0.81976 v -0.81976 h -0.81975 v -1.77614 h -0.81976 v -2.45927 h 0.81976 v -9.15394 h 0.81975 v -2.59589 h 0.81976 v -5.05516 h -8.33419 v 0.81976 h -0.95638 v 2.59589 h -0.81975 v 0.81975 h -1.63952 v 0.81976 h 0.81976 v 0.81976 h 0.81976 v 1.77613 h -0.81976 v 0.81976 h -1.63951 v 0.81976 h 0.81975 v 0.81975 h 1.63952 v 0.81976 h 0.81975 v 0.81975 h 0.95638 v 2.5959 h -0.95638 v 2.45926 h -0.81975 v 4.23541 h 0.81975 v 0.81976 h 0.95638 v 1.63951 h 0.81976 v 4.2354 h -0.81976 v 3.27903 h -0.95638 v 0.81975 h -1.63951 v 0.95638 h -4.09878 v -0.95638 h -0.95638 v 0.95638 h -0.81976 v -0.95638 h -1.63951 v -0.81975 h -0.81975 v -0.81976 h -0.81976 v -5.05516 h 0.81976 v -1.63951 h 0.81975 v -0.81976 h 0.81976 v -5.05516 h 0.81975 v -0.81976 h 0.81976 v -0.81975 h 0.95638 v -1.63951 h -0.95638 v -1.77614 h -0.81976 v -0.81976 h -0.81975 v -4.09878 h 0.81975 v -2.59589 h -0.81975 v -0.81976 h -0.81976 v -2.45926 h 2.45927 v -0.95638 h 0.95638 v -0.81976 h -0.95638 v -0.81976 h -2.45927 v -3.27902 h -0.81975 v -2.59589 h 0.81975 v -0.81976 h 0.81976 v -1.63951 h 0.81975 v -5.87492 h -0.81975 v -4.2354 h 0.81975 v -4.09878 h -0.81975 v -1.77614 h -0.81976 v -0.81976 h -0.81975 v 0.81976 h -1.63952 v 0.81976 h -2.59589 v -0.81976 h -2.45927 v 0.81976 h -1.77614 v 0.95638 h -0.81975 v 1.63951 h 0.81975 v 0.81976 h 0.95639 v 1.63951 h 0.81975 v 3.41565 h -0.81975 v 5.87491 h -0.95639 v 1.63952 h 0.95639 v 4.2354 h 0.81975 v 0.81976 h 1.63951 v -0.81976 h 1.63952 v 1.63951 h -5.87492 v 0.81976 h 1.77614 v 1.63951 h 0.81975 v 2.59589 h -0.81975 v 3.27903 h 0.81975 v 3.41565 h 0.81976 v 1.63951 h -0.81976 v 0.81975 h -0.81975 v 0.81976 h -0.95639 v 0.81976 h -0.81975 v 0.95638 h 0.81975 v 4.91853 h 0.95639 v 0.95638 h -0.95639 v 0.81976 h 0.95639 v 0.81976 h 0.81975 v 0.81975 h 0.81976 v 1.63951 h 0.81975 v 2.5959 h -0.81975 v 4.09878 h -0.81976 v 0.81975 h -0.81975 v 0.95638 h -1.77614 v 0.81976 h -1.63951 v 0.81976 h -5.05516 v -0.81976 h -0.81976 v -0.81976 h -0.81976 v -0.95638 h -0.81975 v -2.45927 h -0.81976 v -3.27902 h 0.81976 v -2.59589 h 0.81975 v -3.27903 h 0.81976 v -10.93007 h 0.81976 v -0.81976 h 0.81975 v -1.77614 h 0.95638 v -2.45927 h -0.95638 v -0.81975 h 0.95638 v -3.41565 h 0.81976 v -0.81976 h -0.81976 v -0.81975 h -0.95638 v -0.81976 h -1.63951 v 0.81976 h -0.81976 v 0.81975 h -1.63951 v 1.63952 h 1.63951 v 0.95638 h 0.81976 v 0.81975 h -0.81976 v 0.81976 h -0.81975 v 0.81975 h -2.59589 v 1.63952 h 0.95638 v 1.77613 h -3.41565 v 0.81976 h -2.45927 v 0.81976 H 770.048 v 1.63951 h 1.63952 v -0.81976 h 1.63951 v 3.27903 h -0.81976 v 0.95638 h -1.63951 v 0.81975 H 770.048 v 1.63951 h -0.95638 v 0.81976 h -2.45927 v 0.81976 h -0.81975 v 4.2354 h -0.81976 v 2.45927 h -0.81975 v 0.95638 h -0.95638 v 1.63951 h 0.95638 v 0.81976 h -0.95638 v 0.81975 h -0.81976 v 0.81976 h -0.81976 v 0.81976 h -2.45926 v 0.81975 h -1.77614 v 0.95638 h -0.81976 v 0.81976 h -0.81975 v 0.81976 h -1.63951 v 0.81975 h -1.63952 v -0.81975 h -2.59589 v -0.81976 h -1.63951 v -0.81976 h -1.63951 v -0.95638 h -1.77614 v -0.81975 h -0.81976 v -2.45927 h -0.81975 v -0.81976 h -1.63951 v -0.81975 h -1.63952 v -0.81976 h -0.81975 v -0.95638 h -0.95638 v -0.81976 h -0.81976 v -0.81975 h -0.81976 v -5.05516 h 0.81976 v -0.81976 h 2.59589 v -0.81976 h 1.63952 v -0.81975 h 5.87491 v 0.81975 h 1.63951 v 0.81976 h 0.81976 v 1.63951 h 0.81976 v 0.95638 h 1.77613 v -0.95638 h 0.81976 v -0.81975 h 0.81976 v -1.63952 h 0.81975 v -0.81975 h 0.81976 v -1.63951 h 0.81975 v -0.95638 h 0.81976 v -1.63952 h 0.95638 v -2.45926 h 0.81976 v -0.81976 h 0.81975 v -1.77614 h 0.81976 v -4.91853 h 0.81975 v -0.95638 h 2.5959 v -0.81976 h 0.81975 v -4.09878 h -2.59589 v 0.81976 h -0.81976 v 0.81975 h -3.27902 v -0.81975 h -3.41565 v 0.81975 h -0.81975 v 0.81976 h -0.81976 v 0.81975 h -0.81976 v 1.63952 h -2.59589 v 0.95638 h -6.69467 v 2.45926 h -0.81976 v 0.81976 h -0.81975 v 0.81976 h -3.41565 v 0.81975 h -2.45927 v 0.95638 h -1.63951 v 0.81976 h -0.81976 v 0.81976 h -1.77614 v 1.63951 h -0.81975 v 0.81975 h -0.81976 v 0.81976 h -0.81975 v 0.81976 h -2.5959 v -0.81976 h -4.91853 v -0.81976 h -0.81976 v -0.81975 h -0.95638 v -1.63951 h -0.81976 v -3.41565 h -0.81975 v -1.63952 h -0.81976 v -5.05516 h 0.81976 v -1.63951 h 0.81975 v -0.81975 h 0.81976 v -0.81976 h 1.77614 v -0.81976 h 4.09878 v 0.81976 h 4.2354 v 0.81976 h 1.63951 v -0.81976 h 1.77614 v -0.81976 h 1.63951 v 0.81976 h 2.45927 v -0.81976 h 2.59589 v 0.81976 h 4.09878 v -0.81976 h 0.81976 v -0.95638 h 1.77614 v 0.95638 h 1.63951 v -0.95638 h 4.2354 v -0.81975 h 6.69468 v -0.81976 h 0.81975 v 0.81976 h 2.45927 v -0.81976 h 0.81976 v -0.81975 h 0.95638 v -10.11033 h -0.95638 v -1.63951 h 0.95638 v -0.81975 h 2.45926 v 1.63951 h 0.81976 v 0.81975 h 1.63951 v -1.63951 h -0.81975 v -0.81975 h -0.81976 v -1.63952 h -0.81976 v -0.81975 h -2.45926 v 1.63951 h -2.5959 v -0.81976 h -1.63951 v -0.81975 h -0.81975 v 0.81975 h -0.81976 v -0.81975 h -1.77614 v 0.81975 h -0.81975 v 0.81976 h -2.45927 v -0.81976 h -5.05516 v 0.81976 h -1.63951 v -0.81976 h -2.5959 v 0.81976 h -1.63951 v 1.63951 h -0.81975 v 0.81976 h -1.63952 v 0.81975 h -6.69467 v -0.81975 h -1.77614 v -1.63951 h -0.81975 v -3.41565 h -0.81976 v -2.45927 h -0.81975 v -3.41565 h 0.81975 v -4.09878 h 0.81976 v -3.41565 h -0.81976 v -0.81976 h -0.81975 v -7.51442 h 0.81975 v -5.87492 h -0.81975 v -4.23541 h 0.81975 v -1.63951 h 1.63951 v 0.81976 h 3.41565 v -0.81976 h 0.81976 v -2.45927 h -0.81976 v -0.95638 h 0.81976 v -1.63951 h 6.69467 v 0.81976 h 0.81976 v 3.41565 h 0.81975 v 0.81975 h 0.81976 v 1.63951 h -0.81976 v 0.81976 h -0.81975 v 5.87492 h 0.81975 v 1.77613 h 0.81976 v 4.09878 h -0.81976 v 3.41565 h 0.81976 v 0.81976 h -0.81976 v 8.33418 h -0.81975 v 2.5959 h 3.41565 v 0.81975 h 0.81975 v -0.81975 h 2.45927 v 0.81975 h 2.59589 v -0.81975 h 0.81976 v 2.45926 h 0.81976 v 0.81976 h 1.63951 v -0.81976 h 0.81975 v -3.27902 h 1.77614 v 4.09878 h 4.91854 v -0.81976 h 3.41564 v -0.81975 h 3.41565 v -0.81976 h 1.63952 v 0.81976 h 0.81975 v 0.81975 h 1.63951 v 0.81976 h 0.81976 v 2.59589 h -0.81976 v 0.81976 h -0.81975 v 3.27902 h -0.81976 v 4.23541 h 0.81976 v 1.63951 h 0.81975 v 1.77614 h -0.81975 v 0.81975 h -1.63951 v 2.45927 h -0.81976 v 1.63951 H 770.048 v 1.77614 h -0.95638 v 0.81976 h -0.81975 v 0.81975 h 0.81975 v 2.45927 h -1.63951 v 0.81976 h -2.45927 v 0.95638 h -0.81975 v 2.45926 h 1.63951 v -1.63951 h 0.81975 v -0.81975 h 0.81976 v 0.81975 h 0.81976 v 0.81976 h 1.77613 v 0.81975 h 0.81976 v 2.45927 h 2.45927 v -6.69467 h 0.81975 v -6.69467 h 0.81976 v -1.63951 h 0.81976 v -0.81976 h 0.95638 v -0.81976 h 0.81975 v -4.2354 h 0.81976 v -3.41565 h 0.81975 v -1.63951 h 0.81976 v -7.51443 h 0.81976 v -0.81976 h 0.81975 v -0.81975 h 0.95638 v -0.81976 h -1.77613 v -0.95638 h -0.81976 v -1.63951 h 0.81976 v -4.09878 h 0.81975 v -2.5959 h -0.81975 v -1.63951 h -0.81976 v -4.2354 h 0.81976 v -5.05516 h 0.81975 v -1.63952 h 0.95638 v -0.81975 h -0.95638 v -0.81976 h -0.81975 v -2.59589 h -0.81976 v -9.15394 h -0.81976 v -1.63951 h -0.81975 v -1.77614 h -0.81976 v -1.63951 h 0.81976 v -1.63951 h 1.63951 v -0.81976 h 1.63951 v -0.81976 h 2.5959 v 0.81976 h 2.45926 v 0.81976 h 2.5959 v 0.81975 h 2.45926 v 0.81976 h 1.63952 v 0.81975 h 0.81975 v 0.81976 h 0.95638 v 0.95638 h 1.63952 v -0.95638 h 0.81975 v -0.81976 h 2.45927 v 0.81976 h 0.95638 v -0.81976 h 0.81976 v -0.81975 h 0.81975 v -0.81976 h 0.81976 v 0.81976 h 0.81975 v 1.63951 h 0.81976 v 0.95638 h 1.63951 v 0.81976 h 2.5959 v -0.81976 h 0.81975 v -0.95638 h -0.81975 v -0.81976 h -1.63952 v -0.81975 h -2.59589 v -0.81976 h -0.81976 v -2.45927 h -0.81975 v -1.77613 h -0.81976 v -0.81976 h -0.81975 v -0.81975 h -0.81976 v -0.81976 h -5.05516 v -0.81976 h -0.81976 v -0.81975 h -0.95638 v -0.95638 h -0.81975 v -1.63952 h -0.81976 v -0.81975 h -0.81976 v -2.45927 h 0.81976 v -2.59589 h 0.81976 v -0.81976 h 0.81975 z m -37.70877,4.2354 h 5.05516 v 0.81976 h 2.5959 v 0.81975 h 0.81975 v 2.45927 h 0.81976 v 1.77614 h 2.45927 v 1.63951 h 0.81975 v 2.45927 h -0.81975 v 2.59589 h -0.81976 v 0.81976 h -1.63951 v 0.81975 h -0.81976 v 0.81976 h 0.81976 v 1.63951 h 0.81975 v 2.59589 h -0.81975 v 2.45927 h 0.81975 v 0.81976 h 0.81976 v 0.81975 h -0.81976 v 0.95638 h -0.81975 v 0.81976 h -0.81976 v 5.05516 h 0.81976 v 8.33419 h -0.81976 v 1.63951 h 0.81976 v 0.81975 h 0.81975 v 3.41565 h -0.81975 v 2.45927 h -0.81976 v 0.81976 h -0.81975 v 2.59589 h 0.81975 v 0.81976 h -0.81975 v 0.81975 h -0.95638 v 2.45927 h -0.81976 v 1.77614 h -0.81976 v 1.63951 h -1.63951 v -2.45927 h -0.81975 v -0.95638 h -1.77614 v -1.63951 h -0.81976 v -3.27903 h -0.81975 v -10.11032 h 0.81975 v -0.81975 h 0.81976 v -0.81976 h 0.95638 v -4.23541 h -0.95638 v -0.81975 h -0.81976 v -0.81976 h -0.81975 v -0.81975 h 0.81975 v -2.5959 h 0.81976 v -0.81975 h -0.81976 v -2.45927 h -0.81975 v -1.77614 h 0.81975 v -2.45926 h 0.81976 v -2.45927 h -0.81976 v -0.81976 h -0.81975 v -4.2354 h -0.81976 v -0.81976 h -0.81975 v -2.59589 h -1.63952 v 0.81975 h -0.81975 v 0.95638 h -0.95638 v 0.81976 h -2.45927 v 0.81976 h -4.23541 v 0.81975 h -4.09878 v -0.81975 h -1.77613 v -0.81976 h -3.27903 v 0.81976 h -10.11032 v -1.63952 h -0.81976 v -5.05516 h 0.81976 v -0.81975 h 0.81976 v -0.95638 h 0.81975 v -0.81976 h 1.77614 v -0.81976 h 2.45927 v -0.81975 h 2.59589 v 0.81975 h 2.45927 v -0.81975 h 1.63951 v 0.81975 h 9.29057 v -0.81975 h 3.27902 v 0.81975 h 2.59589 v 0.81976 h 0.81976 v 1.77614 h 0.81976 v 0.81975 h 0.81975 v -2.59589 h 0.81976 v -3.27902 h 0.81975 z m 62.84795,17.62475 v 1.63951 h 2.59589 v -0.81975 h -0.81975 v -0.81976 z m -35.11287,1.63951 v 1.63952 h 0.81975 v -1.63952 z m -52.87426,2.45927 h 1.77614 v 0.81976 h 0.81976 v 1.77613 h -0.81976 v 0.81976 h -0.95638 v 0.81976 h -0.81976 v -0.81976 h -0.81975 v -1.77614 h 0.81975 z m 29.37459,2.59589 v 0.81976 h 0.81975 v -0.81976 z m -25.95894,23.36305 v 0.95638 h 0.81976 v -0.95638 z m 32.65361,6.69467 h 2.59589 v 1.77614 h -2.59589 z m 50.27836,3.41565 v 0.81975 h 1.63951 v -0.81975 z m -10.93008,2.45927 v 0.95638 h -0.81975 v 2.45927 h 0.81975 v 0.81975 h -0.81975 v 2.45927 h 0.81975 v 1.77614 h -0.81975 v 3.27902 h 0.81975 v 2.59589 h -0.81975 v 2.45927 h 0.81975 v 0.81976 h 0.95638 v 2.59589 h 0.81976 v 0.81976 h 0.81976 v -0.81976 h 2.45926 v 0.81976 h 1.77614 v -0.81976 h 0.81976 v -0.81976 h 0.81975 v -0.95638 h -0.81975 v -3.27902 h 0.81975 v -5.87492 h 0.81976 v -3.41565 h -0.81976 v -4.09878 h -0.81975 v -1.77613 z m 19.40089,0 v 1.77613 h -1.77614 v 1.63952 h -0.81975 v 0.81975 h -0.81976 v 2.45927 h 0.81976 v 2.59589 h -0.81976 v 6.69468 h 0.81976 v 1.63951 h 0.81975 v 0.81975 h 0.81976 v 0.95638 h 2.59589 v -0.95638 h 0.81976 v -0.81975 h 0.81975 v -0.81976 h 1.63952 v -5.05516 h 0.95638 v -2.45927 h -0.95638 v -4.2354 h 0.95638 v -1.63951 h -0.95638 v -1.63952 h -0.81976 v -0.81975 h -1.63951 v -0.95638 z m -46.17958,15.16548 v 0.81976 h -1.63951 v 0.81975 h 0.81975 v 1.63951 h 0.81976 v 0.95638 h 2.59589 v -2.59589 h -0.95638 v -0.81975 h -0.81975 v -0.81976 z m 44.40344,9.15394 v 0.81976 h -1.63951 v 5.05516 h 0.81976 v 3.41565 h -0.81976 v 2.45926 h 0.81976 v 1.63952 h -0.81976 v 1.77613 h 0.81976 v 5.05516 h 2.59589 v -0.95638 h 1.63951 v -0.81975 h 0.81976 v -0.81976 h 1.63951 v -0.81976 h 0.81976 v -0.81975 h 0.95638 v -2.59589 h -0.95638 v -2.45927 h 0.95638 v -2.45927 h -0.95638 v -1.77614 h -0.81976 v -0.81975 h -0.81976 v -1.63952 h 1.63952 v -3.41564 h -0.81976 v -0.81976 z m -39.34828,2.59589 v 3.27903 h 1.63951 v -1.63952 h -0.81975 v -1.63951 z m 41.12442,20.08402 v 1.63951 h 0.81976 v -0.81975 h 0.81975 v -0.81976 z m -39.48491,4.23541 v 0.81975 h 0.81976 v -0.81975 z"
       id="text3"
       style="font-size:139.905px;line-height:0;font-family:汇文明朝体;-inkscape-font-specification:'汇文明朝体, Normal';letter-spacing:14.5735px;word-spacing:0px;writing-mode:tb-rl;fill:#ff00ff;stroke-width:0.728673"
       aria-label="第一次被骗" /></g></svg>
