<?xml version="1.0" encoding="UTF-8" standalone="no"?>
<!-- Created with Inkscape (http://www.inkscape.org/) -->

<svg
   width="1920"
   height="1080"
   viewBox="0 0 1920 1080"
   version="1.1"
   id="svg1"
   xml:space="preserve"
   xmlns="http://www.w3.org/2000/svg"
   xmlns:svg="http://www.w3.org/2000/svg"><defs
     id="defs1" /><g
     id="layer1"><rect
       style="fill:#ff0000"
       id="rect1"
       width="1920"
       height="1080"
       x="0"
       y="0" /><path
       d="m 954,137.34375 h 5.4375 v 1.125 h 3.1875 v 0.9375 h 3.1875 v 2.25 h 1.125 v 0.9375 h 0.9375 v 2.25 H 969 v 0.9375 h -1.125 v 2.25 h -0.9375 v 0.9375 h -1.125 v 1.125 h -1.125 v 2.0625 h 1.125 v 2.25 h 6.375 v 0.9375 h 2.0625 v 4.3125 h -7.3125 v 1.125 H 963.75 v -1.125 h -1.125 v 1.125 H 961.5 v 0.9375 h -4.125 v 2.25 h -2.25 v 0.9375 h -2.0625 v -0.9375 h -1.125 v -2.25 h -1.125 v -0.9375 H 948.75 v 3.1875 h -1.125 v 10.5 h 3.1875 v -0.9375 h 6.5625 v -1.125 h 4.125 v 1.125 h 2.25 v 0.9375 h 4.125 v 1.125 h 2.25 v -1.125 h 0.9375 v 1.125 h 3.1875 v -1.125 h 1.125 v -0.9375 h -1.125 v -3.1875 h 1.125 v -1.125 h 1.125 v -2.0625 h 0.9375 v -4.3125 H 976.5 v -1.125 h -1.125 v -2.0625 h 1.125 v -1.125 h 0.9375 v -2.0625 h 1.125 v -2.0625 h 1.125 v -1.125 h 9.5625 v 1.125 h 0.9375 v -1.125 h 10.6875 v -1.125 h 3.1875 v 1.125 h 5.25 v -1.125 h 2.25 v 1.125 h 4.125 v -1.125 h 2.25 v -0.9375 H 1020 v -1.125 h 1.125 v -1.125 h 0.9375 v -0.9375 h 1.125 v -1.125 h 1.125 v -1.125 h 0.9375 v -0.9375 h 1.125 v -1.125 h 3.1875 v 1.125 h 3.1875 v 2.0625 h 1.125 v 1.125 h 0.9375 v 0.9375 h 1.125 v 1.125 h 1.125 v 1.125 H 1038 v 2.0625 h 1.125 v 2.0625 h 1.125 v 2.25 h 0.9375 v 6.375 h -0.9375 v 0.9375 h -1.125 v 1.125 h -3.1875 v 1.125 h -7.5 v 0.9375 h -4.125 v 1.125 h -3.1875 v 1.125 H 1020 v 0.9375 h 1.125 v 1.125 H 1020 v 2.0625 h -1.125 v 4.3125 h -0.9375 v 2.0625 h -1.125 v 1.125 h -1.125 v 2.0625 h 1.125 v 1.125 h 1.125 v 1.125 H 1020 v 0.9375 h 1.125 v 1.125 h 0.9375 v 3.1875 h -0.9375 v 1.125 H 1020 v 0.9375 h -1.125 v 1.125 h -5.25 v -1.125 h -5.25 v -0.9375 h -1.125 v -1.125 h -1.125 v -1.125 h -0.9375 v -0.9375 H 1002 v 0.9375 h -1.125 v 1.125 h -4.3125 v 1.125 H 994.5 v 0.9375 h -1.125 v -0.9375 h -3.1875 v 4.125 H 989.25 v 2.25 h -1.125 v 0.9375 h 1.125 v 2.25 h 2.0625 v 0.9375 h 1.125 v 1.125 h 0.9375 v 1.125 h 1.125 v -1.125 h 3.1875 v -1.125 h 2.0625 v 1.125 h 4.3125 v 1.125 h 1.125 v 2.0625 h -1.125 v 1.125 h -1.125 v 0.9375 H 1002 v 1.125 h -2.25 v -1.125 h -4.125 v 2.25 h 0.9375 v 0.9375 h 1.125 v 2.25 h 1.125 v 6.375 h 5.25 v 0.9375 h 1.125 v 1.125 h 2.0625 v 1.125 h 1.125 v 1.125 h 0.9375 v 2.0625 h 1.125 v 1.125 h 8.4375 v 0.9375 h 2.25 v 1.125 h 0.9375 v 1.125 h 2.25 v 0.9375 h 0.9375 v 1.125 h 1.125 v 1.125 h 4.3125 v 0.9375 h 0.9375 v 1.125 h 2.25 v 1.125 H 1038 v 0.9375 h 1.125 v 1.125 h 7.5 v 2.0625 h 0.9375 v 5.4375 h -0.9375 v 0.9375 h -4.3125 v 1.125 H 1038 v 1.125 h -0.9375 v 0.9375 h -1.125 v 1.125 h -2.0625 v 1.125 h -2.25 v 0.9375 h -0.9375 v -0.9375 h -2.25 v -1.125 h -2.0625 v -1.125 h -1.125 v -0.9375 h -0.9375 v -1.125 h -1.125 v -1.125 h -2.0625 v -0.9375 H 1020 v -1.125 h -3.1875 v -1.125 h -3.1875 v -0.9375 h -1.125 v -1.125 h -0.9375 v -1.125 h -1.125 v -0.9375 h -2.0625 v -1.125 h -1.125 v -1.125 h -1.125 v -0.9375 h -0.9375 v -1.125 h -2.25 v -1.125 H 1002 v -0.9375 h -1.125 v -1.125 h -1.125 v 1.125 h -0.9375 v 0.9375 h 0.9375 v 1.125 h -0.9375 v 1.125 h -1.125 v 3.1875 h 3.1875 v 0.9375 H 1002 v 5.4375 h -1.125 v 0.9375 h -2.0625 v 1.125 h -1.125 v 4.3125 h 1.125 v 8.4375 h 0.9375 v 1.125 h -0.9375 v 0.9375 h 0.9375 v 6.375 h -0.9375 v 2.25 h 0.9375 v 3.1875 h 1.125 v 6.375 h -3.1875 v 0.9375 h 7.5 v 1.125 h 9.5625 v 1.125 h 8.4375 v 0.9375 h 2.0625 v 1.125 h 1.125 v 1.125 h 1.125 v 0.9375 h 2.0625 v 1.125 h 1.125 v 1.125 h 2.0625 v 0.9375 h 2.0625 v 5.4375 h -0.9375 v 2.0625 h -1.125 v 3.1875 h -1.125 v 2.0625 h -2.0625 v 1.125 h -1.125 v -1.125 h -6.375 v -0.9375 h -3.1875 v -1.125 h -0.9375 v -1.125 h -1.125 v -0.9375 h -3.1875 v -1.125 h -2.0625 v -1.125 h -2.25 v -0.9375 h -0.9375 v -1.125 h -2.25 v -1.125 h -2.0625 v -0.9375 H 1002 v -1.125 h -2.25 v -1.125 h -2.0625 v -0.9375 h -4.3125 v -1.125 h -3.1875 v -1.125 H 987 v -0.9375 h -6.375 v -1.125 h -2.0625 v -1.125 h -1.125 v -5.25 h 1.125 v -1.125 h 4.3125 v -0.9375 h 5.25 v -8.625 H 987 v -0.9375 h 1.125 v -7.5 H 987 v -4.3125 h 1.125 v -0.9375 h 2.0625 v 0.9375 h 3.1875 v -0.9375 h 1.125 v -2.25 h -2.0625 v 1.125 h -2.25 v -1.125 h -2.0625 v -2.0625 H 987 v -2.0625 h -0.9375 v -7.5 H 987 v -2.0625 h 1.125 v -1.125 h 2.0625 v -1.125 h 1.125 v -0.9375 h -1.125 v -5.4375 H 989.25 v -0.9375 H 987 v -1.125 h -0.9375 v -1.125 h -1.125 v -0.9375 h -2.0625 v -1.125 h -1.125 v -1.125 h -3.1875 v 1.125 h -1.125 v 1.125 H 974.25 v -1.125 h -0.9375 v -1.125 h -8.625 v 1.125 H 947.625 v -3.1875 h 3.1875 v -1.125 h 6.5625 v -1.125 h 7.3125 v -0.9375 h 2.25 v 0.9375 H 969 v -0.9375 h 1.125 v -1.125 h 2.0625 v 1.125 h 1.125 v 0.9375 H 976.5 v 1.125 h 0.9375 v 1.125 h 2.25 v -1.125 h 2.0625 v -1.125 H 987 v -8.4375 h -0.9375 v -2.0625 h -2.25 v -1.125 h -0.9375 v -1.125 h -2.25 v -0.9375 H 969 v 0.9375 h -15.9375 v 1.125 h -7.5 v 1.125 h -1.125 v 4.125 H 943.5 v 1.125 h -3.1875 v -1.125 h -3.1875 v 2.25 H 936 v 2.0625 h -1.125 v 1.125 h -0.9375 v 0.9375 h -1.125 v 1.125 h 1.125 v 1.125 h 4.125 v 1.125 h 1.125 v 0.9375 h -1.125 v 1.125 h -0.9375 v 1.125 H 936 v 2.0625 h 1.125 v 1.125 H 936 v 2.0625 h 1.125 v 4.3125 h 0.9375 v 2.0625 h 1.125 v 4.3125 h -1.125 v 5.25 h -0.9375 v 2.0625 H 936 v 3.1875 h 1.125 v 4.3125 H 936 v 1.125 h 1.125 v 2.0625 h 0.9375 v 5.25 h -0.9375 v 1.125 H 936 v 1.125 h 1.125 v 6.375 H 936 v 2.0625 h -1.125 v 1.125 h -0.9375 v 0.9375 h -1.125 v 1.125 h -1.125 v 1.125 h -2.0625 v 0.9375 H 928.5 v 1.125 h -2.0625 v 1.125 h -1.125 v -1.125 h -0.9375 v -1.125 h -1.125 v -2.0625 h 1.125 v -2.0625 h -1.125 v -6.375 h 1.125 v -3.1875 h 0.9375 v -9.5625 h 1.125 v -2.25 h -1.125 v -9.5625 h 1.125 v -8.4375 h -1.125 v -2.0625 h 1.125 v -2.25 h -1.125 v -4.125 h -3.1875 v 0.9375 h -0.9375 v 1.125 h -2.25 v 1.125 h -2.0625 v 0.9375 h -1.125 v 1.125 h -0.9375 v 1.125 h -1.125 v 0.9375 h -2.0625 v 1.125 H 910.5 v 1.125 h -3.1875 v 0.9375 h -1.125 v 1.125 H 905.25 v 1.125 h -1.125 v 0.9375 H 903 v 1.125 h -0.9375 v 2.0625 H 897.75 v 1.125 h -1.125 v 1.125 h -0.9375 v 0.9375 h -4.3125 v 1.125 h -1.125 v 1.125 h -2.0625 v 0.9375 h -1.125 v 2.25 h -4.125 v 0.9375 h -1.125 v 1.125 h -1.125 v 1.125 H 877.5 v 0.9375 h -0.9375 v -0.9375 h -2.25 v -1.125 h -0.9375 v -1.125 h -1.125 v -3.1875 h 1.125 v -2.0625 h 0.9375 v -1.125 h 2.25 v -0.9375 h 2.0625 v -1.125 h 1.125 v -1.125 h 2.0625 v -0.9375 h 1.125 v -1.125 H 885 v -1.125 h 2.0625 v -0.9375 h 2.25 v -2.25 h 0.9375 v -0.9375 h 3.1875 v -1.125 h 2.25 v -1.125 h 0.9375 v -0.9375 h 1.125 v -1.125 h 2.0625 v -1.125 h 1.125 v -0.9375 h 1.125 v -1.125 H 903 v -1.125 h 2.25 v -0.9375 h 0.9375 v -1.125 h 1.125 v -1.125 h 1.125 v -0.9375 h 0.9375 v -1.125 h 1.125 v -1.125 h 1.125 v -0.9375 h 0.9375 v -1.125 h 1.125 v -1.125 h 1.125 v -1.125 h 0.9375 v -2.0625 h 1.125 v -1.125 H 918 v -0.9375 h 0.9375 v -1.125 h 1.125 v -1.125 h 1.125 v -0.9375 h 0.9375 v -1.125 h 1.125 v -2.0625 h 4.3125 v -1.125 H 928.5 v -1.125 h 1.125 v -2.0625 h 1.125 v -1.125 h 2.0625 v -0.9375 h 1.125 v -3.1875 h -1.125 v -1.125 h -1.125 v -4.3125 h 2.25 v -0.9375 h 0.9375 v -2.25 h -0.9375 v -0.9375 h -4.3125 v 0.9375 h -2.0625 v 1.125 h -2.25 v 1.125 H 923.25 v -1.125 h -3.1875 v 1.125 h -11.625 v -1.125 h -2.25 v 1.125 H 897.75 v -1.125 h -1.125 v -2.0625 h 1.125 v -1.125 h 3.1875 v -1.125 h 8.4375 v 1.125 h 5.4375 v 1.125 H 918 v -1.125 h 0.9375 v -1.125 h 2.25 v -0.9375 h 2.0625 v 0.9375 h 4.3125 v -0.9375 h 2.0625 v 0.9375 h 1.125 v -0.9375 h 0.9375 v -1.125 h 1.125 v -5.25 h -1.125 v -1.125 H 930.75 v -1.125 h 0.9375 v -12.75 h 1.125 v -0.9375 h -1.125 v -3.1875 H 930.75 v -1.125 h -1.125 v -1.125 H 928.5 v -0.9375 h -16.875 v 0.9375 h -3.1875 v -0.9375 h -2.25 v 0.9375 H 905.25 v 1.125 h -1.125 v 2.0625 H 903 v 2.25 h -0.9375 v 3.1875 h -2.25 v 0.9375 h -0.9375 v 1.125 h -1.125 v 2.0625 h 3.1875 v 1.125 h 7.5 v 1.125 h 6.375 v 0.9375 h 0.9375 v -0.9375 h 3.1875 v -1.125 h 3.1875 v 1.125 h 5.4375 v -1.125 h 2.0625 v 2.0625 H 928.5 v 2.25 h -0.9375 v 0.9375 h -5.4375 v -0.9375 h -0.9375 v -1.125 h -2.25 v 1.125 h -4.125 v 0.9375 h -2.25 v -0.9375 h -0.9375 v -2.25 H 910.5 v 1.125 h -1.125 v 1.125 h -0.9375 v 0.9375 h -9.5625 v -0.9375 h -2.25 v -1.125 h -0.9375 v -1.125 h -1.125 v 1.125 H 892.5 v 1.125 h -2.25 v 0.9375 h -2.0625 v 1.125 H 885 v -1.125 h -2.0625 v -0.9375 h -1.125 v -2.25 h -1.125 v -0.9375 H 879.75 v -5.4375 h 0.9375 v -2.0625 h 1.125 v -2.0625 h 1.125 v -1.125 h 0.9375 v -1.125 h 2.25 v -0.9375 h 2.0625 v -1.125 h 1.125 v -1.125 h 0.9375 v -0.9375 h 2.25 v -1.125 h 2.0625 v -3.1875 h 1.125 v -1.125 h 0.9375 v -3.1875 h 1.125 v -2.0625 h 1.125 v -1.125 h 0.9375 v -0.9375 h 1.125 v -1.125 H 903 v -1.125 h 1.125 v 1.125 h 2.0625 v 1.125 h 1.125 v 5.25 h 1.125 v 2.0625 h 23.25 v 1.125 h 2.25 v -1.125 H 943.5 v 1.125 h 5.25 v -1.125 h 1.125 v -0.9375 h 2.0625 v -2.25 h 1.125 v -4.125 h -1.125 v -2.25 h -1.125 v -4.125 h 1.125 v -3.1875 H 954 Z m 48,20.25 v 0.9375 h -2.25 v 1.125 h -4.125 v 1.125 H 994.5 v 0.9375 h -2.0625 v 1.125 h -1.125 v 4.3125 h -1.125 v -1.125 H 989.25 v 1.125 h -1.125 v 2.0625 h 2.0625 v 1.125 h 1.125 v 3.1875 h 2.0625 v -2.25 h 6.375 v -2.0625 h 1.125 v -1.125 H 1002 v -0.9375 h 0.9375 v -1.125 h 1.125 v -1.125 h 2.0625 v 1.125 h 1.125 v 2.0625 h 6.375 v -0.9375 h 1.125 v -2.25 h 0.9375 v -5.25 h -0.9375 v -1.125 h -1.125 v -0.9375 h -1.125 v 0.9375 h -8.4375 v -0.9375 z m -15,18 v 2.0625 h 3.1875 v -2.0625 z m 17.0625,0 v 1.125 h 2.0625 v -1.125 z m -57.375,3.1875 v 1.125 h -1.125 v 6.375 h -1.125 v 2.0625 h 1.125 v 1.125 h 3.1875 v -1.125 h 3.1875 v 1.125 h 1.125 v -1.125 h 3.1875 v 1.125 h 3.1875 v -1.125 h 10.6875 v 1.125 h 4.125 v -1.125 h 2.25 v -9.5625 h -8.625 v 1.125 h -8.4375 v -1.125 h -2.0625 v 1.125 h -4.3125 v -1.125 h -2.25 v 1.125 H 948.75 v -1.125 z m 43.5,0 v 1.125 H 989.25 v 8.4375 H 1002 v -4.3125 h 0.9375 v -3.1875 h -6.375 v -0.9375 h -3.1875 v -1.125 z m -19.125,14.8125 v 1.125 H 969 v 1.125 h -4.3125 v -1.125 H 954 v 1.125 h -2.0625 v -1.125 h -6.375 v 1.125 h -1.125 v 7.3125 h 1.125 v 1.125 h 4.3125 v -1.125 h 2.0625 v 1.125 H 954 v 1.125 h 2.25 v -1.125 h 3.1875 v 1.125 h 1.125 v -1.125 h 2.0625 v -1.125 h 3.1875 v -0.9375 h 1.125 v -1.125 h 0.9375 v 1.125 H 969 v 0.9375 h 6.375 v -0.9375 h 1.125 v -2.25 h -1.125 v -4.125 h 1.125 v -2.25 z m 57.375,0 h 3.1875 v 1.125 h 1.125 v 1.125 h 2.0625 v 0.9375 h 1.125 v 1.125 h 3.1875 v 1.125 h 1.125 v 0.9375 h 0.9375 v 1.125 h 1.125 v 1.125 h 1.125 v 2.0625 h 0.9375 v 3.1875 h -2.0625 v 1.125 h -1.125 v 0.9375 h -4.125 v 1.125 h -3.1875 v -1.125 h -1.125 v -0.9375 h -9.5625 v 0.9375 h -2.0625 v 1.125 h -6.375 v 1.125 h -1.125 v -1.125 h -4.3125 v -1.125 h -0.9375 v -0.9375 h -1.125 v -2.25 h 1.125 v -0.9375 h 0.9375 v -1.125 h 1.125 v -1.125 h 1.125 v -0.9375 h 0.9375 v -1.125 h 2.25 v 1.125 h 3.1875 v -1.125 h 0.9375 v -1.125 h 3.1875 v -3.1875 h 1.125 v -2.0625 h 5.25 z M 877.5,204.28125 h 12.75 v 1.125 h 7.5 v -1.125 h 4.3125 v 1.125 h 2.0625 v 0.9375 h 5.25 v 2.25 h -0.9375 v 0.9375 h -4.3125 v 1.125 h -2.0625 v 1.125 H 897.75 v -1.125 h -2.0625 v -1.125 h -1.125 v 1.125 H 892.5 v 1.125 h -3.1875 v 0.9375 H 879.75 v -0.9375 h -2.25 v -1.125 h -0.9375 v -4.3125 H 877.5 Z m 36.1875,1.125 H 918 v 3.1875 h -1.125 v 0.9375 h -2.0625 v -0.9375 h -2.25 v -2.25 h 1.125 z m 9.5625,0.9375 h 3.1875 v 1.125 H 923.25 Z m 18,18.1875 h 2.25 v 2.0625 h -2.25 z m -10.5,2.0625 v 1.125 h 0.9375 v -1.125 z m 60.5625,2.25 v 3.1875 H 994.5 v -1.125 h 1.125 v -1.125 H 994.5 v -0.9375 z m -27.5625,8.4375 h 0.9375 v 4.3125 h 1.125 v 2.0625 h 1.125 v 6.375 h 0.9375 v 2.0625 H 969 v 1.125 h 1.125 v 2.0625 H 969 v 1.125 h -2.0625 v 1.125 h -1.125 v 4.125 h -1.125 v 2.25 H 963.75 v 4.125 h -1.125 v 2.25 H 961.5 v 4.125 h -0.9375 v 3.1875 h -1.125 v 2.25 h -1.125 v 2.0625 H 954 v 1.125 h -2.0625 v 4.125 h -4.3125 v 2.25 h 1.125 v 4.125 h -2.0625 v 1.125 H 943.5 v 1.125 h -1.125 v 0.9375 h -1.125 v 2.25 h -0.9375 v 2.0625 h -2.25 v 1.125 H 936 v -1.125 h -4.3125 v 1.125 h -4.125 v 0.9375 H 923.25 v 1.125 H 918 v 1.125 h -10.6875 v 0.9375 H 905.25 v 1.125 h -6.375 v -1.125 h -1.125 v 1.125 h -9.5625 v -1.125 H 885 v -0.9375 h -1.125 v -6.375 H 885 v -1.125 h 2.0625 v -1.125 h 20.25 v -0.9375 h 2.0625 v -1.125 h 4.3125 v -1.125 h 2.0625 v -0.9375 h 1.125 v -1.125 h 4.3125 v -1.125 h 2.0625 v 1.125 h 3.1875 v -1.125 h 1.125 v -0.9375 H 928.5 v -1.125 h 2.25 v -1.125 h 0.9375 v -3.1875 h 7.5 v -2.0625 h 3.1875 v -3.1875 h 1.125 v -1.125 h 0.9375 v -0.9375 h 1.125 v -2.25 h 1.125 v -3.1875 h 0.9375 v -0.9375 h 1.125 v -1.125 h 2.0625 v -3.1875 h 1.125 v -2.0625 h 1.125 v -2.25 h -1.125 v -0.9375 h 1.125 v -4.3125 H 954 v -2.0625 h 1.125 v -2.25 H 954 v -2.0625 h 1.125 v -2.0625 H 954 v -2.25 h -0.9375 v -2.0625 H 954 v -3.1875 h 1.125 v -2.0625 h 4.3125 v 0.9375 H 961.5 v -0.9375 h 2.25 z m -80.8125,14.8125 v 1.125 h 0.9375 v -1.125 z m 74.4375,5.4375 v 3.1875 h 0.9375 v -1.125 h 1.125 v -2.0625 z m 28.6875,26.4375 v 1.125 H 987 v -1.125 z m -46.875,1.125 v 2.0625 h 1.125 v 2.25 h 0.9375 v 0.9375 h 4.3125 v -0.9375 h 1.125 v -1.125 H 943.5 v -1.125 h -1.125 v -2.0625 z m -7.5,6.375 v 1.125 h 1.125 v -1.125 z M 970.5,351.125 h 6.9375 v 0.75 h 4.6875 v 0.75 h 6.9375 v 0.75 h 2.25 v 0.75 H 997.5 v 0.75 h 0.75 v 0.75 h 1.6875 v 0.75 h 2.25 v -0.75 h 1.5 v 0.75 h 3.9375 v 0.75 h 1.5 v 0.75 h 0.75 v 0.75 h 0.9375 v 0.75 h 1.5 v 0.75 h 0.75 v 0.75 h 0.75 v 0.75 h 2.25 v 0.75 H 1017 v 1.5 h 0.75 v 3 H 1017 v 6 h -0.9375 v 0.75 h -0.75 v 0.75 h -0.75 v 0.75 h -1.5 v 0.75 h -0.75 v 1.5 h 0.75 v 0.75 h 5.4375 v -0.75 h 0.75 v -2.25 h 0.75 v -3 h 0.75 v -0.75 h 0.75 v -0.75 h 0.75 v -0.75 h 0.9375 v -0.75 h 0.75 v -0.75 h 0.75 v -0.75 h 0.75 v -0.75 h 1.5 v -0.75 h 3.9375 v 0.75 h 0.75 v 0.75 h 0.75 v 0.75 h 0.75 v 0.75 h 0.75 v 0.75 h 0.9375 v 0.75 h 0.75 v 0.75 h 0.75 v 0.75 h 0.75 v 0.75 h 0.75 v 0.75 h 0.75 v 0.75 h 0.75 v 0.75 h 0.75 v 0.75 H 1041 v 0.75 h 0.75 v 0.75 h 0.75 v 0.75 h 1.5 v 0.75 h 0.75 v 0.75 h 0.75 v 3 h -0.75 v 0.75 H 1044 v 0.75 h -0.75 v 0.75 h -1.5 v 0.75 h -3.1875 v 0.75 h -0.75 v 0.75 h -2.25 v -0.75 h -0.75 v -0.75 h -3.1875 v -0.75 h -8.4375 v -0.75 H 1021.5 v -0.75 h -9.9375 v 0.75 h -3.9375 v -0.75 h -18.5625 v 0.75 h -2.4375 v 0.75 h -0.75 v 1.5 h -0.75 v 9 h 0.75 v 0.75 h 0.75 v 1.5 h 3.1875 v 0.75 h 13.125 v 0.75 h 5.4375 v -0.75 h 0.75 v -0.75 h 0.75 v -0.75 h 0.9375 v -0.75 h 0.75 v -0.75 h 0.75 v -0.75 h 0.75 v -0.75 h 0.75 v -0.75 h 5.4375 v 0.75 h 2.25 v 0.75 h 3.1875 v 0.75 h 1.5 v 0.75 h 1.5 v 0.75 h 0.75 v 0.75 h 0.9375 v 0.75 h 0.75 v 0.75 h 0.75 v 0.75 h 0.75 v 0.75 h 0.75 v 1.5 h -0.75 v 0.75 h -0.75 v 0.75 h -0.75 v 1.5 h -0.75 v 0.75 h -0.9375 v 0.75 h -0.75 v 0.75 h -0.75 v 0.75 h -0.75 v 1.5 h -0.75 v 1.5 h -0.75 v 2.25 h -0.75 v 0.75 h -0.75 v 2.25 h 1.5 v 0.75 h 0.75 v 1.5 h 0.75 v 6 h 0.75 v 0.75 h 0.75 v 1.5 h 0.75 v 12.75 h -0.75 v 1.5 h -0.75 v 0.75 h -0.75 v 4.5 h -0.75 v 1.5 h -0.75 v 0.75 h -0.75 v 0.75 h -0.75 v 0.75 h -0.9375 v 0.75 h -0.75 v 1.5 h 0.75 v 0.75 h 0.9375 v 0.75 h 0.75 v 0.75 h -0.75 v 0.75 h -2.4375 v 0.75 H 1017 v 0.75 h -3.9375 v -0.75 h -2.25 v -0.75 h -1.6875 v 0.75 h -0.75 v 2.25 h 0.75 v 3 h -0.75 v 1.5 h 0.75 v 0.75 h 1.6875 v 0.75 h 0.75 v 0.75 h 1.5 v -0.75 h 2.25 v 0.75 H 1017 v 0.75 h 3.75 v -0.75 h 1.5 v -2.25 h 0.9375 v -0.75 h 0.75 v -1.5 h 0.75 v -0.75 h 0.75 v -0.75 h 0.75 v -0.75 h 0.75 v -0.75 h 1.5 v -0.75 h 2.4375 v -0.75 h 0.75 v -0.75 h 0.75 v -1.5 h 0.75 v -0.75 h 4.6875 v 0.75 h 1.5 v 0.75 H 1041 v 0.75 h 0.75 v 0.75 h 1.5 v 0.75 h 2.25 v 0.75 h 0.75 v 1.5 h 0.9375 v 2.25 h 0.75 v 0.75 h 0.75 v 0.75 h 0.75 v 6.75 h -0.75 v 0.75 h -0.75 v 1.5 h -0.75 v 0.75 h -0.9375 v 0.75 h -6.1875 v -0.75 h -3.75 v -0.75 h -2.4375 v -0.75 h -2.25 v -0.75 h -0.75 v -0.75 h -4.6875 v -0.75 h -3.9375 v -0.75 h -1.5 v 0.75 h -3 v 0.75 h -3.9375 v 0.75 h -0.75 v 0.75 h -3.1875 v 0.75 h -1.5 v 0.75 h -0.75 v 9.75 h 0.75 v 3 h -0.75 v 1.5 h 0.75 v 1.5 h 0.75 v 7.5 h -0.75 v 4.5 h 0.75 v 5.25 h -0.75 v 2.25 h -0.75 v 1.5 h -0.75 v 0.75 h -0.75 v 0.75 h -1.6875 v 0.75 h -0.75 v 1.5 h -0.75 v 0.75 h -2.25 v 0.75 H 998.25 v 0.75 h -3 v 0.75 h -5.4375 v 0.75 h -0.75 v 0.75 h -4.6875 v -0.75 h -0.75 v -0.75 h -3.9375 v -0.75 h -0.75 v -1.5 h -0.75 v -0.75 h -0.75 v -0.75 h -0.75 v -2.25 h -0.75 v -0.75 h -0.75 v -1.5 H 974.25 v -0.75 h -0.75 v -0.75 h -0.75 v -0.75 H 972 v -0.75 h -0.75 v -3 H 972 v -0.75 h 0.75 v -0.75 h 13.125 v 0.75 h 0.75 v -0.75 h 3.9375 v -0.75 h 0.75 v -1.5 h 0.75 v -6 H 993 v -1.5 h 0.75 v -9 h 0.75 v -0.75 h 0.75 v -1.5 H 996 v -3.75 h -0.75 v -2.25 h -1.5 v -0.75 H 993 v -0.75 h -0.9375 v -0.75 h -0.75 v -1.5 h -12.375 v -0.75 H 973.5 v 0.75 h -6.9375 v -0.75 h -1.5 v -0.75 h -0.75 v -2.25 h 0.75 v -0.75 h 1.5 v -0.75 h 0.75 v -0.75 h 6.9375 v -0.75 h 7.125 v 0.75 h 0.75 v 0.75 h 0.75 v 0.75 h 2.25 v -0.75 h 0.75 v -0.75 h 0.75 v -0.75 h 0.9375 v -0.75 h 3 v -0.75 H 993 v -0.75 h 0.75 v -1.5 h 0.75 v -0.75 h 0.75 v -2.25 h -0.75 v -0.75 h -0.75 v -7.5 h 0.75 v -0.75 h 0.75 v -0.75 h 9.1875 v 0.75 h 0.9375 v 0.75 h 1.5 v 0.75 h 1.5 v 0.75 h 2.4375 v -5.25 h -0.9375 v -1.5 h -1.5 v -0.75 h -6.9375 v 0.75 h -1.5 v -0.75 H 997.5 v -0.75 h -0.75 v -0.75 h -2.25 v 0.75 h -0.75 v 0.75 H 993 v -0.75 h -0.9375 v -0.75 h -1.5 v 0.75 h -0.75 v 0.75 h -3.9375 v 0.75 h -0.75 v 2.25 h 0.75 v 4.5 h -0.75 v 7.5 h -0.75 v 0.75 h -0.75 v 0.75 h -0.75 v 0.75 h -1.5 v 0.75 h -8.625 v -0.75 H 972 v -0.75 h -0.75 v -0.75 h -0.75 v -7.5 h 0.75 v -10.5 H 972 v -1.5 h 0.75 v -0.75 h 0.75 v -3 h -0.75 v -0.75 H 972 v -1.5 h -0.75 v -3.75 H 972 v -6 h -1.5 v -0.75 h -19.3125 v -0.75 H 949.5 v -0.75 h -0.75 v -1.5 H 948 v -0.75 h -0.75 v -0.75 h -0.75 v -0.75 h -2.4375 v 0.75 h -0.75 v 2.25 h 0.75 v 0.75 h 0.75 v 0.75 H 946.5 v 0.75 h 0.75 v 0.75 h 2.25 v 0.75 h 0.75 v 0.75 h 0.9375 v 12 h 0.75 v 0.75 h 3 v 0.75 h 3.1875 v -0.75 h 3 v 0.75 h 2.4375 v 0.75 h 0.75 v -0.75 h 3 v 0.75 h 0.75 v 0.75 h 0.75 v 0.75 h -0.75 v 0.75 h -1.5 v 0.75 h -0.75 v 0.75 h -3.1875 v -0.75 h -0.75 v -0.75 h -1.5 v -0.75 h -9.1875 v 0.75 H 949.5 v 3.75 h 0.75 v 1.5 h 0.9375 v 9 H 950.25 v 2.25 h -0.75 v 1.5 h -0.75 v 0.75 H 948 v 0.75 h -1.5 v 0.75 h -0.75 v 1.5 h 0.75 v 0.75 h 1.5 v 0.75 h 3.1875 v -0.75 h 2.25 v -0.75 h 1.5 v 0.75 h 2.4375 v 0.75 h 0.75 v 0.75 h 0.75 v 0.75 h 0.75 v 5.25 h 0.75 v 0.75 h 0.75 v 0.75 h 0.75 v 0.75 h 0.75 v 0.75 h 1.6875 v 0.75 h 0.75 v 0.75 h 0.75 v 0.75 h 0.75 v 0.75 h 0.75 v 0.75 h 0.75 v 0.75 h 1.6875 v 0.75 h 0.75 v 0.75 h 0.75 v 0.75 H 972 v 1.5 h 0.75 v 1.5 h 0.75 v 1.5 h 0.75 v 0.75 h 0.9375 v 0.75 h 0.75 v 6 h -0.75 v 0.75 H 974.25 v 0.75 h -0.75 v 0.75 h -0.75 v 0.75 h -1.5 v 0.75 h -0.75 v 0.75 h -0.75 v 0.75 h -0.9375 v 0.75 h -1.5 v 0.75 h -5.4375 v -0.75 h -0.75 v -0.75 h -0.75 v -0.75 h -0.75 v -0.75 h -0.75 v -0.75 h -0.75 v -0.75 h -0.75 v -0.75 h -0.9375 v -18 h -0.75 v -0.75 h -0.75 v -0.75 h -0.75 v -1.5 h -0.75 v -0.75 h -0.75 v -0.75 h -1.5 v -0.75 H 950.25 v -0.75 h -1.5 v -0.75 h -15.375 v 0.75 h -5.4375 v -0.75 H 924 v -0.75 h -2.25 v -0.75 h -3.1875 v -0.75 h -2.25 v 0.75 h -0.75 v 10.5 h 0.75 v 3 h -0.75 v 17.25 h 0.75 v 0.75 h 0.75 v 14.25 h -0.75 v 0.75 h -0.75 v 0.75 h -1.6875 v 0.75 h -0.75 v 0.75 h -1.5 v 0.75 h -0.75 v 0.75 h -1.6875 v 0.75 h -0.75 v 0.75 H 900.75 v -0.75 h -1.5 v -0.75 h -0.75 v -1.5 h -0.75 v -14.25 h 0.75 v -8.25 h 0.75 v -0.75 H 900 v -3 h 0.75 v -6 H 900 v -14.25 h 0.75 v -7.5 h 0.75 v -0.75 h -0.75 v -3 H 900 v -1.5 h 0.75 v -3.75 h 0.75 v -12 h 0.75 v -2.25 h -0.75 v -4.5 h 0.75 v -2.25 H 903 v -0.75 h -0.75 v -0.75 h -0.75 v -15.75 h 0.75 v -4.5 h -0.75 v -5.25 h -0.75 v -0.75 h -1.5 v -0.75 h -7.6875 v 0.75 h -3.9375 v 0.75 h -2.4375 v 0.75 H 874.5 v -0.75 h -1.6875 v -0.75 h -0.75 v -0.75 h -0.75 v -0.75 h -0.75 v -5.25 h 0.75 v -1.5 h 0.75 v -0.75 h 0.75 v -0.75 h 9.375 v 0.75 h 1.5 v 0.75 h 6.1875 v 0.75 h 0.75 v 0.75 h 2.4375 v 0.75 H 901.5 v -0.75 h 0.75 v -3 H 903 v -0.75 h 0.9375 v -3 H 903 v -0.75 h -0.75 v -5.25 h -0.75 v -9 h 0.75 v -1.5 H 903 v -0.75 h 0.9375 v -3 H 903 v -0.75 h -0.75 v -1.5 h -0.75 v -2.25 h -0.75 v -2.25 H 900 v -3.75 h 0.75 v -3 h 0.75 v -0.75 h 0.75 v -0.75 H 903 v -0.75 h 0.9375 v -0.75 h 6.1875 v 0.75 h 0.75 v 0.75 h 2.25 v 0.75 h 4.6875 v 0.75 h 3 v 0.75 h 0.9375 v 0.75 h 0.75 v 2.25 h 0.75 v 0.75 H 924 v 1.5 h 0.75 v 2.25 H 924 v 0.75 h -0.75 v 0.75 h -0.75 v 0.75 h -1.6875 v 0.75 h -0.75 v 0.75 h -1.5 v 0.75 h -0.75 v 0.75 h -0.75 v 6.75 h -0.75 v 4.5 h 0.75 v 3 h -0.75 v 0.75 h -0.75 v 0.75 h -0.9375 v 0.75 h -0.75 v 1.5 h 0.75 v 1.5 h 0.9375 v 0.75 h 0.75 v 4.5 h 0.75 v 0.75 h 1.5 v -0.75 h 0.75 v -0.75 h 2.4375 v -0.75 h 0.75 v -0.75 h 1.5 v -0.75 h 0.75 v -0.75 h 3.1875 v 0.75 h 0.75 v 0.75 h 0.75 v 0.75 h 1.5 v 0.75 h 2.4375 v 0.75 h 0.75 v 0.75 h 0.75 v 1.5 h 1.5 v 0.75 h 0.75 v -1.5 h -0.75 v -3 h 0.75 v -0.75 h 0.75 v -0.75 h 0.75 v -0.75 h 4.6875 v 0.75 h 0.75 v 0.75 h 1.6875 v 0.75 h 0.75 v 0.75 h 0.75 v 0.75 h 1.5 v 0.75 h 1.5 v 0.75 h 0.9375 v 0.75 h 0.75 v 0.75 h 5.4375 v 0.75 h 0.75 v -0.75 h 5.4375 v 0.75 h 0.75 v 3.75 h -0.75 v 0.75 h -3.1875 v -0.75 h -0.75 v -0.75 h -4.6875 v 0.75 h -0.75 v 0.75 h -3 v 1.5 H 950.25 v 1.5 h -0.75 v 8.25 h 0.75 v 0.75 h 1.6875 v 0.75 h 6.1875 v 0.75 h 3.75 v 0.75 h 0.75 v 0.75 H 972 v 0.75 h 0.75 v 0.75 h 2.4375 v -0.75 h 0.75 v -0.75 H 974.25 v -0.75 H 972 v -9.75 h 0.75 v -0.75 h 0.75 v -2.25 h -0.75 v -0.75 H 972 v -1.5 h -0.75 v -0.75 h -0.75 v -0.75 h -0.75 v -0.75 h -0.9375 v -0.75 h 0.9375 v -0.75 h 0.75 v -0.75 h 0.75 v -0.75 H 972 v -0.75 h 0.75 v -0.75 h 0.75 v -1.5 h 0.75 v -0.75 h 0.9375 v -0.75 H 974.25 v -0.75 h -0.75 v -1.5 h -0.75 v -0.75 H 972 v -2.25 h -0.75 v -4.5 h -0.75 v -0.75 h -0.75 v 0.75 h -24 v 0.75 h -6.1875 v -0.75 h -1.6875 v -0.75 h -1.5 v -0.75 h -0.75 v -0.75 h -5.4375 v -0.75 h -0.75 v -0.75 h -0.75 v -1.5 h 2.25 v -0.75 h 1.5 v -0.75 h 5.4375 v 0.75 h 0.75 v -0.75 h 3.1875 v -0.75 h 0.75 v -0.75 h 1.5 v 0.75 h 0.75 v 0.75 h 14.8125 v 0.75 h 1.5 v 0.75 h 5.4375 v 0.75 h 2.25 v -0.75 h 0.9375 v -1.5 h 0.75 v -0.75 h 0.75 v -3 h -0.75 v -1.5 h -0.75 v -19.5 h 0.75 z m 20.0625,10.5 v 1.5 h -0.75 v 0.75 h -0.75 v 0.75 h -0.75 v 0.75 h -0.75 v 0.75 h -2.4375 v 10.5 h 0.75 v 0.75 h 1.6875 v 0.75 h 17.8125 v -0.75 h 3 v -0.75 h -3.9375 v -0.75 h -1.5 v -0.75 h -0.75 v -0.75 h -0.75 v -1.5 h -0.75 v -0.75 h -0.75 v -2.25 h -0.75 v -0.75 H 998.25 v -3 h -0.75 v -1.5 h -0.75 v -0.75 H 996 v -0.75 h -1.5 v -0.75 h -0.75 v -0.75 z M 996,401.375 v 0.75 h -2.25 v 0.75 H 993 v 0.75 h -8.625 v 1.5 h 0.75 v 7.5 h 0.75 v 3 h 0.75 v 0.75 h 24.1875 v -12 h -0.9375 v -1.5 h -0.75 v -0.75 h -0.75 v -0.75 z m -58.125,2.25 v 0.75 h -0.75 v 0.75 h -3 v 0.75 h -14.0625 v 0.75 h -1.5 v -0.75 h -2.25 v 0.75 h -0.75 v 0.75 h -0.9375 v 3.75 h 0.9375 v 4.5 h -0.9375 v 8.25 h 0.9375 v 5.25 h 0.75 v 3 h -0.75 v 9 h -0.9375 v 3.75 h 0.9375 v 2.25 h 0.75 v 6 h -0.75 v 4.5 h 0.75 v 5.25 h 1.5 v -0.75 h 16.3125 v 0.75 h 4.5 v -0.75 h 0.9375 v -1.5 h -0.9375 v -1.5 h -0.75 v -0.75 h -0.75 v -6.75 h 0.75 v -0.75 h 0.75 v -9.75 h 0.9375 v -9 h -0.9375 v -8.25 h 0.9375 v -0.75 h -0.9375 v -2.25 h -0.75 v -0.75 h -0.75 v -3.75 h 0.75 v -0.75 h 0.75 v -6.75 h 0.9375 v -0.75 h -0.9375 v -3.75 h 0.9375 v -0.75 z m 45.75,18 v 0.75 h -0.75 v 2.25 h 0.75 v 0.75 h 0.75 v 5.25 h 0.75 v 4.5 h 0.75 v 0.75 h 0.75 v 0.75 h 14.8125 v -0.75 h 4.6875 v 0.75 h 3.75 v -0.75 h 0.9375 v -6 h -0.9375 v -7.5 h -0.75 v -0.75 z m -31.5,141.6875 h 11.8125 v 1.3125 h 3.9375 v 1.3125 h 1.3125 v 2.625 H 970.5 v 1.3125 h 1.3125 v 1.3125 h 1.3125 v 5.4375 h -1.3125 v 1.3125 h -2.625 v 2.625 h -1.3125 v 7.6875 h 1.3125 v 1.3125 H 1002 v 1.3125 h 2.8125 v -1.3125 h 1.3125 v -2.625 h 1.3125 v -1.3125 h 1.3125 v -1.3125 h 1.3125 v -3.9375 h 1.3125 v -1.3125 h 9 v 1.3125 h 5.25 v 1.3125 h 5.25 V 583 h 1.3125 v 2.625 h 1.3125 v 1.3125 h 1.3125 v 1.3125 h 1.3125 v 1.3125 h 1.3125 v 1.3125 h 2.625 v 1.3125 h 1.3125 v 2.625 h 1.3125 v 4.125 h -1.3125 v 3.9375 h -1.3125 v 1.3125 h -7.6875 v -1.3125 h -4.125 v 1.3125 h -1.3125 v 2.625 h -1.3125 v 1.3125 h -5.25 v 1.3125 h -1.3125 v 1.3125 h -1.3125 v 1.3125 h -1.3125 v 1.3125 h -1.3125 v 1.3125 h -1.3125 V 616 H 1012.5 v 1.3125 h -2.625 v 1.3125 h -2.4375 v -1.3125 h -1.3125 v -1.5 h 1.3125 V 614.5 h 1.3125 v -1.3125 h 1.3125 V 604 h 1.3125 v -6.375 h -1.3125 v -1.3125 H 982.5 V 595 h -21 v -1.3125 h -8.25 V 595 h -9.1875 v 1.3125 h -1.125 V 595 H 932.25 v 1.3125 h -6.375 V 595 h -15.9375 v 1.3125 h -1.3125 v 1.3125 h -1.3125 v 1.3125 H 906 v 2.625 h -1.3125 v 6.5625 h -1.3125 v 1.3125 h -1.3125 v 3.9375 H 900.75 V 616 h -1.3125 v 1.3125 h -1.3125 v 1.3125 h -1.3125 v 1.3125 H 895.5 v 1.3125 h -6.5625 v 1.3125 h -3.75 V 621.25 h -2.625 v -1.3125 H 881.25 v -1.3125 h -2.625 v -1.3125 h -1.3125 V 616 H 876 v -1.3125 h -1.3125 v -2.625 h -1.3125 v -6.75 h 1.3125 V 604 h 2.625 v -1.3125 h 1.3125 v -1.3125 h 1.3125 v -1.3125 h 2.625 V 598.75 h 2.625 v -1.3125 H 886.5 v -5.25 h 1.3125 v -2.625 h 1.3125 v -7.875 h 1.3125 v -1.3125 h 1.3125 v -2.625 h 1.3125 v -1.3125 h 1.125 v 1.3125 h 2.625 v 1.3125 h 1.3125 v 1.3125 h 1.3125 v 1.3125 h 1.3125 v 2.625 h 1.3125 v 1.3125 H 906 v 1.3125 h 3.9375 v 1.3125 h 9.375 v -1.3125 h 10.3125 v 1.3125 h 6.5625 v 1.3125 h 5.4375 V 588.25 h 3.9375 v -1.3125 h 1.3125 V 567.25 h 1.3125 v -1.3125 H 949.5 v -1.3125 h 2.625 z m -9.1875,43.3125 h 2.4375 v 1.3125 h 3.9375 v 1.3125 h 2.625 v 1.3125 H 960 v 1.3125 h 3.9375 v 1.3125 h 1.3125 v 1.5 h -1.3125 v 2.625 h -1.3125 v 1.3125 H 960 v 1.3125 h -1.3125 v 1.3125 h -1.3125 v 1.3125 h -1.5 v 2.625 h -1.3125 v 3.9375 H 953.25 v 1.3125 h -1.3125 v 1.3125 h -1.3125 v 1.3125 h -1.3125 v 2.625 H 948 v 3.75 h 1.3125 v 1.3125 h 1.3125 v 1.3125 h 8.0625 v 1.3125 h 5.4375 v -1.3125 h 9.1875 V 640.75 h 1.3125 v -1.3125 h 1.3125 v -2.625 H 977.25 V 635.5 h 1.3125 v -1.3125 H 988.875 V 635.5 h 2.625 v 1.3125 h 1.3125 v 1.3125 h 2.625 v 1.3125 h 2.625 v 1.3125 h 10.6875 v -1.3125 h 1.3125 v -1.3125 h 2.625 v -1.3125 H 1014 V 635.5 h 1.3125 v -3.9375 h 1.3125 V 630.25 h 1.3125 v -1.3125 H 1023 v 1.3125 h 6.5625 v 1.3125 h 2.625 v 1.3125 h 2.625 v 1.3125 h 1.3125 V 635.5 h 2.625 v 1.3125 h 1.3125 v 1.3125 h 2.625 v 1.3125 H 1044 v 1.3125 h 1.3125 v 6.9375 h -18.1875 v -1.5 h -2.8125 v 1.5 H 1002 V 649 h -2.625 v 1.3125 h -1.3125 v 1.3125 H 996.75 v 7.875 h -1.3125 v 1.3125 h -2.625 v 2.625 H 991.5 v 3.9375 h -1.3125 v 1.3125 H 988.875 V 670 h -1.3125 v 5.25 H 986.25 v 1.3125 h -1.3125 v 1.3125 h -1.3125 v 1.3125 h -1.3125 v 5.0625 h 7.875 v 1.3125 h 2.625 v 1.3125 h 2.625 v 1.3125 h 2.625 V 689.5 h 1.3125 v 1.3125 h 1.3125 v 1.3125 h 2.625 v 1.3125 h 3.9375 v 1.3125 h 3.9375 v 1.3125 h 2.625 v 1.3125 h 2.625 v 1.3125 h 2.625 V 700 h 2.625 v 1.3125 H 1023 v 1.3125 h 2.625 v 1.3125 h 1.3125 v 1.3125 h 1.3125 v 2.625 h 1.3125 v 1.3125 h 1.3125 V 710.5 h 1.3125 v 5.4375 h -1.3125 v 1.3125 h -1.3125 v 3.9375 h -1.3125 v 2.625 h -1.3125 v 1.3125 h -1.3125 v 1.3125 h -6.375 v -1.3125 h -2.625 v -1.3125 H 1014 V 722.5 h -2.625 v -1.3125 h -1.3125 v -1.3125 h -1.3125 v -1.3125 h -1.3125 V 717.25 h -2.625 v -1.3125 h -2.625 v -1.3125 h -1.3125 V 712 h -2.625 v -1.3125 h -2.625 v -1.3125 h -1.3125 v -1.3125 h -2.625 V 706.75 h -1.3125 v -1.3125 h -2.625 v -1.3125 h -1.3125 v -1.3125 h -2.625 V 701.5 h -2.625 v -1.3125 h -1.3125 v -1.3125 h -1.3125 v -1.3125 H 974.625 V 696.25 h -1.3125 v -2.625 h -4.125 v 1.3125 h -2.625 V 696.25 H 965.25 v 1.3125 h -1.3125 V 701.5 h -1.3125 v 1.3125 H 960 v 2.625 h -1.3125 v 1.3125 h -1.3125 v 1.3125 h -1.5 v 1.3125 h -1.3125 v 1.3125 H 953.25 V 712 h -1.3125 v 1.3125 h -2.625 v 1.3125 h -2.625 v 1.3125 h -2.625 v 1.3125 h -2.625 v 1.3125 h -5.25 v 1.3125 h -2.625 v 1.3125 h -2.625 V 722.5 h -1.3125 v 1.3125 h -6.5625 v 1.3125 h -3.9375 v 1.3125 h -1.3125 v 1.3125 h -5.25 v 1.3125 h -7.875 v 1.3125 h -2.625 v 1.3125 H 897 v -1.3125 h -3.9375 v -1.3125 H 891.75 V 721 h 1.3125 v -1.3125 h 1.3125 v -1.3125 h 1.3125 v -1.3125 h 2.625 V 715.75 h 7.875 v -1.3125 h 2.4375 v 1.3125 h 6.75 v -1.3125 h 10.5 v -1.3125 h 2.625 v -1.3125 h 2.625 V 710.5 h 1.3125 v -1.3125 h 1.3125 v -1.3125 h 1.3125 v -1.3125 h 1.3125 V 705.25 h 1.3125 v -1.3125 h 2.625 v -1.3125 h 1.3125 v -1.3125 h 1.3125 V 700 h 2.625 v -1.3125 h 2.625 V 697.375 H 949.5 v -1.3125 h 2.625 V 694.75 h 2.625 v -5.0625 h -3.9375 v -1.3125 h -3.9375 v -1.3125 h -3.9375 V 685.75 h -1.3125 v -1.3125 h -3.9375 v -1.3125 h -9.375 v 1.3125 h -2.625 v 1.3125 h -1.3125 v 1.3125 h -1.3125 v 1.3125 H 921.75 v 1.3125 h -1.125 V 688.375 H 918 v -1.3125 h -6.75 v 1.3125 h -1.3125 v 1.3125 H 908.625 V 691 h -6.375 v -1.3125 h -1.3125 v -1.3125 h -1.3125 v -1.3125 h -1.3125 V 685.75 H 897 v -1.5 h 1.3125 v -1.3125 h 1.3125 v -1.3125 h 1.3125 v -1.3125 H 902.25 V 679 h 2.625 v -1.3125 h 1.3125 v -1.3125 h 2.625 v -1.3125 h 1.3125 V 673.75 h 1.3125 v -1.3125 h 2.625 v -1.3125 h 1.3125 V 668.5 h 1.3125 v -1.3125 h 2.4375 V 668.5 h 2.8125 v -3.75 h -1.3125 v -1.3125 h -1.3125 v -2.8125 h 1.3125 v -1.3125 h 1.3125 V 658 h 1.3125 v -2.625 h 1.3125 v -5.25 h 1.3125 v -2.4375 h -2.625 v -1.5 H 911.4375 V 644.875 H 900.75 v 1.3125 h -6.375 V 644.875 H 886.5 v -1.3125 h -1.3125 V 642.25 h -1.3125 v -1.3125 h -1.3125 v -2.625 h -2.625 V 635.5 h 1.3125 v -1.3125 h 12.9375 V 635.5 h 3.9375 v 1.3125 h 2.625 v 1.3125 h 3.9375 v 1.3125 H 916.5 v 1.3125 h 3.9375 v 1.3125 h 4.125 V 640.75 h 5.25 v -1.3125 h 1.3125 v -1.3125 h 1.3125 V 635.5 h 1.3125 v -2.4375 h -1.3125 V 627.625 H 933.75 V 625 h 1.3125 v -1.3125 h 1.3125 v -1.3125 h 1.3125 v -3.9375 H 939 v -6.5625 h 1.3125 v -2.625 h 1.3125 v -1.3125 h 1.3125 z M 945.375,649 v 1.3125 h -2.625 v 3.9375 h -1.3125 v 3.9375 h -1.3125 v 2.625 h -1.3125 v 1.3125 H 937.5 v 3.9375 h -1.3125 v 2.625 h -1.3125 v 5.0625 h 1.3125 v 1.3125 H 937.5 v 1.3125 h 4.125 v -1.3125 H 948 v 1.3125 h 5.25 v 1.3125 h 5.4375 V 679 h 6.75 v -1.3125 h 1.3125 v -1.3125 h 2.625 v -5.25 h 1.3125 v -1.3125 H 972 V 668.5 h 1.3125 v -9.1875 h 1.3125 v -2.625 h 1.3125 v -1.3125 h 1.3125 v -1.3125 h 1.3125 v -3.75 H 977.25 V 649 h -9.375 v 1.3125 H 966.75 V 649 Z m 70.125,125.09375 q 9,4.6875 9,5.8125 v 1.6875 q -6.5625,5.625 -6.5625,9.9375 l 1.6875,4.125 q -2.625,11.625 -5.0625,13.875 3.75,3.375 4.125,3.375 h 6.5625 q 0,-3 9.1875,-9.9375 7.125,0 10.6875,14.0625 -1.875,5.0625 -3.1875,5.0625 H 1041 q -22.3125,-2.4375 -22.3125,-5.0625 -6.5625,2.25 -6.5625,4.125 1.875,0 5.8125,11.625 l -0.9375,4.125 0.9375,3.375 q -0.9375,2.4375 -1.6875,2.4375 l 0.75,5.8125 v 4.875 l 1.6875,2.4375 v 2.4375 q 0,2.625 -0.75,2.625 1.125,10.125 2.4375,13.125 -6.375,23.25 -16.5,23.25 0,0.75 -3.375,0.75 h -0.75 q -4.125,0 -9.9375,-9 -3.375,0 -4.875,-3.375 v -0.75 q 0,-1.6875 2.4375,-1.6875 5.8125,0 5.8125,1.6875 14.0625,0 14.0625,-10.875 0,-1.6875 -1.6875,-1.6875 l 1.6875,-9.75 q -1.3125,-4.875 -2.625,-7.5 0,-9.9375 3.375,-9.9375 v -0.75 l -2.4375,-8.25 v -0.9375 q 0,-3 3.1875,-6.5625 v -4.125 q -6.1875,-5.25 -11.4375,-5.8125 l -9.9375,0.75 q -10.875,-0.375 -10.875,-1.5 l -1.5,0.75 h -5.8125 q -1.6875,0 -1.6875,-1.6875 v -0.75 l 1.6875,-2.4375 8.25,0.75 h 2.4375 q 0.75,0 6.5625,-1.6875 h 1.6875 q 2.25,0 5.0625,1.6875 10.5,0 12.375,-5.0625 0,-0.75 3.1875,-0.75 -4.875,-3 -4.875,-14.0625 1.6875,-6.1875 1.6875,-8.25 -1.6875,-5.4375 -1.6875,-7.5 v -1.5 q 0,-2.625 11.625,-3.375 z m -57.9375,3.375 q 9.9375,4.875 9.9375,7.3125 0,2.8125 -4.125,9.1875 l 0.75,1.6875 v 6.5625 l 0.9375,4.875 q 0,4.5 -11.625,5.8125 l -6.5625,-4.125 h -0.9375 q -5.625,0.1875 -5.625,1.6875 -1.3125,0 -14.0625,-2.4375 l -4.125,1.5 q -15.75,-2.4375 -15.75,-4.125 l 3.1875,-2.4375 H 910.5 q 1.875,0 3.375,0.9375 3,-1.6875 6.5625,-1.6875 l 1.6875,0.75 q 1.3125,-0.75 3.1875,-0.75 l 9.1875,2.4375 h 12.375 l 4.125,0.75 v -0.75 q 0,-1.6875 -1.6875,-1.6875 0,-6.9375 4.125,-11.4375 v -0.9375 q -3.375,-4.3125 -3.375,-9.9375 6,-3.1875 7.5,-3.1875 z m -57,2.4375 q 10.125,1.875 13.3125,4.125 2.625,-1.6875 4.875,-1.6875 l 2.4375,3.375 q 0,1.125 -19.875,5.8125 l -0.75,4.875 q 0,0.75 3.375,4.875 v 0.9375 q 0,3.75 -4.125,9 3.1875,3.75 3.1875,5.8125 -2.4375,8.8125 -2.4375,12.375 l 0.75,1.6875 -0.75,5.0625 v 2.4375 l 3.375,4.125 v 1.6875 q 0,1.6875 -7.5,3.1875 0,3.375 -10.6875,23.25 -2.25,2.0625 -6.75,12.375 h -2.4375 q -1.6875,0 -1.6875,-1.6875 l 9.9375,-25.6875 q -1.6875,0 -1.6875,-1.6875 2.625,-2.625 2.625,-4.125 l -0.9375,-3.1875 q 2.625,-2.8125 5.8125,-25.6875 -0.75,-1.3125 -0.75,-4.125 1.6875,-4.875 2.4375,-4.875 -2.4375,-6.5625 -2.4375,-8.25 0.375,-2.4375 4.125,-6.75 v -3.1875 q 0,-3.5625 -3.375,-9.1875 1.125,-4.875 9.9375,-4.875 z m 34.6875,0.75 q 10.6875,0.5625 10.6875,3.375 v 2.4375 l -1.5,2.4375 -5.8125,-0.75 h -8.25 q -1.3125,0 -2.625,-2.4375 3.5625,-5.0625 7.5,-5.0625 z m 17.4375,36.375 q 9,2.0625 9,4.125 v 2.4375 q 0,0.75 -6.5625,5.0625 h -17.4375 q -0.75,0 -0.75,-0.9375 -3.375,0.75 -3.375,1.6875 -14.0625,-1.125 -14.0625,-4.125 1.6875,-1.6875 15.75,-4.125 7.125,1.6875 8.25,1.6875 7.5,-5.8125 9.1875,-5.8125 z m -43.875,5.0625 q 6.5625,1.5 6.5625,3.1875 v 1.6875 h -1.5 q -6.375,0 -7.5,-3.375 0,-1.5 2.4375,-1.5 z m 57.9375,11.4375 q 7.3125,5.8125 7.3125,6.75 v 2.4375 l -1.6875,2.4375 -4.125,-0.75 h -4.875 q -8.25,2.4375 -16.5,2.4375 h -0.9375 l -4.875,-0.9375 q -1.3125,0.9375 -4.125,0.9375 H 935.25 q 0,0.75 -0.75,2.4375 0.75,9.9375 0.75,14.8125 l -0.75,5.0625 q 0.75,3.1875 0.75,6.5625 v 6.5625 q 0,6.9375 -17.25,11.625 -8.4375,-7.6875 -8.4375,-10.6875 l 2.625,-1.6875 h 11.4375 q 1.6875,-5.25 1.6875,-6.5625 -1.6875,-6 -1.6875,-9.1875 2.625,-4.125 2.625,-5.8125 -2.25,0 -4.125,-14.8125 -1.5,-0.75 -3.375,-0.75 h -2.4375 l -2.4375,1.5 h -2.625 q -1.6875,0 -1.6875,-1.5 0,-1.3125 3.375,-3.375 h 10.6875 q 2.25,0 5.0625,1.6875 0.375,0 9.9375,-3.375 2.625,1.6875 4.875,1.6875 h 9.1875 q 5.0625,0 11.4375,-7.5 z m 16.5,10.875 q 16.5,4.125 16.5,12.375 -1.875,3.375 -8.25,6.5625 -6.1875,-3 -6.5625,-5.0625 v -1.5 l 0.75,-1.6875 q -1.125,0 -4.125,-4.125 v -5.0625 q 0.1875,-1.5 1.6875,-1.5 z m -74.4375,9 q 7.125,4.6875 7.5,7.5 0,1.5 -8.25,9 -5.0625,8.25 -10.875,8.25 l -0.75,-1.6875 v -1.5 q 7.5,-5.625 7.5,-13.3125 3.9375,-8.25 4.875,-8.25 z m 33,0.75 q 9.5625,0 19.875,10.875 3.75,0 5.8125,8.25 -2.8125,1.6875 -8.25,2.4375 v 0.75 l 3.375,3.375 q 0,1.875 -4.125,2.4375 -8.4375,-13.125 -8.4375,-18.1875 -1.5,-3.1875 -9,-7.3125 v -0.9375 z m 8.25,34.875 q 4.6875,0 13.3125,7.3125 6.5625,1.5 6.5625,9.9375 -4.875,3.1875 -4.875,8.25 l -5.8125,1.6875 q -3.1875,0 -6.5625,-16.5 -5.8125,-5.8125 -5.8125,-9.1875 z m -28.875,5.625 q 10.6875,2.625 10.6875,9.1875 -0.75,6 -1.5,7.5 l 0.75,4.875 -1.6875,3.375 q 2.25,10.6875 7.5,10.6875 v 0.75 l 4.125,-0.75 h 9 q 3.9375,0 8.4375,-0.9375 3,0.9375 7.3125,0.9375 14.0625,-2.0625 14.0625,-7.5 2.4375,0 6.5625,-10.6875 h 1.6875 q 1.6875,0 1.6875,2.4375 l -0.75,4.125 q 0.9375,8.25 4.875,11.625 0,10.6875 -10.6875,10.6875 l -5.0625,0.9375 q -2.625,-1.6875 -4.875,-1.6875 -2.8125,0 -5.8125,2.4375 h -0.75 q -4.125,0 -8.25,-2.4375 -4.5,0.75 -7.5,0.75 l -3.375,-2.4375 h -0.75 q -1.875,2.4375 -15.75,3.375 -7.875,0 -11.625,-5.0625 v -0.75 q 0,-2.25 1.6875,-5.0625 l -0.75,-3.1875 0.75,-5.8125 q -1.6875,-8.25 -1.6875,-10.6875 1.6875,0 1.6875,-2.625 L 918,897.28125 Z m -29.625,6.75 q 3.1875,1.3125 3.1875,5.8125 0,1.6875 -0.75,3.1875 l 2.4375,4.125 v 3.375 q 0,7.6875 -10.6875,18.1875 h -1.6875 q -7.875,0 -9.9375,-10.875 6.75,-6.9375 12.375,-17.25 0.9375,0 3.375,-6.5625 z m 114.75,4.125 15.75,6.5625 q 10.6875,7.3125 10.6875,14.0625 l 0.9375,4.875 q -2.25,9.1875 -9.1875,9.1875 h -3.375 q -4.3125,0 -9,-19.875 -2.4375,-0.1875 -8.25,-13.125 z"
       id="text8"
       style="font-size:192px;line-height:0;font-family:汇文明朝体;-inkscape-font-specification:'汇文明朝体, Normal';letter-spacing:20px;word-spacing:0px;writing-mode:tb-rl"
       aria-label="赛博安慰" /></g></svg>
