{
	"Version": 3,
	"Meta": {
		"Duration": 1.267,
		"Fps": 30.0,
		"Loop": true,
		"AreBeziersRestricted": true,
		"CurveCount": 1,
		"TotalSegmentCount": 38,
		"TotalPointCount": 115,
		"UserDataCount": 0,
		"TotalUserDataSize": 0
	},
	"Curves": [
		{
			"Target": "Parameter",
			"Id": "guanxian",
			"Segments": [
				0,
				23,
				1,
				0.011,
				23,
				0.022,
				-12,
				0.033,
				-12,
				1,
				0.044,
				-12,
				0.056,
				-6,
				0.067,
				-6,
				1,
				0.078,
				-6,
				0.089,
				-5.605,
				0.1,
				-9,
				1,
				0.111,
				-12.395,
				0.122,
				-30,
				0.133,
				-30,
				1,
				0.144,
				-30,
				0.156,
				-12,
				0.167,
				-12,
				1,
				0.178,
				-12,
				0.189,
				-12,
				0.2,
				-12,
				1,
				0.211,
				-12,
				0.222,
				-3,
				0.233,
				-3,
				1,
				0.244,
				-3,
				0.256,
				-21,
				0.267,
				-21,
				1,
				0.278,
				-21,
				0.289,
				-14.311,
				0.3,
				-9,
				1,
				0.311,
				-3.689,
				0.322,
				-3,
				0.333,
				-3,
				1,
				0.344,
				-3,
				0.356,
				-15,
				0.367,
				-15,
				1,
				0.378,
				-15,
				0.389,
				-9,
				0.4,
				-9,
				1,
				0.411,
				-9,
				0.422,
				-30,
				0.433,
				-30,
				1,
				0.444,
				-30,
				0.456,
				-21,
				0.467,
				-21,
				1,
				0.478,
				-21,
				0.489,
				-24,
				0.5,
				-24,
				1,
				0.511,
				-24,
				0.522,
				-9.334,
				0.533,
				-6,
				1,
				0.544,
				-2.666,
				0.556,
				-3,
				0.567,
				-3,
				1,
				0.578,
				-3,
				0.589,
				-4,
				0.6,
				-6,
				1,
				0.611,
				-8,
				0.622,
				-9,
				0.633,
				-9,
				1,
				0.644,
				-9,
				0.656,
				-6,
				0.667,
				-6,
				1,
				0.678,
				-6,
				0.689,
				-6,
				0.7,
				-6,
				1,
				0.711,
				-6,
				0.722,
				-24,
				0.733,
				-24,
				1,
				0.744,
				-24,
				0.756,
				-24.133,
				0.767,
				-21,
				1,
				0.778,
				-17.867,
				0.789,
				-9,
				0.8,
				-9,
				1,
				0.811,
				-9,
				0.822,
				-9.322,
				0.833,
				-15,
				1,
				0.844,
				-20.678,
				0.856,
				-30,
				0.867,
				-30,
				1,
				0.878,
				-30,
				0.889,
				-27,
				0.9,
				-21,
				1,
				0.911,
				-15,
				0.922,
				-12,
				0.933,
				-12,
				1,
				0.944,
				-12,
				0.956,
				-18.046,
				0.967,
				-21,
				1,
				0.978,
				-23.954,
				0.989,
				-24,
				1,
				-24,
				1,
				1.011,
				-24,
				1.022,
				-3,
				1.033,
				-3,
				1,
				1.044,
				-3,
				1.056,
				-2.839,
				1.067,
				-9,
				1,
				1.078,
				-15.161,
				1.089,
				-30,
				1.1,
				-30,
				1,
				1.111,
				-30,
				1.122,
				-6,
				1.133,
				-6,
				1,
				1.144,
				-6,
				1.156,
				-9.354,
				1.167,
				-12,
				1,
				1.178,
				-14.646,
				1.189,
				-15,
				1.2,
				-15,
				1,
				1.211,
				-15,
				1.222,
				-11.646,
				1.233,
				-9,
				1,
				1.244,
				-6.354,
				1.256,
				-6.538,
				1.267,
				-3
			]
		}
	]
}