{
	"Version": 3,
	"Meta": {
		"Duration": 0.467,
		"Fps": 30.0,
		"Loop": true,
		"AreBeziersRestricted": true,
		"CurveCount": 32,
		"TotalSegmentCount": 58,
		"TotalPointCount": 146,
		"UserDataCount": 0,
		"TotalUserDataSize": 0
	},
	"Curves": [
		{
			"Target": "Parameter",
			"Id": "ParamAngleX",
			"Segments": [
				0,
				0,
				0,
				0.467,
				0
			]
		},
		{
			"Target": "Parameter",
			"Id": "ParamAngleY",
			"Segments": [
				0,
				0,
				0,
				0.467,
				0
			]
		},
		{
			"Target": "Parameter",
			"Id": "fei",
			"Segments": [
				0,
				0,
				0,
				0.467,
				0
			]
		},
		{
			"Target": "Parameter",
			"Id": "ParamAngleZ",
			"Segments": [
				0,
				-30,
				0,
				0.467,
				-30
			]
		},
		{
			"Target": "Parameter",
			"Id": "donghau",
			"Segments": [
				0,
				0,
				0,
				0.467,
				0
			]
		},
		{
			"Target": "Parameter",
			"Id": "shandian",
			"Segments": [
				0,
				-30,
				1,
				0.011,
				-30,
				0.022,
				-30,
				0.033,
				-30,
				1,
				0.044,
				-30,
				0.056,
				-27.202,
				0.067,
				-25,
				1,
				0.078,
				-22.798,
				0.089,
				-21.24,
				0.1,
				-20,
				1,
				0.111,
				-18.76,
				0.122,
				-18,
				0.133,
				-17,
				1,
				0.144,
				-16,
				0.156,
				-15.375,
				0.167,
				-14,
				1,
				0.178,
				-12.625,
				0.189,
				-8.684,
				0.2,
				-7,
				1,
				0.211,
				-5.316,
				0.222,
				-4.14,
				0.233,
				-3,
				1,
				0.244,
				-1.86,
				0.256,
				-1.422,
				0.267,
				0,
				1,
				0.278,
				1.422,
				0.289,
				5.718,
				0.3,
				8,
				1,
				0.311,
				10.282,
				0.322,
				12.684,
				0.333,
				14,
				1,
				0.344,
				15.316,
				0.356,
				15.86,
				0.367,
				17,
				1,
				0.378,
				18.14,
				0.389,
				18.888,
				0.4,
				21,
				1,
				0.411,
				23.112,
				0.422,
				30,
				0.433,
				30,
				1,
				0.444,
				30,
				0.456,
				30,
				0.467,
				30
			]
		},
		{
			"Target": "Parameter",
			"Id": "dian",
			"Segments": [
				0,
				0.7,
				1,
				0.011,
				0.7,
				0.022,
				0.7,
				0.033,
				0.7,
				1,
				0.044,
				0.7,
				0.056,
				0.7,
				0.067,
				0.7,
				1,
				0.078,
				0.7,
				0.089,
				0.7,
				0.1,
				0.7,
				1,
				0.111,
				0.7,
				0.122,
				0.7,
				0.133,
				0.7,
				1,
				0.144,
				0.7,
				0.156,
				0.6,
				0.167,
				0.6,
				1,
				0.178,
				0.6,
				0.189,
				0.7,
				0.2,
				0.7,
				1,
				0.211,
				0.7,
				0.222,
				0.6,
				0.233,
				0.6,
				1,
				0.244,
				0.6,
				0.256,
				0.6,
				0.267,
				0.6,
				1,
				0.278,
				0.6,
				0.289,
				0.656,
				0.3,
				0.7,
				1,
				0.311,
				0.744,
				0.322,
				0.756,
				0.333,
				0.8,
				1,
				0.344,
				0.844,
				0.356,
				0.9,
				0.367,
				0.9,
				1,
				0.378,
				0.9,
				0.389,
				0.8,
				0.4,
				0.8,
				1,
				0.411,
				0.8,
				0.422,
				0.9,
				0.433,
				0.9,
				1,
				0.444,
				0.9,
				0.456,
				0.8,
				0.467,
				0.8
			]
		},
		{
			"Target": "Parameter",
			"Id": "ParamEyeLOpen",
			"Segments": [
				0,
				1,
				0,
				0.467,
				1
			]
		},
		{
			"Target": "Parameter",
			"Id": "ParamEyeLSmile",
			"Segments": [
				0,
				0,
				0,
				0.467,
				0
			]
		},
		{
			"Target": "Parameter",
			"Id": "ParamEyeROpen",
			"Segments": [
				0,
				1,
				0,
				0.467,
				1
			]
		},
		{
			"Target": "Parameter",
			"Id": "ParamEyeRSmile",
			"Segments": [
				0,
				0,
				0,
				0.467,
				0
			]
		},
		{
			"Target": "Parameter",
			"Id": "ParamEyeBallX",
			"Segments": [
				0,
				0,
				0,
				0.467,
				0
			]
		},
		{
			"Target": "Parameter",
			"Id": "ParamEyeBallY",
			"Segments": [
				0,
				0,
				0,
				0.467,
				0
			]
		},
		{
			"Target": "Parameter",
			"Id": "ParamBrowLY",
			"Segments": [
				0,
				0,
				0,
				0.467,
				0
			]
		},
		{
			"Target": "Parameter",
			"Id": "ParamBrowRY",
			"Segments": [
				0,
				0,
				0,
				0.467,
				0
			]
		},
		{
			"Target": "Parameter",
			"Id": "ParamBrowLX",
			"Segments": [
				0,
				0,
				0,
				0.467,
				0
			]
		},
		{
			"Target": "Parameter",
			"Id": "ParamBrowRX",
			"Segments": [
				0,
				0,
				0,
				0.467,
				0
			]
		},
		{
			"Target": "Parameter",
			"Id": "ParamBrowLAngle",
			"Segments": [
				0,
				0,
				0,
				0.467,
				0
			]
		},
		{
			"Target": "Parameter",
			"Id": "ParamBrowRAngle",
			"Segments": [
				0,
				0,
				0,
				0.467,
				0
			]
		},
		{
			"Target": "Parameter",
			"Id": "ParamBrowLForm",
			"Segments": [
				0,
				0,
				0,
				0.467,
				0
			]
		},
		{
			"Target": "Parameter",
			"Id": "ParamBrowRForm",
			"Segments": [
				0,
				0,
				0,
				0.467,
				0
			]
		},
		{
			"Target": "Parameter",
			"Id": "ParamMouthForm",
			"Segments": [
				0,
				0,
				0,
				0.467,
				0
			]
		},
		{
			"Target": "Parameter",
			"Id": "ParamMouthOpenY",
			"Segments": [
				0,
				0,
				0,
				0.467,
				0
			]
		},
		{
			"Target": "Parameter",
			"Id": "ronghe",
			"Segments": [
				0,
				0,
				0,
				0.467,
				0
			]
		},
		{
			"Target": "Parameter",
			"Id": "ParamCheek",
			"Segments": [
				0,
				0,
				0,
				0.467,
				0
			]
		},
		{
			"Target": "Parameter",
			"Id": "ParamBodyAngleX",
			"Segments": [
				0,
				0,
				0,
				0.467,
				0
			]
		},
		{
			"Target": "Parameter",
			"Id": "ParamBodyAngleY",
			"Segments": [
				0,
				0,
				0,
				0.467,
				0
			]
		},
		{
			"Target": "Parameter",
			"Id": "ParamBodyAngleZ",
			"Segments": [
				0,
				0,
				0,
				0.467,
				0
			]
		},
		{
			"Target": "Parameter",
			"Id": "ParamBreath",
			"Segments": [
				0,
				0,
				0,
				0.467,
				0
			]
		},
		{
			"Target": "Parameter",
			"Id": "ParamHairFront",
			"Segments": [
				0,
				0,
				0,
				0.467,
				0
			]
		},
		{
			"Target": "Parameter",
			"Id": "ParamHairSide",
			"Segments": [
				0,
				0,
				0,
				0.467,
				0
			]
		},
		{
			"Target": "Parameter",
			"Id": "ParamHairBack",
			"Segments": [
				0,
				0,
				0,
				0.467,
				0
			]
		}
	]
}