<?xml version="1.0" encoding="UTF-8"?>
<svg xmlns="http://www.w3.org/2000/svg" xmlns:xlink="http://www.w3.org/1999/xlink" viewBox="0 0 1366 768">
  <defs>
    <style>
      .cls-1 {
        fill: url(#_未命名的渐变_8);
      }

      .cls-1, .cls-2, .cls-3 {
        stroke-width: 0px;
      }

      .cls-3 {
        fill: url(#_未命名的渐变_6);
      }
    </style>
    <linearGradient id="_未命名的渐变_6" data-name="未命名的渐变 6" x1="677.04" y1="195.86" x2="688.66" y2="564.93" gradientUnits="userSpaceOnUse">
      <stop offset="0" stop-color="#ecc663"/>
      <stop offset="1" stop-color="#dca32f"/>
    </linearGradient>
    <linearGradient id="_未命名的渐变_8" data-name="未命名的渐变 8" x1="834.02" y1="678.5" x2="831.69" y2="755.79" gradientUnits="userSpaceOnUse">
      <stop offset="0" stop-color="#976c10"/>
      <stop offset="1" stop-color="#ad811e"/>
    </linearGradient>
  </defs>
  <g id="_图层_4" data-name="图层 4">
    <rect class="cls-3" x="-6" width="1378.17" height="775.97"/>
  </g>
  <g id="_图层_3" data-name="图层 3">
    <path class="cls-1" d="m1372.17,775.97c-194.77-3.06-1078.62,0-1078.62,0-20.06-4.88,52.96-43.97,62.59-49.85,34.59-21.11,40.77-11.74,79.64-33.39,4.99-2.78,25.19-14.24,36.33-8.94,2.34,1.11,5.86,3.72,12.85,6.11,3.01,1.03,6.04,1.81,10.9,3.06.27.07,5.32,1.36,9.78,2.35,10.85,2.4,18.7,4.14,25.15,4.23,16.32.23,19.11-10.13,36.89-11.99,10.66-1.12,13.87,2.17,24.31,3.29,36.91,3.96,52.16-31.19,88.58-27.98,14.56,1.28,18.45,7.46,32.97,5.41,14.16-2,21.27-9.39,31.86-6.11,4.49,1.39,9.32,4.62,15.65,3.29,2.92-.61,3.19-1.57,5.59-2.12,7.51-1.72,12.4,5.95,20.96,8.47,10.15,2.98,13.02-4.93,38-8.94,0,0,14.91-2.39,29.34.24,5.75,1.05,8.85,2.44,11.18,4,4.31,2.88,4.41,5.26,7.27,6.82,5.28,2.89,11.37-1.74,21.24-3.76,21.24-4.35,40.55,7.38,50.86,3.06.91-.38,4.43-2.01,8.66-1.41,2.4.34,3.93,1.25,4.75,1.65,6.55,3.2,13.88-3.19,23.75-2.82,10.39.39,10.98,7.79,26.27,10.11,5.67.86,5.61-.16,10.9.94,8.79,1.82,11.42,5.14,20.12,7.29,5.68,1.4,9.74,1.27,12.3,1.41,17.75.99,29.74,19.07,44.99,27.04,11.27,5.9,38.72,1.11,93.61-8.47,32.69-5.7,49.03-8.55,56.17-13.17,5.91-3.82,16.47-12.1,27.94-10.11,4.64.8,5.79,2.65,10.62,4.23,11.87,3.88,24.47-.9,32.14-3.76,33.96-12.7,50.94-19.05,54.77-19.28"/>
  </g>
  <g id="_图层_2" data-name="图层 2">
    <path class="cls-2" d="m-6,775.96s0-83.71,0-83.71c1.18-10.23,1.12-5.64,1.7-8.64.23-1.16.75-2.22,1.46-3.18s1.61-1.85,2.59-2.66c.98-.17,2.04-1.53,3.07-2.24,1.33-.07,2.77-1.76,4.2-2.49,1.43-1.48,2.83.1,4.07-2.58,1.24,1.48,2.32-4.15,3.08-3.33.63-1.78,1.2-3.74,1.82-3.58.62-.37,1.3-2.94,2.16-3.13.86-.05,1.89-.48,3.23-.93,1.09-.86,1.98.8,2.74,1.61,1.11.63,2.07,1.81,2.86,3.47.79,2.99,1.41,3.13,1.84,3.97.43-1.04.68,3.79.72,4.25,1.14-3.42,2.28-1.3,3.42-3.13,1.14-1.07,2.28-2.81,3.42-3.13-.6.84-.66,3.58-.36,3.22.3-.26.95,2.33,1.79,3.13.83-.78,1.84.57,2.84,2.67,1,1.82,2.06,1.57,3,2.51.94-.62,1.76,3.6,2.27,2.89.52.92.74.81.48,3.27,1.34,2.53,2.75-.12,3.82-.77,1.07.96,1.8-3.74,1.78-4.1-.02-.96-.25-2.26-.18-4.44.07-2.57.46-2.23,1.66-3.72.92-.3,2.07-1.28,3.22-.79,1.15-.38,2.3,1.19,3.21,1.44.92,1.19,1.6.88,1.82,2.82.22.6.13,2.74-.18,3.18-.31.24-.84,1.68-1.49,3-.65,1-1.43,2.32-2.25,2.67,1.69-1.2,3.36.79,4.85-.6,1.49.1,2.81-2.14,3.82-2.87,1.01-3.01,1.7-1.79,1.93-4.1.23-1.79.01-2.75-.81-4.28,0-1.27.93-2.85,2.14-2.5,1.21-.18,2.71,1.22,3.88.08,1.17-.73,2.04,2.01,2.7,2.44.67-.28,1.13-.87,1.5,3.3.36,3.41.69,3.14,1.14,3.4.45-.41,1.03,1.68,1.91,3.03.41.91.9,1.12,1.49.91.84,1.39,1.58-.94,2.27-.6.69,1.44,1.33-1.62,1.95-1.67.89-1.68,2-1.42,3.18-1.55,1.18-2.34,2.45-1.7,3.65-.1,1.2-.33,2.34,1.12,3.29,1.36.94,2.62,1.65,3.26,2.09,2.63.44,1.57.62,3.14.52,3.2-.1,1.92-.48,2.65-1.16,3.05,1.07-.63,2.43-3.3,4.01-3.65,1.57-.33,3.34-2.11,5.21-2.68,1.87.03,3.84-3.41,5.81-2.18,1.97-2.62,3.93-1.75,5.79-2.15,1.86-.02,3.61-1.49,5.15-2.58,1.54-.15,2.88-1.1,3.9-3.48,1.02-2.37,1.74-.95,2.04-4.85.78.9,1.57,2.72,2.35,2.88.78.4,1.57,3.91,2.35,2.88.66.56,1.33-3.01,1.99-3.79.66.79,1.33-2.21,1.99-3.79.66-.58,1.33-3.52,1.99-3.79.66-3.87,1.33-.05,1.99-3.79,1.34,1.84,2.61,1.5,3.69,1.23,1.08-.26,1.97-1.59,2.56,2.7.59,2.22.87.94.74,3.44,1.23-1.16,2.28.31,3.11-.94.83.21,1.45.34,1.82-2.81.37,1.32.49-1.41.33-3.4-.16-.92-.45-1.39-.73-3.29-.27.21-.52-.97-.6-3.27-.07,4.16.03,1.17.47-3.16.44-.27,1.24-2.39,2.24-2.54,1-3.2,2.19,1.78,3.41-1.2,1.22-.49,2.48-3.67,3.6.48,1.12-.37,2.02-1.37,2.66,2.2.63,4.16,1-.11,1.05,3.12.05,2.13-.22,3.38-.86,3.13,1.61,2.49,3.2,1.43,4.62-.16,1.42,1.31,2.69-1.86,3.65-3.38.96-1.39,1.63-5.38,1.86-4.69.23-1.46.37-5.52.62-4.9.25-3.02.61-3.06,1.28-4.65.67-1.13,1.66-2.25,3.17-3.46,1.56-.88,3.41-.98,5.14-.54s3.33,1.42,4.41,2.69c1.08.82,1.64,2.33,1.27,4.45-.37,2.16-1.41,3-2.49,4.74-1.09.7-2.23,5.21-2.8,4.47-.57,2.34-.58,3.62.59,4.07.79,1.04,1.86,2.56,3.04,1.35,1.17,1.8,2.45,1.18,3.65-.66,1.21.6,2.34.23,3.24-1.95.9-2.53,1.75-1.37,2.63-2.5.88-3.28,1.78-3.14,2.77-2.3.99-.12,2.07-1.12,3.3-1.36.64,1.12,1.16,2.86,1.62,4.23.46,1.21.85,3.63,1.23,4.34.38.05.76,1.73,1.17,4.37.42,4.95.88,6.08,1.43,4.29.56,3.15,1.25,2.42,2.09,4.15.83.98,1.81,4.54,2.92,3.72,1.11-.42,2.35,2.21,3.73,2.9,1.38-3.01,2.89,1.88,4.54,1.67,1.65,1.93,3.37.97,4.99-.25,1.62-3.55,3.15-.69,4.4-2.18,1.25-1.26,2.23-2.72,2.77-3.47.53-2.49.62-2.42.09-4.13.71,2.74,1.41,3.06,2.12,2.74.71-.22,1.41,5.5,2.12,2.74.71-1.56,1.41,3.72,2.12,2.74-.7-.6-1.02-3.16-1.03-3.67,0-.72.3-1.35.84-3.76.55-.84,1.34-2.91,2.31-3.42.97-1.36,2.12-1.93,3.38-2.63,5.03-2.79,11.24-3.17,17.17-3.48-.68,1.24-1.25,2.53-1.71,3.85-.46,1.01-.8,2.16-1.03,4.03-.23,1-.35,2.7-.36,4.12,0,1.81.1,3.49.32,4.13.22.92.55,3.24.99,4.04.28,1.7.6,1.74.96,2.44.36.46.77,1.83,1.22,2.35.62-1.53,1.24-1.33,1.86-1.55.62.27,1.24-1.34,1.86-1.82.62.98,1.24-1.71,1.86-1.49.62-1.3,1.24-.04,1.86-1.89.62-1.61,1.24-.63,1.86-1.6.62-.15,1.24,1.38,1.86-1.77.62-.38,1.24-1.49,1.86-3,.62,0,1.24-1.67,1.86-.37.5-2.37,1.01-2.91,1.57-1.3.56-1.26,1.17.76,1.85-.88,1.12-1.08,2.21-1.23,3.17.41.48,1.72.92-.71,1.31.81.39-.3.73-.56,1.01,1.42.28,1.64.49-1.87.62.73.13-1.86.18.87.14,2.3-.04,2.53-.14,2.6-.29,1.81-.15,2.46-.35-.39-.59,1.12-.24-2.01-.51.35-.82,1.98-.3-.41-.64-1.95-.99.67-.35.62-.72-.09-1.09.17-.38,2.02-.76,1.08-1.14,2.27.66,1.57,1.32-.72,1.97-.42.65-.54,1.29.02,1.92.86.63-1.9,1.24.3,1.83-1.3.59-.28,1.16,1.59,1.7-.65.54.31,1.05-.7,1.53-.88.48-2.23.92-2.26,1.32-2.52.4.28.76-3.11,1.08-2.04.31,1.65.58,1.02.8-1.87.21.97.46-1.57.74-2.94.28-.91.6.27.94-1.03.35-1.71.73-1.18,1.14-1.91.41-.32.86-.14,1.34-1.71.95.65,2.04-2.12,3.24-2.38,1.21-1.11,2.53-.61,3.98-.24-.21.05-.39,1.2-.56,2.32-.16,1.36-.29,2.72-.39,2.44-.1,3.52-.17,1.41-.19,2.55-.03-.25-.01,1.2.05,2.38.06,1.16.17,3.27.32,2.68.16.28.37,1.4.64,1.84.27,2.86.6,3.13.99,1.81.39,1.28.85.92,1.39,1.72.53,1.02,1.14.52,1.82.68.68.42,1.44.95,2.29,1.27,1.8.21,3.54-1.23,5.19-.45,1.64,1.81,3.19-3.48,4.57-2.69,1.38.02,2.6-3.07,3.61-3.86,1.01-2.37,1.95-3.1,2.93-4.21.98-.02,2.01-4.21,3.2-3.99,1.18-.53,2.52-2.04,4.12-3.09,1.6-1.68,3.55-1.21,5.42-.91,1.87,1.4,3.67,1.21,4.97,1.76,1.3.45,2.09,4.7,1.96,3.94.64-.22,1.44-3.88,2.39-4.82.95-2.21,2.04-5.49,3.25-4.41,1.22.21,2.56-2.58,4.01-3.88,1.45.09,3.01-2.4,4.66-3.26,1.65-1.14,3.39-.42,5.2-2.53-.11,1.6-.04,2.91.21,4.71.25,1.69.67,3.31,1.26,4.58.59,2.79,1.34-.64,2.26,4.26.92-1.54,1.85.26,2.81-3.64.96.72,1.94-.57,2.94-3.56,1-2.38,2.02-3.86,3.07-3.48,1.04-1.15,2.11-3.13,3.19-3.39.69-.71,1.49-1.45,2.38-1.96s1.87-.8,2.9-.62c5.79,1.05.16,9.29,2.61,12.05,1.74,1.95,12.62,4.88,10.64-.49,1.72,4.65,3.44,9.31,5.15,13.96.57,1.55,1.15,3.1,1.72,4.65.57,2.64,1.15,4.42,1.72,4.65.57,1.42,1.15,1.61,1.72,4.65.57,1.29,1.15,3.29,1.72,4.65,1.21.21,2.48-1.23,3.64-.22,1.16-2.51,2.22-1.34,3.04-1.85.81-1.65,1.38-4.19,1.54-2.93.4.07,1.34,1.57,2.5,2.07,1.16.08,2.53.78,3.8-.19,1.27-.03,2.43-.94,3.16-2.08.73-.97,1.19-2.03,1.49-3.15.61-2.23.61-4.67.95-6.98.51-3.46,2.61-7.38,6.52-7.8,4.71-.5,7.87,4.63,7.4,8.82-.47,4.19-3.05,8.01-3.64,12.19-.93,6.6,4.14,13.23,11,15.64,1.72.6,3.54.94,5.42.95,1.03-.03,2.11.04,3.09-.38.98-.91,1.88.41,2.54-1.43.87,1,1.18-2.01,1.15-3.09-.03-3.54-.4-2.64-.92-3.49-.51-1.89-1.16-2.6-1.73-3.42-.57-1.08-.93-2.38-1-3.65-.14-2.54.86-4.95,3.54-5.14.29,1.77.67,3.52,1.14,5.26.47,1.66,1.03,3.82,1.67,5.14.64,1.52,1.38,2.84,2.19,4.99.81-1.22,1.71,3.73,2.68,4.8.97.49,2.02,2.32,3.15,4.57,1.13.61,2.33,3.41,3.6,4.3,1.27,2.72,2.62,7.02,4.03,3.99,1.22,2.19,2.52,3.34,3.9,3.15,1.38-1.27,2.83,2.76,4.37,2.56,1.54,1.1,3.16,3.75,4.87,1.57,1.71.98,3.52-3.11,5.27.07,1.74-.21,3.42-2.04,4.86-1.65,1.44-1.14,2.64-1.94,3.43-3.32,0,1.62.5,3.01,1.35,4.21.86,1.59,2.08,1.78,3.54,3.02,1.46,1.01,3.17-.24,5,1.98,1.83-.29,3.78-.33,5.72,1.08,1.95,1.93,3.89-1.16,5.72.33,2.18,2.03,4.35-.41,6.53,0,2.18,2.09,4.35-1.85,6.53,0,2.18-.76,4.35.24,6.53,0,2.18-2.99,4.35.79,6.53,0,2.18,0,4.35.25,6.53,0,2.18-1.56,4.35,2.13,6.53,0,2.18-1.41,4.35-2.53,6.53,0,2.18.65,4.35-1.22,6.53,0,2.18,2.09,4.35-.14,6.53,0,2.18-.41,4.35-1.62,6.53,0,2.18-2.46,4.35.82,6.53,0,2.18,1.01,4.35.41,6.53,0,2.18-.33,4.35,0,6.53,0,1.95,0,3.94-.01,5.94-.08s4.01-.17,6-.36c1.99,4.64,3.95,4.78,5.86-.84,1.91,7.57,3.76,1.21,5.52-1.5,1.76-.67,3.43-2.81,4.97-2.34,1.54,2.62,2.97,2.91,4.23-3.37.77-.47,1.48,2.05,2.2-2.54.72-1.68,1.46,5.15,2.28-2.44.41.92.85-3.06,1.31-1.02.47-1.14.96-1.77,1.5-.79.56-.51,1.13,2.36,1.72.62.59,2.36,1.19-1.73,1.79-1.35.61,1.22,1.22.04,1.84.51.62,1.62,1.24-1.65,1.87-.53.62,2.78,1.25-.11,1.87-.42.62,1.7,1.24,1.91,1.85.32.83-1.4,1.63-1.15,2.41-1.45.78.82,1.54-.98,2.28.22.74-1.16,1.46-2.1,2.17-2.56s1.41-.44,2.1.32c1.38-1.04,2.74-.73,4.11-2.69,1.37,1.13,2.75-1.8,4.19-2.58,1.44-.78,2.93-1.45,4.52-1.91,3.76-1.09,7.66-.96,11.59-.42,1.97.27,3.94.64,5.92,1,1.97-5.15,3.95,6.04,5.9.98,2.06,1.73,4.02,2.95,5.88.02,1.87-.72,3.64-4.8,5.36-1.34,1.71,5.9,3.36-4.15,4.96-2.37.8,2.2,1.59,6.81,2.37-1.47.78-.72,1.55,2.18,2.32-1.61.77-.43,1.53-1.31,2.28-2.08s1.51-1.42,2.26-1.41c1.51-2.29,3.01-2.08,4.53-3.56,1.52-3.04,3.06-2.56,4.65-3.32,1.58-.83,3.2-5.46,4.89-2.75.51-.82,1.05-1.68,1.6-2.05s1.12-.25,1.69.91c1.13-1.47,2.26,5.31,3.24.37.6,6.25,1.05,1.6,1.42,1.48.37,7.09.66-6.53.94,1.52.28,10.1.56,4.1.9,2.78.11,1.9.24,3.58.37,4.64.13.79.28,2.19.43.94.16.25.33-1.81.51-5.18.33-.65.67-2.25,1.03-2.7s.73.24,1.11,4.17c.25,1.46.51,1.05.78.35.26-1.14.53-2.95.79-3.74.27-.79.53-.55.8,2.43.4-.36.8,1.36,1.2,2.81.4-.74.79,1.28,1.18-3.73.39,3.5.76,3.42,1.13,1.98.37-1.52.72-3.9,1.05-3.23.71-3.11,1.44-1.24,2.2-1.38.76,4.58,1.54-6.55,2.33-1.34.27.72.53,2.24.8,3.45.27-.15.54,6.36.81,1.59.27-.63.54-2.48.82-6.97.82-1.46,1.66-1.02,2.49-.37.84-.09,1.68-.37,2.52-.66s1.68-.59,2.52-.75c.84-.98,1.66-.24,2.48.37s1.62.89,2.41-.41c.79.32,1.56-.24,2.31-.38s1.47.15,2.17,2.16c0-1.42,0-.28.01,0,.97-1.46,1.84-1.2,2.63.93.79-1.25,1.49.83,2.13,3.09.64-.56,1.21,1.62,1.74,1.05.53-.08,1.01-3.29,1.47,2.94.46,3.11.89,2.05,1.32.84.42-.89.84-3.07,1.27,3.03.43,3.1.87,4.2,1.34,2.89.47,2.25.97.99,1.52.75.55.61,1.15,4.59,1.82,1.7.33.83.68-.56,1.05.15.37.23.76-.2,1.17,1.45.41.32.84-.75,1.3-.13.46-.51.94,1.06,1.44,1.79.51.7,1.04.93,1.6,1.02s1.15.04,1.78.2c.88-.05,1.78.37,2.7.78s1.85.8,2.81.68c1.91,1.43,3.88.57,5.9.76,2.02-2.74,4.09.59,6.2.14,2.1-2.05,4.24-1.82,6.38-.38,2.15-.51,4.31-1.18,6.47-.81,2.16,2.2,4.31-4.25,6.44-1.15,2.13.59,4.24-4.71,6.31-1.4,2.07,1.78,4.1-.86,6.07-1.56.99.36,1.96.16,2.92-.23.96.17,1.9.65,2.82-1.39.46-.8.92-1.19,1.37-1.14.45.43.9.5,1.34,1.51.44.48.88-.15,1.31-1.03.43-.72.85-2.42,1.27-.93.73-.54,1.46-2.04,2.19-1.49.73-1.28,1.46-2.22,2.18.11.36-.1.73.58,1.09.31.36-1.23.73-1.39,1.09-1.69.73,2.45,1.45-1.3,2.17-.06.72.26,1.45.72,2.17-.83.72,1.46,1.45.44,2.17-.65.72-1.47,1.45.72,2.17-.75.72,2.24,1.44-.69,2.17-.75.48-.18.96-.61,1.44-1.18.48-1.13.96.84,1.44.17.96-1.03,1.92-1.19,2.89-1.01.96.48,1.93-1.1,2.89-1.15.96-.09,1.93-.9,2.89-.85.48-1.44.96-.12,1.45-.85.48.48.96-.73,1.45.57.48-1.2.97-1.04,1.45-.63.48-1.19.97-1.22,1.45-1.03.97-1.05,1.93-1.93,2.9-.78.97,2.52,1.94-2.29,2.91-1.08.49-.94.97-1.07,1.46-1.54.49,1.34.97-1.8,1.46-.38.97-.06,1.95-.89,2.93.18.49.19.98-4.99,1.47-1.59.49,1.21.98.5,1.47-.02.49-3.44.98-2.14,1.47-1.06.49-.67.98,2.74,1.48,1.07.49-.98.99.81,1.48-.3.25-.12.49-1.52.74-1.79.25-1.28.49-1.18.74,1.31.25.72.5-2.83.74-1.73.25-1.56.5,1.28.74,1.1.5-3.03.99,4.92,1.49.02.25-3.06.5.11.75-2.21.25-1.36.5.13.75.53.5,5.89,1,1.15,1.5.4.5-.71,1,2.99,1.5.84.5-.02,1,1.12,1.51-.74.5,1,1.01-3.36,1.51-.71.5.82,1.01,6.95,1.52,1.23.51,1.07,1.01,7.49,1.52-1.8.51-3.75,1.02,3.34,1.53.36.56-5.64,1.12,2.95,1.67.39.56,7.48,1.11.66,1.67-.77.56,1.31,1.11.52,1.67-.16.28.58.56-3.64.84,1.12.28,3.24.56-1.18.84-1.26.56-.68,1.11,2.7,1.67-.27.56-.59,1.11-1.49,1.67-.72.56-2.24,1.11,1.27,1.67-.28.56.51,1.11.53,1.67.9,1.11-2.47,2.23,4.66,3.34-.56,1.11-.81,2.23,1.49,3.34.48.56-1.11,1.11.26,1.67,1.29s1.11,1.73,1.67-.71c1.11-.52,2.23-1.73,3.34-.39,1.11.88,2.23,1.01,3.34.57,1.11,1.35,2.23-2.23,3.34-.15,1.11-.04,2.23.84,3.34.05,1.11-2.43,2.23-.31,3.34.57,1.04-.46,2.09-.66,3.13.35,1.04.53,2.09-.22,3.13.38,1.04.4,2.09.72,3.13.41,1.04-.97,2.09,2.46,3.13.44.7-.79,2.33-.38,3.96.73,1.63-.89,3.27-.94,3.96.74.7,2.74.46-.16-1.65-.52,3.71,2.45,5.9,3.12,6.85,1.84.95-1.96.67-.49-.58-.82,1.25.12,1.88-2.08,2.67,1.5.79-1.25,1.73-.74,3.61-.43-1.88.02-2.3-1.01-1.25.16,1.04-1.96,3.55-.92,7.53.93-2.4-1.74-2.73-3.03-2.03-.53.35.06,2.31.38,3.73.62s2.28.41.43.19c5.67.85,11.95,1.69,4.16.8,7.85.89,9.69.92,3.14.53,6.55.39,8.54.36,3.14.52,5.4-.16,8.24-.17,6.29.99,1.96-1.16,2.69-.95,6.29.9-1.52-.89-.84-.9.67-.59s8.95.89,5.63,1.38c4.32-.37,8.9-.47,2.27.09,7.23-.47,10.33-.64,4.03.57,6.33-1.21,8.57-1.22,3.15.27,5.42-1.49,8.49-1.49,3.15.22,5.34-1.72,10.59-1.72,4.73.25,5.86-1.96,7.66-1.96,4.74.13,2.94-2.09,3.22-2.05,4.74,0-1.45-2.05-.66-1.69,4.75-.14-2.35-.79-1.69-.88-.08-.76s4.48.5,5.66.52c.55-.06,2.32.09,2.36-.13,1.96.23,4.86.96,3.34.06,3.48.94,8.43,4.46,5.58.35,3.63,4.21,6.74,7.91,5.24,1.01,1.61,6.93,2.29,7.77,4.69,1.93-2.35,5.87-2.15,5.93,3.9,3.1-5.98,2.83,2.51-2.42,4.38-3.78.77-.59,1.57-1.15,2.38-1.69.86-.54,4.88-1.09,2.49-1.56,4.26-.63,12.72-1.65,5.27-2.72,7.68.96,12.65-2.09,5.6-2.16,7.06.07,8.58-.65,5.85-1.6,1.37.47,2.06.7,2.82.56s2.94-.62,3.2-1.58c-.2.95.09,1.08-.02.88,2.41-.19,12.71.45,6.12-1.3,6.73,1.75,8.11,2.18,1.4.36,6.83,1.81,10.36,3.5,4.71-.18,5.65,3.69,7.15,4.41,3.03.32,4.12,4.09,4.77,4.4,3,.48,1.77,3.92,1.96,3.99,3.94.88-1.96,3.11-1.59,2.87,3.85,1.17-5.18,1.78-1.57,1.46,3.73,1.46-3.83.62,3.06,1.43,4.55,2.22,1.49.79,2.94,1.62,4.39,2.47,5.79,3.41,11.38,7.11,17.73,9.57,9.78,3.78,20.68,4.36,31.33,4.89,38.35,1.9,91.14,10.39,124.82-6.01,0,0,1.4,80.33-.28,78.34"/>
  </g>
</svg>