{
  "main": {
    "id": "133ed0fb87a35667",
    "type": "split",
    "children": [
      {
        "id": "5e3f671707242c03",
        "type": "tabs",
        "children": [
          {
            "id": "5dd809d005fdd38e",
            "type": "leaf",
            "state": {
              "type": "markdown",
              "state": {
                "file": "生活/🪶杂谈/恶狗追车，该怎么办？.md",
                "mode": "source",
                "source": false
              }
            }
          }
        ]
      }
    ],
    "direction": "vertical"
  },
  "left": {
    "id": "9e3d175ec315fe92",
    "type": "mobile-drawer",
    "children": [
      {
        "id": "a7b79ca2c435db67",
        "type": "leaf",
        "state": {
          "type": "file-explorer",
          "state": {
            "sortOrder": "alphabetical"
          }
        }
      },
      {
        "id": "dfbeca434d117a66",
        "type": "leaf",
        "state": {
          "type": "search",
          "state": {
            "query": "",
            "matchingCase": false,
            "explainSearch": false,
            "collapseAll": false,
            "extraContext": false,
            "sortOrder": "alphabetical"
          }
        }
      },
      {
        "id": "a3eeeb079216acc6",
        "type": "leaf",
        "state": {
          "type": "tag",
          "state": {
            "sortOrder": "frequency",
            "useHierarchy": true
          }
        }
      },
      {
        "id": "9697f65227f0dca9",
        "type": "leaf",
        "state": {
          "type": "bookmarks",
          "state": {}
        }
      }
    ],
    "currentTab": 0
  },
  "right": {
    "id": "f3d0da9917621867",
    "type": "mobile-drawer",
    "children": [
      {
        "id": "2bdb647ff28ff1d3",
        "type": "leaf",
        "state": {
          "type": "backlink",
          "state": {
            "file": "生活/🪶杂谈/恶狗追车，该怎么办？.md",
            "collapseAll": false,
            "extraContext": false,
            "sortOrder": "alphabetical",
            "showSearch": false,
            "searchQuery": "",
            "backlinkCollapsed": false,
            "unlinkedCollapsed": true
          }
        }
      },
      {
        "id": "8a025b49bdd07b30",
        "type": "leaf",
        "state": {
          "type": "outgoing-link",
          "state": {
            "file": "生活/🪶杂谈/恶狗追车，该怎么办？.md",
            "linksCollapsed": false,
            "unlinkedCollapsed": true
          }
        }
      },
      {
        "id": "2c3a5ae021e4a8c9",
        "type": "leaf",
        "state": {
          "type": "outline",
          "state": {
            "file": "生活/🪶杂谈/恶狗追车，该怎么办？.md"
          }
        }
      }
    ],
    "currentTab": 0
  },
  "left-ribbon": {
    "hiddenItems": {
      "switcher:打开快速切换": false,
      "graph:查看关系图谱": false,
      "canvas:新建白板": false,
      "daily-notes:打开/创建今天的日记": false,
      "templates:插入模板": false,
      "command-palette:打开命令面板": false
    }
  },
  "active": "5dd809d005fdd38e",
  "lastOpenFiles": [
    "生活/🪶杂谈/500px.md",
    "生活/🪶杂谈/《雷鸣风暴》技巧总结暨退坑声明.md",
    "生活/日志/2022-12-05.md"
  ]
}