{
	"Version": 3,
	"FileReferences": {
		"Moc": "79f0f736afc379315ac5217ffcc4b74543a91132.moc3",
		"Textures": [
			"79f0f736afc379315ac5217ffcc4b74543a91132.2048/texture_00.png"
		],
		"DisplayInfo": "79f0f736afc379315ac5217ffcc4b74543a91132.cdi3.json"
	},
	"Groups": [
		{
			"Target": "Parameter",
			"Name": "LipSync",
			"Ids": []
		},
		{
			"Target": "Parameter",
			"Name": "EyeBlink",
			"Ids": []
		}
	]
}